{
  "_id": "0RWmXvAwFew0fSCb",
  "name": "Giant Dragonfly",
  "type": "npc",
  "img": "systems/pf1/icons/races/creature-types/vermin.png",
  "data": {
    "abilities": {
      "str": {
        "value": 19
      },
      "dex": {
        "value": 15
      },
      "con": {
        "value": 14
      },
      "int": {
        "value": 0
      },
      "wis": {
        "value": 12
      },
      "cha": {
        "value": 9
      }
    },
    "attributes": {
      "naturalAC": "+5",
      "cmdNotes": "29 vs. trip",
      "hp": {
        "value": 53
      },
      "speed": {
        "land": {
          "base": 20
        },
        "fly": {
          "base": 80,
          "maneuverability": "perfect"
        }
      },
      "spells": {
        "usedSpellbooks": []
      }
    },
    "details": {
      "cr": {
        "base": 4
      }
    },
    "skills": {
      "fly": {
        "rank": 8
      }
    },
    "traits": {
      "senses": "darkvision 60 ft.; Perception +1",
      "languages": {
        "value": []
      },
      "di": {
        "value": []
      },
      "dv": {
        "value": []
      },
      "ci": {
        "value": [
          "mindAffecting"
        ]
      },
      "stature": ""
    }
  },
  "token": {
    "name": "Giant Dragonfly",
    "displayName": 20,
    "actorLink": false,
    "width": 1,
    "height": 1,
    "scale": 1,
    "mirrorX": false,
    "mirrorY": false,
    "lockRotation": false,
    "rotation": 0,
    "alpha": 1,
    "vision": false,
    "dimSight": 0,
    "brightSight": "60",
    "dimLight": 0,
    "brightLight": 0,
    "sightAngle": 0,
    "lightAngle": 0,
    "lightAlpha": 0.25,
    "lightAnimation": {
      "speed": 5,
      "intensity": 5
    },
    "disposition": -1,
    "displayBars": 20,
    "bar1": {
      "attribute": null
    },
    "bar2": {
      "attribute": null
    },
    "flags": {},
    "randomImg": false,
    "img": "systems/pf1/icons/races/creature-types/vermin.png"
  },
  "items": [
    {
      "_id": "g3gX00gTvJU478ju",
      "name": "Vermin",
      "type": "class",
      "img": "systems/pf1/icons/skills/green_05.jpg",
      "data": {
        "description": {
          "value": "<p>This type includes insects, arachnids, other arthropods, worms, and similar invertebrates.</p>\n<h2><span id=\"Features\">Features</span></h2>\n<p>Vermin have the following features.</p>\n<ul>\n<li>d8 Hit Die.</li>\n<li>Base attack bonus equal to 3/4 total Hit Dice (medium progression).</li>\n<li>Good&nbsp;<a href=\"https://www.d20pfsrd.com/gamemastering/combat#TOC-Fortitude\">Fortitude</a>&nbsp;saves.</li>\n<li>Skill points equal to 2 + Int modifier (minimum 1) per Hit Die. Most vermin, however, are mindless and gain no skill points or feats. Vermin have no class skills.</li>\n</ul>\n<h2><span id=\"Traits\">Traits</span></h2>\n<p>Vermin possess the following traits (unless otherwise noted in a creature’s entry).</p>\n<ul>\n<li>Mindless: No&nbsp;<a href=\"https://www.d20pfsrd.com/basics-ability-scores/ability-scores#TOC-Intelligence-Int-\">Intelligence</a>&nbsp;score, and immunity to all mind-affecting effects (charms, compulsions, morale effects, patterns, and phantasms). A vermin-like creature with an&nbsp;<a href=\"https://www.d20pfsrd.com/basics-ability-scores/ability-scores#TOC-Intelligence-Int-\">Intelligence</a>&nbsp;score is usually either an animal or a magical beast, depending on its other abilities.</li>\n<li><a href=\"https://www.d20pfsrd.com/gamemastering/special-abilities#TOC-Darkvision\">Darkvision</a>&nbsp;60 feet.</li>\n<li>Proficient with its natural weapons only.</li>\n<li>Proficient with no armor.</li>\n<li>Vermin breathe, eat, and sleep.</li>\n</ul>"
        },
        "tags": [],
        "changes": [],
        "links": "",
        "tag": "vermin",
        "useCustomTag": true,
        "armorProf": {
          "value": []
        },
        "weaponProf": {
          "value": []
        },
        "flags": {
          "boolean": [],
          "dictionary": []
        },
        "scriptCalls": [],
        "classType": "racial",
        "level": 7,
        "hp": 39,
        "bab": "med",
        "skillsPerLevel": 2,
        "savingThrows": {
          "fort": {
            "value": "high"
          }
        },
        "classSkills": {
          "acr": false,
          "apr": false,
          "art": false,
          "blf": false,
          "clm": false,
          "crf": false,
          "dip": false,
          "dev": false,
          "dis": false,
          "esc": false,
          "fly": false,
          "han": false,
          "hea": false,
          "int": false,
          "kar": false,
          "kdu": false,
          "ken": false,
          "kge": false,
          "khi": false,
          "klo": false,
          "kna": false,
          "kno": false,
          "kpl": false,
          "kre": false,
          "lin": false,
          "lor": false,
          "per": false,
          "prf": false,
          "pro": false,
          "rid": false,
          "sen": false,
          "slt": false,
          "spl": false,
          "ste": false,
          "sur": false,
          "swm": false,
          "umd": false
        }
      },
      "effects": [],
      "folder": null,
      "sort": 0,
      "permission": {
        "default": 0
      },
      "flags": {}
    },
    {
      "_id": "kcz8bkck5bggsxd1",
      "name": "Race: Vermin",
      "type": "race",
      "img": "systems/pf1/icons/skills/green_05.jpg",
      "data": {
        "description": {
          "value": "sbc | As no playable race was found a placeholder was generated."
        },
        "tags": [],
        "changes": [],
        "contextNotes": [],
        "links": {
          "children": []
        },
        "armorProf": {
          "value": []
        },
        "weaponProf": {
          "value": []
        },
        "flags": {
          "boolean": [],
          "dictionary": []
        },
        "scriptCalls": [],
        "creatureType": "vermin",
        "subTypes": [
          [
            ""
          ]
        ]
      },
      "effects": [],
      "folder": null,
      "sort": 0,
      "permission": {
        "default": 0
      },
      "flags": {}
    },
    {
      "_id": "jxl3753vk6ohlaih",
      "name": "Sense: Darkvision 60ft.",
      "type": "feat",
      "img": "systems/pf1/icons/skills/shadow_12.jpg",
      "data": {
        "description": {
          "value": "Darkvision is the extraordinary ability to see with no light source at all, out to a range specified for the creature. Darkvision is black-and-white only (colors cannot be discerned). It does not allow characters to see anything that they could not see otherwise—invisible objects are still invisible, and illusions are still visible as what they seem to be. Likewise, darkvision subjects a creature to gaze attacks normally. The presence of light does not spoil darkvision."
        },
        "tags": [],
        "damage": {
          "parts": [],
          "critParts": [],
          "nonCritParts": []
        },
        "attackParts": [],
        "effectNotes": [],
        "attackNotes": [],
        "changes": [],
        "contextNotes": [],
        "links": {
          "children": [],
          "charges": []
        },
        "tag": "senseDarkvision60ft",
        "armorProf": {
          "value": []
        },
        "weaponProf": {
          "value": []
        },
        "flags": {
          "boolean": [],
          "dictionary": []
        },
        "scriptCalls": [],
        "featType": "racial",
        "associations": {
          "classes": []
        },
        "abilityType": "ex"
      },
      "effects": [],
      "folder": null,
      "sort": 0,
      "permission": {
        "default": 0
      },
      "flags": {}
    },
    {
      "_id": "p0v2j4tqoyhdf24y",
      "name": "Flyby Attackb",
      "type": "feat",
      "img": "systems/pf1/icons/skills/yellow_36.jpg",
      "data": {
        "description": {
          "value": "sbc | As Flyby AttackB could not be found in any compendium, a placeholder was generated."
        },
        "tags": [],
        "damage": {
          "parts": [],
          "critParts": [],
          "nonCritParts": []
        },
        "attackParts": [],
        "effectNotes": [],
        "attackNotes": [],
        "changes": [],
        "contextNotes": [],
        "links": {
          "children": [],
          "charges": []
        },
        "armorProf": {
          "value": []
        },
        "weaponProf": {
          "value": []
        },
        "flags": {
          "boolean": [],
          "dictionary": []
        },
        "scriptCalls": [],
        "associations": {
          "classes": []
        }
      },
      "effects": [],
      "folder": null,
      "sort": 0,
      "permission": {
        "default": 0
      },
      "flags": {}
    },
    {
      "_id": "p1ip1r3z0hw7iuij",
      "name": "Bite",
      "type": "attack",
      "img": "systems/pf1/icons/items/inventory/monster-head.jpg",
      "data": {
        "tags": [],
        "activation": {
          "type": "attack"
        },
        "unchainedAction": {
          "activation": {
            "type": "attack"
          }
        },
        "duration": {
          "units": "inst"
        },
        "range": {
          "value": "",
          "units": "melee"
        },
        "attackName": "Bite",
        "actionType": "mwak",
        "attackBonus": "0",
        "damage": {
          "parts": [
            [
              "2d8+2",
              "B, P and S"
            ]
          ],
          "critParts": [],
          "nonCritParts": []
        },
        "attackParts": [],
        "ability": {
          "attack": "str",
          "damage": "str"
        },
        "effectNotes": [
          "grab"
        ],
        "attackNotes": [
          "bite +9 (2d8+6 plus grab)"
        ],
        "links": {
          "children": [],
          "charges": [],
          "ammunition": []
        },
        "flags": {
          "boolean": [],
          "dictionary": []
        },
        "scriptCalls": [],
        "attackType": "natural",
        "conditionals": []
      },
      "effects": [],
      "folder": null,
      "sort": 0,
      "permission": {
        "default": 0
      },
      "flags": {}
    },
    {
      "_id": "wgl5waia28q1486e",
      "name": "Ecology",
      "type": "feat",
      "img": "icons/environment/wilderness/tree-oak.webp",
      "data": {
        "description": {
          "value": "<div><strong>Environment</strong>:  temperate or warm land</div><div><strong>Organization</strong>:  solitary or flight (2-5)</div><div><strong>Treasure</strong>:  incidental</div>"
        },
        "tags": [],
        "damage": {
          "parts": [],
          "critParts": [],
          "nonCritParts": []
        },
        "attackParts": [],
        "effectNotes": [],
        "attackNotes": [],
        "changes": [],
        "contextNotes": [],
        "links": {
          "children": [],
          "charges": []
        },
        "armorProf": {
          "value": []
        },
        "weaponProf": {
          "value": []
        },
        "flags": {
          "boolean": [],
          "dictionary": []
        },
        "scriptCalls": [],
        "featType": "misc",
        "associations": {
          "classes": []
        }
      },
      "effects": [],
      "folder": null,
      "sort": 0,
      "permission": {
        "default": 0
      },
      "flags": {}
    },
    {
      "_id": "10g4uut6qtgfj4ff",
      "name": "Darting Charge",
      "type": "feat",
      "img": "systems/pf1/icons/skills/yellow_36.jpg",
      "data": {
        "description": {
          "value": "A giant dragonfly is adept at swooping in to attack prey with a powerful bite and then, just as quickly, swooping back up out of reach. As a result, a giant dragonfly gains Flyby Attack as a bonus feat. In addition, if a giant dragonfly charges while flying, it receives a +4 bonus on CMB checks made to grapple foes."
        },
        "tags": [],
        "damage": {
          "parts": [],
          "critParts": [],
          "nonCritParts": []
        },
        "attackParts": [],
        "effectNotes": [],
        "attackNotes": [],
        "changes": [],
        "contextNotes": [],
        "links": {
          "children": [],
          "charges": []
        },
        "armorProf": {
          "value": []
        },
        "weaponProf": {
          "value": []
        },
        "flags": {
          "boolean": [],
          "dictionary": []
        },
        "scriptCalls": [],
        "featType": "classFeat",
        "associations": {
          "classes": []
        },
        "abilityType": "ex"
      },
      "effects": [],
      "folder": null,
      "sort": 0,
      "permission": {
        "default": 0
      },
      "flags": {}
    },
    {
      "_id": "mAowth6G8lnEkGoK",
      "name": "sbc | Conversion Buff",
      "type": "buff",
      "img": "systems/pf1/icons/skills/yellow_36.jpg",
      "data": {
        "description": {
          "value": "<h2>sbc | Conversion Buff</h2>\n                        This Buff was created by <strong>sbc</strong> to compensate for differences between the input and the values FoundryVTT calculates automatically.\n                        <br><br>\n                        Especially when the pathfinder system gets upgraded, entries in compendiums get updated or foundry changes in some way, this buff may become outdated.\n                        <br><br>\n                        For most mooks the conversion should more or less work, but for important NPCs or creatures it is adviced to double check the conversion manually."
        },
        "tags": [],
        "changes": [
          {
            "formula": "-8",
            "modifier": "untypedPerm",
            "operator": "add",
            "priority": 0,
            "subTarget": "mhp",
            "target": "misc",
            "value": -8,
            "id": "u67j6iec"
          },
          {
            "formula": "-8",
            "modifier": "untypedPerm",
            "operator": "add",
            "priority": 0,
            "subTarget": "skill.fly",
            "target": "skill",
            "value": -8,
            "id": "saq59loz"
          }
        ],
        "contextNotes": [
          {
            "subTarget": "cmb",
            "target": "misc",
            "text": "+13 grappling, or +17 grappling on a charge"
          }
        ],
        "links": {
          "children": []
        },
        "tag": "sbcConversionBuff",
        "useCustomTag": true,
        "flags": {
          "boolean": [],
          "dictionary": []
        },
        "scriptCalls": [],
        "buffType": "perm",
        "active": true,
        "hideFromToken": true
      },
      "effects": [],
      "folder": null,
      "sort": 0,
      "permission": {
        "default": 0,
        "iM1ACTqH0Ml6HJtd": 3
      },
      "flags": {}
    }
  ],
  "effects": [],
  "folder": null,
  "sort": 0,
  "permission": {
    "default": 0
  },
  "flags": {}
}