{
  "_id": "UgK6u4nQ9rHdEMoI",
  "name": "Hala",
  "type": "npc",
  "img": "systems/pf1/icons/races/creature-types/outsider.png",
  "data": {
    "abilities": {
      "str": {
        "value": 16
      },
      "dex": {
        "value": 19
      },
      "con": {
        "value": 14
      },
      "int": {
        "value": 12
      },
      "wis": {
        "value": 11
      },
      "cha": {
        "value": 15
      }
    },
    "attributes": {
      "naturalAC": "+4",
      "sr": {
        "formula": "15"
      },
      "hp": {
        "value": 47
      },
      "speed": {
        "fly": {
          "base": 60,
          "maneuverability": "perfect"
        }
      },
      "spells": {
        "usedSpellbooks": [
          "spelllike"
        ],
        "spellbooks": {
          "spelllike": {
            "altName": "Spell-like Abilities",
            "concentrationNotes": "sbc | Total in statblock was +7, adjust as needed.",
            "clNotes": "sbc | Total in statblock was CL 5, adjust as needed.",
            "autoSpellLevelCalculation": false,
            "autoSpellLevels": false,
            "arcaneSpellFailure": false,
            "domainSlotValue": 0
          }
        }
      }
    },
    "details": {
      "alignment": "ce",
      "cr": {
        "base": 4
      }
    },
    "skills": {
      "acr": {
        "rank": 8
      },
      "esc": {
        "rank": 8
      },
      "fly": {
        "rank": 16
      },
      "int": {
        "rank": 8
      },
      "kpl": {
        "rank": 5
      },
      "per": {
        "rank": 5
      },
      "ste": {
        "rank": 5
      }
    },
    "traits": {
      "senses": "darkvision 60 ft.; Perception +8",
      "dr": "10/cold iron or good",
      "eres": "Acid 10;Cold 10;Fire 10;",
      "languages": {
        "value": [
          "abyssal",
          "celestial",
          "draconic"
        ],
        "custom": "telepathy 100 ft."
      },
      "di": {
        "value": [
          "electric"
        ]
      },
      "dv": {
        "value": [],
        "custom": "Enemy Of Dragons And Eagles"
      },
      "ci": {
        "value": [
          "poison"
        ]
      },
      "stature": ""
    }
  },
  "token": {
    "name": "Hala",
    "displayName": 20,
    "actorLink": false,
    "width": 1,
    "height": 1,
    "scale": 1,
    "mirrorX": false,
    "mirrorY": false,
    "lockRotation": false,
    "rotation": 0,
    "alpha": 1,
    "vision": false,
    "dimSight": 0,
    "brightSight": "60",
    "dimLight": 0,
    "brightLight": 0,
    "sightAngle": 0,
    "lightAngle": 0,
    "lightAlpha": 0.25,
    "lightAnimation": {
      "speed": 5,
      "intensity": 5
    },
    "disposition": -1,
    "displayBars": 20,
    "bar1": {
      "attribute": null
    },
    "bar2": {
      "attribute": null
    },
    "flags": {},
    "randomImg": false,
    "img": "systems/pf1/icons/races/creature-types/outsider.png"
  },
  "items": [
    {
      "_id": "cV7yHt8i5YCV0ZTd",
      "name": "Outsider (Air, Chaotic, Demon, Evil, Extraplanar)",
      "type": "class",
      "img": "systems/pf1/icons/skills/yellow_40.jpg",
      "data": {
        "description": {
          "value": "<p>An outsider is at least partially composed of the essence (but not necessarily the material) of some plane other than the Material Plane. Some creatures start out as some other type and become outsiders when they attain a higher (or lower) state of spiritual existence.</p>\n<h2><span id=\"Features\">Features</span></h2>\n<p>An outsider has the following features.</p>\n<ul>\n<li>d10 Hit Dice.</li>\n<li>Base attack bonus equal to total Hit Dice (fast progression).</li>\n<li>Two good saving throws, usually&nbsp;<a href=\"https://www.d20pfsrd.com/gamemastering/combat#TOC-Reflex\" rel=\"nofollow\">Reflex</a>&nbsp;and Will.</li>\n<li>Skill points equal to 6 + Int modifier (minimum 1) per Hit Die. The following are class skills for outsiders: <a href=\"https://www.d20pfsrd.com/skills/bluff\" rel=\"nofollow\">Bluff</a>, <a href=\"https://www.d20pfsrd.com/skills/craft\" rel=\"nofollow\">Craft</a>, <a href=\"https://www.d20pfsrd.com/skills/knowledge\" rel=\"nofollow\">Knowledge</a>&nbsp;(planes), <a href=\"https://www.d20pfsrd.com/skills/perception\" rel=\"nofollow\">Perception</a>, <a href=\"https://www.d20pfsrd.com/skills/sense-motive\" rel=\"nofollow\">Sense Motive</a>, and <a href=\"https://www.d20pfsrd.com/skills/stealth\" rel=\"nofollow\">Stealth</a>. Due to their varied nature, outsiders also receive 4 additional class skills determined by the creature’s theme.</li>\n</ul>\n<h2><span id=\"Traits\">Traits</span></h2>\n<p>An outsider possesses the following traits (unless otherwise noted in a creature’s entry).</p>\n<ul>\n<li>Darkvision 60 feet.</li>\n<li>Unlike most living creatures, an outsider does not have a dual nature—its soul and body form one unit. When an outsider is slain, no soul is set loose. Spells that restore souls to their bodies, such as&nbsp;<a href=\"https://www.d20pfsrd.com/magic/all-spells/r/raise-dead\" rel=\"nofollow\">raise dead</a>,&nbsp;<a href=\"https://www.d20pfsrd.com/magic/all-spells/r/reincarnate\" rel=\"nofollow\">reincarnate</a>,&nbsp;and&nbsp;<a href=\"https://www.d20pfsrd.com/magic/all-spells/r/resurrection\" rel=\"nofollow\">resurrection</a>,&nbsp;don’t work on an outsider. It takes a different magical effect, such as&nbsp;<a href=\"https://www.d20pfsrd.com/magic/all-spells/l/limited-wish\" rel=\"nofollow\">limited wish</a>,&nbsp;<a href=\"https://www.d20pfsrd.com/magic/all-spells/w/wish\" rel=\"nofollow\">wish</a>,&nbsp;<a href=\"https://www.d20pfsrd.com/magic/all-spells/m/miracle\" rel=\"nofollow\">miracle</a>,&nbsp;or&nbsp;<a href=\"https://www.d20pfsrd.com/magic/all-spells/t/true-resurrection\" rel=\"nofollow\">true resurrection</a>&nbsp;to restore it to life. An outsider with the native subtype can be raised, reincarnated, or resurrected just as other living creatures can be.</li>\n<li>Proficient with all simple and martial weapons and any weapons mentioned in its entry.</li>\n<li>Proficient with whatever type of armor (light, medium, or heavy) it is described as wearing, as well as all lighter types. Outsiders not indicated as wearing armor are not proficient with armor. Outsiders are proficient with shields if they are proficient with any form of armor.</li>\n<li>Outsiders breathe, but do not need to eat or sleep (although they can do so if they wish). Native outsiders breathe, eat, and sleep.</li>\n</ul>"
        },
        "tags": [],
        "changes": [],
        "links": "",
        "tag": "outsider",
        "useCustomTag": true,
        "armorProf": {
          "value": []
        },
        "weaponProf": {
          "value": []
        },
        "flags": {
          "boolean": [],
          "dictionary": []
        },
        "scriptCalls": [],
        "classType": "racial",
        "level": 5,
        "hd": 10,
        "hp": 37,
        "bab": "high",
        "skillsPerLevel": 6,
        "savingThrows": {
          "ref": {
            "value": "high"
          },
          "will": {
            "value": "high"
          }
        },
        "classSkills": {
          "acr": false,
          "apr": false,
          "art": false,
          "blf": true,
          "clm": false,
          "crf": true,
          "dip": false,
          "dev": false,
          "dis": false,
          "esc": false,
          "fly": false,
          "han": false,
          "hea": false,
          "int": false,
          "kar": false,
          "kdu": false,
          "ken": false,
          "kge": false,
          "khi": false,
          "klo": false,
          "kna": false,
          "kno": false,
          "kpl": true,
          "kre": false,
          "lin": false,
          "lor": false,
          "per": true,
          "prf": false,
          "pro": false,
          "rid": false,
          "sen": true,
          "slt": false,
          "spl": false,
          "ste": true,
          "sur": false,
          "swm": false,
          "umd": false
        }
      },
      "effects": [],
      "folder": null,
      "sort": 0,
      "permission": {
        "default": 0
      },
      "flags": {}
    },
    {
      "_id": "cmu2h0mqjih0ma2a",
      "name": "Race: Outsider",
      "type": "race",
      "img": "systems/pf1/icons/skills/yellow_40.jpg",
      "data": {
        "description": {
          "value": "sbc | As no playable race was found a placeholder was generated."
        },
        "tags": [],
        "changes": [],
        "contextNotes": [],
        "links": {
          "children": []
        },
        "armorProf": {
          "value": []
        },
        "weaponProf": {
          "value": []
        },
        "flags": {
          "boolean": [],
          "dictionary": []
        },
        "scriptCalls": [],
        "creatureType": "outsider",
        "subTypes": [
          [
            "air"
          ],
          [
            "chaotic"
          ],
          [
            "demon"
          ],
          [
            "evil"
          ],
          [
            "extraplanar"
          ]
        ]
      },
      "effects": [],
      "folder": null,
      "sort": 0,
      "permission": {
        "default": 0
      },
      "flags": {}
    },
    {
      "_id": "9c5468nlqzubmsm6",
      "name": "Sense: Darkvision 60ft.",
      "type": "feat",
      "img": "systems/pf1/icons/skills/shadow_12.jpg",
      "data": {
        "description": {
          "value": "Darkvision is the extraordinary ability to see with no light source at all, out to a range specified for the creature. Darkvision is black-and-white only (colors cannot be discerned). It does not allow characters to see anything that they could not see otherwise—invisible objects are still invisible, and illusions are still visible as what they seem to be. Likewise, darkvision subjects a creature to gaze attacks normally. The presence of light does not spoil darkvision."
        },
        "tags": [],
        "damage": {
          "parts": [],
          "critParts": [],
          "nonCritParts": []
        },
        "attackParts": [],
        "effectNotes": [],
        "attackNotes": [],
        "changes": [],
        "contextNotes": [],
        "links": {
          "children": [],
          "charges": []
        },
        "tag": "senseDarkvision60ft",
        "armorProf": {
          "value": []
        },
        "weaponProf": {
          "value": []
        },
        "flags": {
          "boolean": [],
          "dictionary": []
        },
        "scriptCalls": [],
        "featType": "racial",
        "associations": {
          "classes": []
        },
        "abilityType": "ex"
      },
      "effects": [],
      "folder": null,
      "sort": 0,
      "permission": {
        "default": 0
      },
      "flags": {}
    },
    {
      "_id": "08peqlx7l53c1vnb",
      "name": "Aura: Stormwind Aura",
      "type": "feat",
      "img": "systems/pf1/icons/spells/runes-blue-3.jpg",
      "data": {
        "tags": [],
        "activation": {
          "cost": null,
          "type": "passive"
        },
        "unchainedAction": {
          "activation": {
            "cost": null,
            "type": "passive"
          }
        },
        "duration": {
          "units": "perm"
        },
        "target": {
          "value": "centered on self"
        },
        "range": {
          "value": 0,
          "units": "ft"
        },
        "measureTemplate": {
          "type": "circle",
          "size": "0"
        },
        "damage": {
          "parts": [],
          "critParts": [],
          "nonCritParts": []
        },
        "attackParts": [],
        "save": {
          "dc": ""
        },
        "effectNotes": [],
        "attackNotes": [],
        "changes": [],
        "contextNotes": [],
        "links": {
          "children": [],
          "charges": []
        },
        "tag": "auraStormwindAura",
        "armorProf": {
          "value": []
        },
        "weaponProf": {
          "value": []
        },
        "flags": {
          "boolean": [],
          "dictionary": []
        },
        "scriptCalls": [],
        "featType": "racial",
        "associations": {
          "classes": []
        }
      },
      "effects": [],
      "folder": null,
      "sort": 0,
      "permission": {
        "default": 0
      },
      "flags": {}
    },
    {
      "_id": "0vd99dedxemo8two",
      "name": "Flyby Attack",
      "type": "feat",
      "img": "systems/pf1/icons/skills/yellow_36.jpg",
      "data": {
        "description": {
          "value": "sbc | As Flyby Attack could not be found in any compendium, a placeholder was generated."
        },
        "tags": [],
        "damage": {
          "parts": [],
          "critParts": [],
          "nonCritParts": []
        },
        "attackParts": [],
        "effectNotes": [],
        "attackNotes": [],
        "changes": [],
        "contextNotes": [],
        "links": {
          "children": [],
          "charges": []
        },
        "armorProf": {
          "value": []
        },
        "weaponProf": {
          "value": []
        },
        "flags": {
          "boolean": [],
          "dictionary": []
        },
        "scriptCalls": [],
        "associations": {
          "classes": []
        }
      },
      "effects": [],
      "folder": null,
      "sort": 0,
      "permission": {
        "default": 0
      },
      "flags": {}
    },
    {
      "_id": "jd1nmp2go1a52wnc",
      "name": "Hover",
      "type": "feat",
      "img": "systems/pf1/icons/skills/yellow_36.jpg",
      "data": {
        "description": {
          "value": "sbc | As Hover could not be found in any compendium, a placeholder was generated."
        },
        "tags": [],
        "damage": {
          "parts": [],
          "critParts": [],
          "nonCritParts": []
        },
        "attackParts": [],
        "effectNotes": [],
        "attackNotes": [],
        "changes": [],
        "contextNotes": [],
        "links": {
          "children": [],
          "charges": []
        },
        "armorProf": {
          "value": []
        },
        "weaponProf": {
          "value": []
        },
        "flags": {
          "boolean": [],
          "dictionary": []
        },
        "scriptCalls": [],
        "associations": {
          "classes": []
        }
      },
      "effects": [],
      "folder": null,
      "sort": 0,
      "permission": {
        "default": 0
      },
      "flags": {}
    },
    {
      "_id": "63oupljih1729pyc",
      "name": "Weapon Finesseb",
      "type": "feat",
      "img": "systems/pf1/icons/skills/yellow_36.jpg",
      "data": {
        "description": {
          "value": "sbc | As Weapon FinesseB could not be found in any compendium, a placeholder was generated."
        },
        "tags": [],
        "damage": {
          "parts": [],
          "critParts": [],
          "nonCritParts": []
        },
        "attackParts": [],
        "effectNotes": [],
        "attackNotes": [],
        "changes": [],
        "contextNotes": [],
        "links": {
          "children": [],
          "charges": []
        },
        "armorProf": {
          "value": []
        },
        "weaponProf": {
          "value": []
        },
        "flags": {
          "boolean": [],
          "dictionary": []
        },
        "scriptCalls": [],
        "associations": {
          "classes": []
        }
      },
      "effects": [],
      "folder": null,
      "sort": 0,
      "permission": {
        "default": 0
      },
      "flags": {}
    },
    {
      "_id": "p6g0vsg4289qsr5h",
      "name": "Wingover",
      "type": "feat",
      "img": "systems/pf1/icons/skills/yellow_36.jpg",
      "data": {
        "description": {
          "value": "sbc | As Wingover could not be found in any compendium, a placeholder was generated."
        },
        "tags": [],
        "damage": {
          "parts": [],
          "critParts": [],
          "nonCritParts": []
        },
        "attackParts": [],
        "effectNotes": [],
        "attackNotes": [],
        "changes": [],
        "contextNotes": [],
        "links": {
          "children": [],
          "charges": []
        },
        "armorProf": {
          "value": []
        },
        "weaponProf": {
          "value": []
        },
        "flags": {
          "boolean": [],
          "dictionary": []
        },
        "scriptCalls": [],
        "associations": {
          "classes": []
        }
      },
      "effects": [],
      "folder": null,
      "sort": 0,
      "permission": {
        "default": 0
      },
      "flags": {}
    },
    {
      "_id": "qbuv6536el7j3f0y",
      "name": "Vengeful Wind",
      "type": "feat",
      "img": "systems/pf1/icons/skills/yellow_36.jpg",
      "data": {
        "description": {
          "value": "sbc | Placeholder"
        },
        "tags": [],
        "damage": {
          "parts": [],
          "critParts": [],
          "nonCritParts": []
        },
        "attackParts": [],
        "effectNotes": [],
        "attackNotes": [],
        "changes": [],
        "contextNotes": [],
        "links": {
          "children": [],
          "charges": []
        },
        "armorProf": {
          "value": []
        },
        "weaponProf": {
          "value": []
        },
        "flags": {
          "boolean": [],
          "dictionary": []
        },
        "scriptCalls": [],
        "featType": "classFeat",
        "associations": {
          "classes": []
        },
        "abilityType": ""
      },
      "effects": [],
      "folder": null,
      "sort": 0,
      "permission": {
        "default": 0
      },
      "flags": {}
    },
    {
      "_id": "q6pyfy9e8p1ex6xs",
      "name": "Claws",
      "type": "attack",
      "img": "systems/pf1/icons/items/inventory/monster-paw-bear.jpg",
      "data": {
        "tags": [],
        "activation": {
          "type": "attack"
        },
        "unchainedAction": {
          "activation": {
            "type": "attack"
          }
        },
        "duration": {
          "units": "inst"
        },
        "range": {
          "value": "",
          "units": "melee"
        },
        "attackName": "Claws",
        "actionType": "mwak",
        "attackBonus": "1",
        "damage": {
          "parts": [
            [
              "1d4+0",
              "B and S"
            ]
          ],
          "critParts": [],
          "nonCritParts": []
        },
        "attackParts": [
          [
            "0",
            "Claws: 1"
          ]
        ],
        "ability": {
          "attack": "str",
          "damage": "str"
        },
        "effectNotes": [],
        "attackNotes": [
          "2 claws +9 (1d4+3 )"
        ],
        "links": {
          "children": [],
          "charges": [],
          "ammunition": []
        },
        "flags": {
          "boolean": [],
          "dictionary": []
        },
        "scriptCalls": [],
        "attackType": "natural",
        "conditionals": []
      },
      "effects": [],
      "folder": null,
      "sort": 0,
      "permission": {
        "default": 0
      },
      "flags": {}
    },
    {
      "_id": "crcftku9vusuxmab",
      "name": "Bite",
      "type": "attack",
      "img": "systems/pf1/icons/items/inventory/monster-head.jpg",
      "data": {
        "tags": [],
        "activation": {
          "type": "attack"
        },
        "unchainedAction": {
          "activation": {
            "type": "attack"
          }
        },
        "duration": {
          "units": "inst"
        },
        "range": {
          "value": "",
          "units": "melee"
        },
        "attackName": "Bite",
        "actionType": "mwak",
        "attackBonus": "1",
        "damage": {
          "parts": [
            [
              "1d6+0",
              "B, P and S"
            ]
          ],
          "critParts": [],
          "nonCritParts": []
        },
        "attackParts": [],
        "ability": {
          "attack": "str",
          "damage": "str"
        },
        "effectNotes": [],
        "attackNotes": [
          "bite +9 (1d6+3 )"
        ],
        "links": {
          "children": [],
          "charges": [],
          "ammunition": []
        },
        "flags": {
          "boolean": [],
          "dictionary": []
        },
        "scriptCalls": [],
        "attackType": "natural",
        "conditionals": []
      },
      "effects": [],
      "folder": null,
      "sort": 0,
      "permission": {
        "default": 0
      },
      "flags": {}
    },
    {
      "_id": "tcsj09t6bujgmk86",
      "name": "Special Attack: Hailstorm",
      "type": "attack",
      "img": "systems/pf1/icons/skills/yellow_36.jpg",
      "data": {
        "description": {
          "value": "sbc | Placeholder for Special Attacks, which in most statblocks are listed under 'Special Attacks' in the statistics block, but are described in the 'Special Abilities' block. Remove duplicates as needed!"
        },
        "tags": [],
        "damage": {
          "parts": [],
          "critParts": [],
          "nonCritParts": []
        },
        "attackParts": [],
        "effectNotes": [],
        "attackNotes": [],
        "links": {
          "children": [],
          "charges": [],
          "ammunition": []
        },
        "flags": {
          "boolean": [],
          "dictionary": []
        },
        "scriptCalls": [],
        "attackType": "misc",
        "conditionals": []
      },
      "effects": [],
      "folder": null,
      "sort": 0,
      "permission": {
        "default": 0
      },
      "flags": {}
    },
    {
      "_id": "nkd3xocluvt1rovu",
      "name": "Alter Winds",
      "type": "spell",
      "img": "systems/pf1/icons/misc/magic-swirl.png",
      "data": {
        "description": {
          "value": "<div class=\"spell-description\">\n  <p>\n    <strong>School</strong>&nbsp;transmutation&nbsp;[air];\n    <strong>Level</strong>&nbsp;druid 1, hunter 1, occultist 1, sorcerer/wizard 1, spiritualist 1;\n    \n    \n    \n    \n  </p>\n  <p>\n    <strong>Casting Time</strong>&nbsp;1 minute<br>\n    <strong>Components</strong>&nbsp;V, S<br>\n  </p>\n  <p>\n    <strong>Range</strong>&nbsp;touch<br>\n    <strong>Area</strong>&nbsp;immobile 10-ft.-radius emanation<br>\n    \n    \n    <strong>Duration</strong>&nbsp;1 hour/level<br>\n    <strong>Saving Throw</strong>&nbsp;Will negates;&nbsp;<strong>Spell Resistance</strong>&nbsp;yes<br>\n  </p>\n  <h2>Description</h2>\n  <p>You subtly enhance or diminish the effects of natural winds within the spell's area, which is an immobile emanation around a point touched by you as the spell is cast. Within the area, natural (but not magical) wind effects are either increased or decreased by one step in intensity (Core Rulebook 439). The maximum wind force you can affect with this spell is based on your caster level, as shown on the table below. Alter winds has no effect on magical wind effects.</p><p><table><tr><th>Caster Level</th><th>Wind Force</th></tr><tr><td>1st-3rd</td><td>Light</td></tr><tr><td>4th-9th</td><td>Moderate</td></tr><tr><td>10th-15th</td><td>Strong</td></tr><tr><td>16th or higher</td><td>Severe</td></tr></table></p>\n</div>\n"
        },
        "tags": [],
        "activation": {
          "type": "minute"
        },
        "unchainedAction": {
          "activation": {
            "type": "minute"
          }
        },
        "range": {
          "units": "touch"
        },
        "uses": {
          "per": ""
        },
        "measureTemplate": {
          "size": "0"
        },
        "actionType": "spellsave",
        "damage": {
          "parts": [],
          "critParts": [],
          "nonCritParts": []
        },
        "attackParts": [],
        "ability": {
          "attack": "",
          "damage": ""
        },
        "save": {
          "dc": "0",
          "type": "will",
          "description": "Will negates"
        },
        "effectNotes": [],
        "attackNotes": [],
        "links": {
          "children": []
        },
        "flags": {
          "boolean": [],
          "dictionary": []
        },
        "scriptCalls": [],
        "learnedAt": {
          "class": [
            [
              "sorcerer/wizard",
              1
            ],
            [
              "druid",
              1
            ],
            [
              "occultist",
              1
            ],
            [
              "spiritualist",
              1
            ],
            [
              "hunter",
              1
            ]
          ],
          "domain": [],
          "subDomain": [],
          "elementalSchool": [],
          "bloodline": []
        },
        "school": "trs",
        "types": "air",
        "conditionals": [],
        "components": {
          "verbal": true,
          "somatic": true
        },
        "spellbook": "spelllike",
        "atWill": true,
        "shortDescription": "<p>You subtly enhance or diminish the effects of natural winds within the spell's area, which is an immobile emanation around a point touched by you as the spell is cast. Within the area, natural (but not magical) wind effects are either increased or decreased by one step in intensity (Core Rulebook 439). The maximum wind force you can affect with this spell is based on your caster level, as shown on the table below. Alter winds has no effect on magical wind effects.</p><p><table><tr><th>Caster Level</th><th>Wind Force</th></tr><tr><td>1st-3rd</td><td>Light</td></tr><tr><td>4th-9th</td><td>Moderate</td></tr><tr><td>10th-15th</td><td>Strong</td></tr><tr><td>16th or higher</td><td>Severe</td></tr></table></p>",
        "spellDuration": "1 hour/level",
        "spellArea": "immobile 10-ft.-radius emanation"
      },
      "effects": [],
      "folder": null,
      "sort": 0,
      "permission": {
        "default": 0
      },
      "flags": {}
    },
    {
      "_id": "cnuin981hdq7ryit",
      "name": "Gust of Wind",
      "type": "spell",
      "img": "systems/pf1/icons/misc/magic-swirl.png",
      "data": {
        "description": {
          "value": "<div class=\"spell-description\">\n  <p>\n    <strong>School</strong>&nbsp;evocation&nbsp;[air];\n    <strong>Level</strong>&nbsp;bloodrager 2, druid 2, hunter 2, magus 2, occultist 2, sorcerer/wizard 2;\n    \n    <strong>Subdomain</strong>&nbsp;Catastrophe 2;\n    \n    <strong>Bloodline</strong>&nbsp;Stormborn 2;\n  </p>\n  <p>\n    <strong>Casting Time</strong>&nbsp;1 standard action<br>\n    <strong>Components</strong>&nbsp;V, S<br>\n  </p>\n  <p>\n    <strong>Range</strong>&nbsp;60 feet<br>\n    \n    \n    <strong>Effect</strong>&nbsp;line-shaped gust of severe wind emanating out from you to the extreme of the range<br>\n    <strong>Duration</strong>&nbsp;1 round<br>\n    <strong>Saving Throw</strong>&nbsp;Fortitude negates;&nbsp;<strong>Spell Resistance</strong>&nbsp;yes<br>\n  </p>\n  <h2>Description</h2>\n  <p>This spell creates a severe blast of air (approximately 50 mph) that originates from you, affecting all creatures in its path. All flying creatures in this area take a -4 penalty on Fly skill checks. Tiny or smaller flying creatures must make a DC 25 Fly skill check or be blown back 2d6 x 10 feet and take 2d6 points of damage. Small or smaller flying creatures must make a DC 20 Fly skill check to move against the force of the wind.</p><p>A Tiny or smaller creature on the ground is knocked down and rolled 1d4 x 10 feet, taking 1d4 points of nonlethal damage per 10 feet.</p><p>Small creatures are knocked prone by the force of the wind.</p><p>Medium or smaller creatures are unable to move forward against the force of the wind unless they succeed at a DC 15 Strength check.</p><p>Large or larger creatures may move normally within a <i>gust of wind</i> effect.</p><p>This spell can't move a creature beyond the limit of it's range.</p><p>Any creature, regardless of size, takes a -4 penalty on ranged attacks and Perception checks in the area of a <i>gust of wind</i>.</p><p>The force of the gust automatically extinguishes candles, torches, and similar unprotected flames. It causes protected flames, such as those in lanterns, to dance wildly and has a 50% chance to extinguish those lights.</p><p>In addition to the effects noted, a <i>gust of wind</i> can do anything that a sudden blast of wind would be expected to do. It can create a stinging spray of sand or dust, fan a large fire, overturn delicate awnings or hangings, heel over a small boat, and blow gases or vapors to the edge of its range.</p><p><i>Gust of wind</i> can be made permanent with a <i>permanency</i> spell.</p>\n</div>\n"
        },
        "tags": [],
        "activation": {
          "type": "standard"
        },
        "unchainedAction": {
          "activation": {
            "cost": 2,
            "type": "action"
          }
        },
        "range": {
          "value": 60,
          "units": "ft"
        },
        "uses": {
          "value": 3,
          "per": "day"
        },
        "measureTemplate": {
          "size": "0"
        },
        "actionType": "spellsave",
        "damage": {
          "parts": [],
          "critParts": [],
          "nonCritParts": []
        },
        "attackParts": [],
        "ability": {
          "attack": "",
          "damage": ""
        },
        "save": {
          "dc": "0",
          "type": "fort",
          "description": "Fortitude negates"
        },
        "effectNotes": [],
        "attackNotes": [],
        "links": {
          "children": []
        },
        "flags": {
          "boolean": [],
          "dictionary": []
        },
        "scriptCalls": [],
        "learnedAt": {
          "class": [
            [
              "sorcerer/wizard",
              2
            ],
            [
              "druid",
              2
            ],
            [
              "magus",
              2
            ],
            [
              "bloodrager",
              2
            ],
            [
              "occultist",
              2
            ],
            [
              "hunter",
              2
            ]
          ],
          "domain": [],
          "subDomain": [
            [
              "Catastrophe",
              2
            ]
          ],
          "elementalSchool": [],
          "bloodline": [
            [
              "Stormborn",
              2
            ]
          ]
        },
        "level": 2,
        "school": "evo",
        "types": "air",
        "conditionals": [],
        "components": {
          "verbal": true,
          "somatic": true
        },
        "spellbook": "spelllike",
        "preparation": {
          "preparedAmount": 3,
          "maxAmount": 3
        },
        "shortDescription": "<p>This spell creates a severe blast of air (approximately 50 mph) that originates from you, affecting all creatures in its path. All flying creatures in this area take a -4 penalty on Fly skill checks. Tiny or smaller flying creatures must make a DC 25 Fly skill check or be blown back 2d6 x 10 feet and take 2d6 points of damage. Small or smaller flying creatures must make a DC 20 Fly skill check to move against the force of the wind.</p><p>A Tiny or smaller creature on the ground is knocked down and rolled 1d4 x 10 feet, taking 1d4 points of nonlethal damage per 10 feet.</p><p>Small creatures are knocked prone by the force of the wind.</p><p>Medium or smaller creatures are unable to move forward against the force of the wind unless they succeed at a DC 15 Strength check.</p><p>Large or larger creatures may move normally within a <i>gust of wind</i> effect.</p><p>This spell can't move a creature beyond the limit of it's range.</p><p>Any creature, regardless of size, takes a -4 penalty on ranged attacks and Perception checks in the area of a <i>gust of wind</i>.</p><p>The force of the gust automatically extinguishes candles, torches, and similar unprotected flames. It causes protected flames, such as those in lanterns, to dance wildly and has a 50% chance to extinguish those lights.</p><p>In addition to the effects noted, a <i>gust of wind</i> can do anything that a sudden blast of wind would be expected to do. It can create a stinging spray of sand or dust, fan a large fire, overturn delicate awnings or hangings, heel over a small boat, and blow gases or vapors to the edge of its range.</p><p><i>Gust of wind</i> can be made permanent with a <i>permanency</i> spell.</p>",
        "spellDuration": "1 round",
        "spellEffect": "line-shaped gust of severe wind emanating out from you to the extreme of the range"
      },
      "effects": [],
      "folder": null,
      "sort": 0,
      "permission": {
        "default": 0
      },
      "flags": {}
    },
    {
      "_id": "4gxx3bodf76e63en",
      "name": "River of Wind",
      "type": "spell",
      "img": "systems/pf1/icons/misc/magic-swirl.png",
      "data": {
        "description": {
          "value": "<div class=\"spell-description\">\n  <p>\n    <strong>School</strong>&nbsp;evocation&nbsp;[air];\n    <strong>Level</strong>&nbsp;bloodrager 4, druid 4, hunter 4, magus 4, occultist 4, sorcerer/wizard 4;\n    \n    \n    \n    \n  </p>\n  <p>\n    <strong>Casting Time</strong>&nbsp;1 standard action<br>\n    <strong>Components</strong>&nbsp;V, S<br>\n  </p>\n  <p>\n    <strong>Range</strong>&nbsp;120 feet<br>\n    <strong>Area</strong>&nbsp;120-ft. line<br>\n    \n    \n    <strong>Duration</strong>&nbsp;1 round/level<br>\n    <strong>Saving Throw</strong>&nbsp;Fortitude partial;&nbsp;<strong>Spell Resistance</strong>&nbsp;yes<br>\n  </p>\n  <h2>Description</h2>\n  <p>Summoning up the power of the tempest, you direct a current of forceful winds where you please. This spell creates a 5-foot-diameter line of wind-the direction of the wind is away from your location when you cast the spell, and remains constant in that direction for the spell duration. Creatures caught in a <i>river of wind</i> take 4d6 nonlethal damage and are knocked prone. A successful Fortitude save halves the damage and prevents being knocked prone.</p><p>A creature that begins its turn wholly or partially within a <i>river of wind</i> must make a Fortitude save or be pushed 20 feet in the wind's direction of flow, take 2d6 nonlethal damage, and be knocked prone-a successful Fortitude save means the creature merely takes 1d6 nonlethal damage. Creatures under the effect of <i>freedom of movement</i> and creatures with the air subtype are unaffected by a <i>river of wind</i>.</p>\n</div>\n"
        },
        "tags": [],
        "activation": {
          "type": "standard"
        },
        "unchainedAction": {
          "activation": {
            "cost": 2,
            "type": "action"
          }
        },
        "range": {
          "value": 120,
          "units": "ft"
        },
        "uses": {
          "value": 3,
          "per": "day"
        },
        "measureTemplate": {
          "size": "0"
        },
        "actionType": "spellsave",
        "damage": {
          "parts": [],
          "critParts": [],
          "nonCritParts": []
        },
        "attackParts": [],
        "ability": {
          "attack": "",
          "damage": ""
        },
        "save": {
          "dc": "0",
          "type": "fort",
          "description": "Fortitude partial"
        },
        "effectNotes": [],
        "attackNotes": [],
        "links": {
          "children": []
        },
        "flags": {
          "boolean": [],
          "dictionary": []
        },
        "scriptCalls": [],
        "learnedAt": {
          "class": [
            [
              "sorcerer/wizard",
              4
            ],
            [
              "druid",
              4
            ],
            [
              "magus",
              4
            ],
            [
              "bloodrager",
              4
            ],
            [
              "occultist",
              4
            ],
            [
              "hunter",
              4
            ]
          ],
          "domain": [],
          "subDomain": [],
          "elementalSchool": [],
          "bloodline": []
        },
        "level": 4,
        "school": "evo",
        "types": "air",
        "conditionals": [],
        "components": {
          "verbal": true,
          "somatic": true
        },
        "spellbook": "spelllike",
        "preparation": {
          "preparedAmount": 3,
          "maxAmount": 3
        },
        "shortDescription": "<p>Summoning up the power of the tempest, you direct a current of forceful winds where you please. This spell creates a 5-foot-diameter line of wind-the direction of the wind is away from your location when you cast the spell, and remains constant in that direction for the spell duration. Creatures caught in a <i>river of wind</i> take 4d6 nonlethal damage and are knocked prone. A successful Fortitude save halves the damage and prevents being knocked prone.</p><p>A creature that begins its turn wholly or partially within a <i>river of wind</i> must make a Fortitude save or be pushed 20 feet in the wind's direction of flow, take 2d6 nonlethal damage, and be knocked prone-a successful Fortitude save means the creature merely takes 1d6 nonlethal damage. Creatures under the effect of <i>freedom of movement</i> and creatures with the air subtype are unaffected by a <i>river of wind</i>.</p>",
        "spellDuration": "1 round/level",
        "spellArea": "120-ft. line"
      },
      "effects": [],
      "folder": null,
      "sort": 0,
      "permission": {
        "default": 0
      },
      "flags": {}
    },
    {
      "_id": "g9koefk7x9szoheo",
      "name": "Control Winds",
      "type": "spell",
      "img": "systems/pf1/icons/misc/magic-swirl.png",
      "data": {
        "description": {
          "value": "<div class=\"spell-description\">\n  <p>\n    <strong>School</strong>&nbsp;transmutation&nbsp;[air];\n    <strong>Level</strong>&nbsp;druid 5, hunter 5, occultist 5, shaman 5;\n    <strong>Domain</strong>&nbsp;Air 5, Weather 6;\n    \n    \n    \n  </p>\n  <p>\n    <strong>Casting Time</strong>&nbsp;1 standard action<br>\n    <strong>Components</strong>&nbsp;V, S<br>\n  </p>\n  <p>\n    <strong>Range</strong>&nbsp;40 feet<br>\n    <strong>Area</strong>&nbsp;40 ft./level radius cylinder 40 ft. high<br>\n    \n    \n    <strong>Duration</strong>&nbsp;10 min./level<br>\n    <strong>Saving Throw</strong>&nbsp;Fortitude negates;&nbsp;<strong>Spell Resistance</strong>&nbsp;no<br>\n  </p>\n  <h2>Description</h2>\n  <p>You alter wind force in the area surrounding you. You can make the wind blow in a certain direction or manner, increase its strength, or decrease its strength. The new wind direction and strength persist until the spell ends or until you choose to alter your handiwork, which requires concentration. You may create an \"eye\" of calm air up to 80 feet in diameter at the center of the area if you so desire, and you may choose to limit the area to any cylindrical area less than your full limit.</p><p><i>Wind Direction</i>: You may choose one of four basic wind patterns to function over the spell's area.</p><p><ul>     <li> A downdraft blows from the center outward in equal strength in all directions.</p><p>    <li> An updraft blows from the outer edges in toward the center in equal strength from all directions, veering upward before impinging on the eye in the center.</p><p>    <li> Rotation causes the winds to circle the center in clockwise or counterclockwise fashion.</p><p>    <li> A blast simply causes the winds to blow in one direction across the entire area from one side to the other.</ul></p><p> <i>Wind Strength</i>: For every three caster levels, you can increase or decrease wind strength by one level. Each round on your turn, a creature in the wind must make a Fortitude save or suffer the effect of being in the windy area. See Environment for more details.</p><p>Strong winds (21+ mph) make sailing difficult.</p><p>A severe wind (31+ mph) causes minor ship and building damage.</p><p>A windstorm (51+ mph) drives most flying creatures from the skies, uproots small trees, knocks down light wooden structures, tears off roofs, and endangers ships.</p><p>Hurricane force winds (75+ mph) destroy wooden buildings, uproot large trees, and cause most ships to founder.</p><p>A tornado (175+ mph) destroys all nonfortified buildings and often uproots large trees.</p>\n</div>\n"
        },
        "tags": [],
        "activation": {
          "type": "standard"
        },
        "unchainedAction": {
          "activation": {
            "cost": 2,
            "type": "action"
          }
        },
        "range": {
          "value": 40,
          "units": "ft"
        },
        "uses": {
          "value": 1,
          "per": "day"
        },
        "measureTemplate": {
          "size": "0"
        },
        "actionType": "spellsave",
        "damage": {
          "parts": [],
          "critParts": [],
          "nonCritParts": []
        },
        "attackParts": [],
        "ability": {
          "attack": "",
          "damage": ""
        },
        "save": {
          "dc": "0",
          "type": "fort",
          "description": "Fortitude negates"
        },
        "effectNotes": [],
        "attackNotes": [],
        "links": {
          "children": []
        },
        "flags": {
          "boolean": [],
          "dictionary": []
        },
        "scriptCalls": [],
        "learnedAt": {
          "class": [
            [
              "druid",
              5
            ],
            [
              "shaman",
              5
            ],
            [
              "occultist",
              5
            ],
            [
              "hunter",
              5
            ]
          ],
          "domain": [
            [
              "Air",
              5
            ],
            [
              "Weather",
              6
            ]
          ],
          "subDomain": [],
          "elementalSchool": [],
          "bloodline": []
        },
        "level": 5,
        "school": "trs",
        "types": "air",
        "conditionals": [],
        "components": {
          "verbal": true,
          "somatic": true
        },
        "spellbook": "spelllike",
        "preparation": {
          "preparedAmount": 1,
          "maxAmount": 1
        },
        "sr": false,
        "shortDescription": "<p>You alter wind force in the area surrounding you. You can make the wind blow in a certain direction or manner, increase its strength, or decrease its strength. The new wind direction and strength persist until the spell ends or until you choose to alter your handiwork, which requires concentration. You may create an \"eye\" of calm air up to 80 feet in diameter at the center of the area if you so desire, and you may choose to limit the area to any cylindrical area less than your full limit.</p><p><i>Wind Direction</i>: You may choose one of four basic wind patterns to function over the spell's area.</p><p><ul>     <li> A downdraft blows from the center outward in equal strength in all directions.</p><p>    <li> An updraft blows from the outer edges in toward the center in equal strength from all directions, veering upward before impinging on the eye in the center.</p><p>    <li> Rotation causes the winds to circle the center in clockwise or counterclockwise fashion.</p><p>    <li> A blast simply causes the winds to blow in one direction across the entire area from one side to the other.</ul></p><p> <i>Wind Strength</i>: For every three caster levels, you can increase or decrease wind strength by one level. Each round on your turn, a creature in the wind must make a Fortitude save or suffer the effect of being in the windy area. See Environment for more details.</p><p>Strong winds (21+ mph) make sailing difficult.</p><p>A severe wind (31+ mph) causes minor ship and building damage.</p><p>A windstorm (51+ mph) drives most flying creatures from the skies, uproots small trees, knocks down light wooden structures, tears off roofs, and endangers ships.</p><p>Hurricane force winds (75+ mph) destroy wooden buildings, uproot large trees, and cause most ships to founder.</p><p>A tornado (175+ mph) destroys all nonfortified buildings and often uproots large trees.</p>",
        "spellDuration": "10 min./level",
        "spellArea": "40 ft./level radius cylinder 40 ft. high"
      },
      "effects": [],
      "folder": null,
      "sort": 0,
      "permission": {
        "default": 0
      },
      "flags": {}
    },
    {
      "_id": "mg9kticj8fa7f1s6",
      "name": "Summon",
      "type": "spell",
      "img": "systems/pf1/icons/skills/yellow_36.jpg",
      "data": {
        "description": {
          "value": "sbc | As summon could not be found in any compendium, a placeholder was generated."
        },
        "tags": [],
        "uses": {
          "value": 1,
          "per": "day"
        },
        "damage": {
          "parts": [],
          "critParts": [],
          "nonCritParts": []
        },
        "attackParts": [],
        "effectNotes": [],
        "attackNotes": [],
        "links": {
          "children": []
        },
        "flags": {
          "boolean": [],
          "dictionary": []
        },
        "scriptCalls": [],
        "learnedAt": {
          "class": [],
          "domain": [],
          "subDomain": [],
          "elementalSchool": [],
          "bloodline": []
        },
        "conditionals": [],
        "spellbook": "spelllike",
        "preparation": {
          "preparedAmount": 1,
          "maxAmount": 1
        }
      },
      "effects": [],
      "folder": null,
      "sort": 0,
      "permission": {
        "default": 0
      },
      "flags": {}
    },
    {
      "_id": "8dlkkhxcysdic7ny",
      "name": "Ecology",
      "type": "feat",
      "img": "icons/environment/wilderness/tree-oak.webp",
      "data": {
        "description": {
          "value": "<div><strong>Environment</strong>:  any (Abyss)</div><div><strong>Organization</strong>:  solitary</div><div><strong>Treasure</strong>:  standard</div>"
        },
        "tags": [],
        "damage": {
          "parts": [],
          "critParts": [],
          "nonCritParts": []
        },
        "attackParts": [],
        "effectNotes": [],
        "attackNotes": [],
        "changes": [],
        "contextNotes": [],
        "links": {
          "children": [],
          "charges": []
        },
        "armorProf": {
          "value": []
        },
        "weaponProf": {
          "value": []
        },
        "flags": {
          "boolean": [],
          "dictionary": []
        },
        "scriptCalls": [],
        "featType": "misc",
        "associations": {
          "classes": []
        }
      },
      "effects": [],
      "folder": null,
      "sort": 0,
      "permission": {
        "default": 0
      },
      "flags": {}
    },
    {
      "_id": "2b133lon9etsg3zn",
      "name": "Enemy Of Dragons And Eagles",
      "type": "feat",
      "img": "systems/pf1/icons/skills/yellow_36.jpg",
      "data": {
        "description": {
          "value": "Halas are hated enemies of dragons and eagles. Those creatures gain a +2 bonus on attack and damage rolls against hala demons."
        },
        "tags": [],
        "damage": {
          "parts": [],
          "critParts": [],
          "nonCritParts": []
        },
        "attackParts": [],
        "effectNotes": [],
        "attackNotes": [],
        "changes": [],
        "contextNotes": [],
        "links": {
          "children": [],
          "charges": []
        },
        "armorProf": {
          "value": []
        },
        "weaponProf": {
          "value": []
        },
        "flags": {
          "boolean": [],
          "dictionary": []
        },
        "scriptCalls": [],
        "featType": "classFeat",
        "associations": {
          "classes": []
        },
        "abilityType": "ex"
      },
      "effects": [],
      "folder": null,
      "sort": 0,
      "permission": {
        "default": 0
      },
      "flags": {}
    },
    {
      "_id": "b5xgfewdtbuc88a2",
      "name": "Hailstorm",
      "type": "feat",
      "img": "systems/pf1/icons/skills/yellow_36.jpg",
      "data": {
        "description": {
          "value": "A hala can call down hailstones from surrounding clouds once every 1d4 rounds as a standard action. These hailstones deal 1d6 points of bludgeoning damage and 1d6 points of cold damage to all creatures within a 20-foot radius that have no overhead cover. A DC 14 Reflex save halves this damage. The save DC is Constitution-based. To use this ability, the hala must be outside and there must be clouds in the sky."
        },
        "tags": [],
        "damage": {
          "parts": [],
          "critParts": [],
          "nonCritParts": []
        },
        "attackParts": [],
        "effectNotes": [],
        "attackNotes": [],
        "changes": [],
        "contextNotes": [],
        "links": {
          "children": [],
          "charges": []
        },
        "armorProf": {
          "value": []
        },
        "weaponProf": {
          "value": []
        },
        "flags": {
          "boolean": [],
          "dictionary": []
        },
        "scriptCalls": [],
        "featType": "classFeat",
        "associations": {
          "classes": []
        },
        "abilityType": "su"
      },
      "effects": [],
      "folder": null,
      "sort": 0,
      "permission": {
        "default": 0
      },
      "flags": {}
    },
    {
      "_id": "i8i6r1m974hk1d7i",
      "name": "Stormwind Aura",
      "type": "feat",
      "img": "systems/pf1/icons/skills/yellow_36.jpg",
      "data": {
        "description": {
          "value": "Halas surround themselves with a buffeting shroud of supernatural, windstorm-force winds. These winds shield a hala from any other wind effects and form a shell of breathable air around it, allowing the hala to breathe underwater. Ranged weapons and gases directed toward a hala are affected as the spell wind wall."
        },
        "tags": [],
        "damage": {
          "parts": [],
          "critParts": [],
          "nonCritParts": []
        },
        "attackParts": [],
        "effectNotes": [],
        "attackNotes": [],
        "changes": [],
        "contextNotes": [],
        "links": {
          "children": [],
          "charges": []
        },
        "armorProf": {
          "value": []
        },
        "weaponProf": {
          "value": []
        },
        "flags": {
          "boolean": [],
          "dictionary": []
        },
        "scriptCalls": [],
        "featType": "classFeat",
        "associations": {
          "classes": []
        },
        "abilityType": "su"
      },
      "effects": [],
      "folder": null,
      "sort": 0,
      "permission": {
        "default": 0
      },
      "flags": {}
    },
    {
      "_id": "bb9y7a0ym2vr1wg0",
      "name": "Vengeful Wind",
      "type": "feat",
      "img": "systems/pf1/icons/skills/yellow_36.jpg",
      "data": {
        "description": {
          "value": "Anytime a hala takes damage from a critical hit, a powerful blast of wind explodes forth in the direction of the attacker. This blast takes the form of a 60-foot-long gale, treated as a gust of wind spell, directed from the hala toward the opponent that scored the critical hit against it (if that creature is more than 60 feet away, the wind is aimed in its direction but doesn’t come close enough to affect it). This wind is also charged with electricity. Any creature in or that enters the area of effect must make a DC 14 Reflex save or take 3d6 points of electricity damage. The save DC is Constitution-based."
        },
        "tags": [],
        "damage": {
          "parts": [],
          "critParts": [],
          "nonCritParts": []
        },
        "attackParts": [],
        "effectNotes": [],
        "attackNotes": [],
        "changes": [],
        "contextNotes": [],
        "links": {
          "children": [],
          "charges": []
        },
        "armorProf": {
          "value": []
        },
        "weaponProf": {
          "value": []
        },
        "flags": {
          "boolean": [],
          "dictionary": []
        },
        "scriptCalls": [],
        "featType": "classFeat",
        "associations": {
          "classes": []
        },
        "abilityType": "su"
      },
      "effects": [],
      "folder": null,
      "sort": 0,
      "permission": {
        "default": 0
      },
      "flags": {}
    },
    {
      "_id": "FMlth1ZeMEEathJV",
      "name": "sbc | Conversion Buff",
      "type": "buff",
      "img": "systems/pf1/icons/skills/yellow_36.jpg",
      "data": {
        "description": {
          "value": "<h2>sbc | Conversion Buff</h2>\n                        This Buff was created by <strong>sbc</strong> to compensate for differences between the input and the values FoundryVTT calculates automatically.\n                        <br><br>\n                        Especially when the pathfinder system gets upgraded, entries in compendiums get updated or foundry changes in some way, this buff may become outdated.\n                        <br><br>\n                        For most mooks the conversion should more or less work, but for important NPCs or creatures it is adviced to double check the conversion manually."
        },
        "tags": [],
        "changes": [
          {
            "formula": "-10",
            "modifier": "untypedPerm",
            "operator": "add",
            "priority": 0,
            "subTarget": "mhp",
            "target": "misc",
            "value": -10,
            "id": "35wb2gpn"
          },
          {
            "formula": "3",
            "modifier": "untypedPerm",
            "operator": "add",
            "priority": 0,
            "subTarget": "fort",
            "target": "savingThrows",
            "value": 3,
            "id": "7669eboc"
          },
          {
            "formula": "-3",
            "modifier": "untypedPerm",
            "operator": "add",
            "priority": 0,
            "subTarget": "will",
            "target": "savingThrows",
            "value": -3,
            "id": "mybnd780"
          },
          {
            "formula": "-8",
            "modifier": "untypedPerm",
            "operator": "add",
            "priority": 0,
            "subTarget": "skill.fly",
            "target": "skill",
            "value": -8,
            "id": "42ixah8q"
          }
        ],
        "contextNotes": [],
        "links": {
          "children": []
        },
        "tag": "sbcConversionBuff",
        "useCustomTag": true,
        "flags": {
          "boolean": [],
          "dictionary": []
        },
        "scriptCalls": [],
        "buffType": "perm",
        "active": true,
        "hideFromToken": true
      },
      "effects": [],
      "folder": null,
      "sort": 0,
      "permission": {
        "default": 0,
        "iM1ACTqH0Ml6HJtd": 3
      },
      "flags": {}
    }
  ],
  "effects": [],
  "folder": null,
  "sort": 0,
  "permission": {
    "default": 0
  },
  "flags": {}
}