{
  "_id": "fGAwSk17Sx6r4FVo",
  "name": "Sahuagin Deep Racer",
  "type": "npc",
  "img": "systems/pf1/icons/races/creature-types/construct.png",
  "data": {
    "abilities": {
      "str": {
        "value": 15
      },
      "dex": {
        "value": 17
      },
      "con": {
        "value": 18
      },
      "int": {
        "value": 14
      },
      "wis": {
        "value": 13
      },
      "cha": {
        "value": 8
      }
    },
    "attributes": {
      "naturalAC": "+5",
      "saveNotes": " +2 vs. ongoing effects",
      "cmdNotes": "can’t be tripped",
      "hp": {
        "value": 23
      },
      "speed": {
        "land": {
          "base": 5
        },
        "swim": {
          "base": 80
        }
      },
      "spells": {
        "usedSpellbooks": []
      }
    },
    "details": {
      "alignment": "le",
      "cr": {
        "base": 4
      }
    },
    "skills": {
      "han": {
        "rank": 3
      },
      "kge": {
        "rank": 4
      },
      "kna": {
        "rank": 4
      },
      "per": {
        "rank": 5
      },
      "ste": {
        "rank": 4
      },
      "sur": {
        "rank": 5
      },
      "swm": {
        "rank": 13
      }
    },
    "traits": {
      "senses": "blindsense 30 ft., darkvision 60 ft.; Perception +9",
      "languages": {
        "value": [
          "aquan",
          "common"
        ],
        "custom": "speak with sharks"
      },
      "di": {
        "value": []
      },
      "dv": {
        "value": [],
        "custom": "Light Blindness"
      },
      "ci": {
        "value": []
      },
      "stature": ""
    }
  },
  "token": {
    "name": "Sahuagin Deep Racer",
    "displayName": 20,
    "actorLink": false,
    "width": 1,
    "height": 1,
    "scale": 1,
    "mirrorX": false,
    "mirrorY": false,
    "lockRotation": false,
    "rotation": 0,
    "alpha": 1,
    "vision": false,
    "dimSight": 0,
    "brightSight": "30",
    "dimLight": 0,
    "brightLight": 0,
    "sightAngle": 0,
    "lightAngle": 0,
    "lightAlpha": 0.25,
    "lightAnimation": {
      "speed": 5,
      "intensity": 5
    },
    "disposition": -1,
    "displayBars": 20,
    "bar1": {
      "attribute": null
    },
    "bar2": {
      "attribute": null
    },
    "flags": {},
    "randomImg": false,
    "img": "systems/pf1/icons/races/creature-types/construct.png"
  },
  "items": [
    {
      "_id": "TbZmYyDUxRn9baWy",
      "name": "Sahuagin",
      "type": "race",
      "img": "systems/pf1/icons/races/creature-types/construct.png",
      "data": {
        "description": {
          "value": "<h2>Standard Racial Traits</h2>\n<ul>\n<li><strong>Ability Scores:</strong> +2&nbsp;<a href=\"https://www.d20pfsrd.com/basics-ability-scores/ability-scores#TOC-Strength-Str-\">Strength</a>, +2&nbsp;<a href=\"https://www.d20pfsrd.com/basics-ability-scores/ability-scores#TOC-Wisdom-Wis-\">Wisdom</a>, –2&nbsp;<a href=\"https://www.d20pfsrd.com/basics-ability-scores/ability-scores#TOC-Charisma-Cha-\">Charisma</a>: While sahuagin are powerful and cunning, they are repulsive creatures.</li>\n<li><strong>Size:</strong> Sahuagin are Medium creatures and have no bonuses or penalties due to their size.</li>\n<li><strong>Type:</strong> Sahuagin are&nbsp;<a href=\"https://www.d20pfsrd.com/bestiary/rules-for-monsters/creature-types#TOC-Monstrous-Humanoid\">monstrous humanoids</a>&nbsp;with the&nbsp;<a href=\"https://www.d20pfsrd.com/bestiary/rules-for-monsters/creature-types#TOC-Aquatic\">aquatic</a>&nbsp;subtype.</li>\n<li><strong>Languages: </strong>Sahuagin begin play speaking Aquan and Common. Sahuagin with high&nbsp;<a href=\"https://www.d20pfsrd.com/basics-ability-scores/ability-scores#TOC-Intelligence-Int-\">Intelligence</a>&nbsp;scores can choose from the following: Aboleth, Abyssal, Aklo, Draconic, Giant, Goblin, and Infernal.</li>\n<li style=\"box-sizing: border-box;\"><span style=\"box-sizing: border-box; font-weight: bold;\">Normal Speed</span>: Sahuagin have a base speed of 30 feet.</li>\n<li style=\"box-sizing: border-box;\"><span style=\"box-sizing: border-box; font-weight: bold;\">Fast Swimmer (5 RP)</span>: Sahuagin have a swim speed of 60 feet.</li>\n</ul>\n<h3>Senses</h3>\n<ul>\n<li style=\"box-sizing: border-box;\"><span style=\"box-sizing: border-box; font-weight: bold;\">Blindsense</span>: Sahuagin have&nbsp;<a href=\"https://www.d20pfsrd.com/gamemastering/special-abilities#TOC-Blindsight-and-Blindsense\">blindsense</a>&nbsp;with a range of 30 feet.</li>\n<li style=\"box-sizing: border-box;\"><span style=\"box-sizing: border-box; font-weight: bold;\">Darkvision</span>: Sahuagin have&nbsp;<a href=\"https://www.d20pfsrd.com/gamemastering/special-abilities#TOC-Darkvision\">darkvision</a>&nbsp;with a range of 60 feet.</li>\n<li style=\"box-sizing: border-box;\"><strong>Light Blindness:</strong>&nbsp;Sahuagin have the&nbsp;<a href=\"https://www.d20pfsrd.com/bestiary/rules-for-monsters/universal-monster-rules#TOC-Light-Blindness-Ex-\">light blindness</a>&nbsp;trait.</li>\n</ul>\n<h3>Defensive Abilities</h3>\n<ul>\n<li><strong>Natural Armor:</strong> Sahuagin have a +3&nbsp;<a href=\"https://www.d20pfsrd.com/basics-ability-scores/glossary#TOC-Natural-Armor-Bonus\">natural armor bonus</a>.</li>\n</ul>\n<h3>Offensive Racial Abilities</h3>\n<ul>\n<li style=\"box-sizing: border-box;\"><span style=\"box-sizing: border-box; font-weight: bold;\">Bite</span>: Sahuagin have a natural bite attack that deals 1d4 points of damage. This bite is a primary attack, or a secondary attack if the creature is wielding manufactured weapons.</li>\n<li style=\"box-sizing: border-box;\"><span style=\"box-sizing: border-box; font-weight: bold;\">Claws</span>: Sahuagin have two claw attacks that deal 1d4 points of damage. These are primary&nbsp;<a href=\"https://www.d20pfsrd.com/bestiary/rules-for-monsters/universal-monster-rules#TOC-Natural-Attacks\">natural attacks</a>.</li>\n<li style=\"box-sizing: border-box;\">\n<h3><span style=\"box-sizing: border-box; font-weight: bold;\">Blood Frenzy</span>: Once per day, whenever a sahuagin takes damage, it can fly into a frenzy for 1 minute; gaining a +2&nbsp;<a href=\"https://www.d20pfsrd.com/basics-ability-scores/glossary#TOC-Racial-Bonus\">racial bonus</a>&nbsp;to&nbsp;<a href=\"https://www.d20pfsrd.com/basics-ability-scores/ability-scores#TOC-Constitution-Con-\">Constitution</a>&nbsp;and&nbsp;<a href=\"https://www.d20pfsrd.com/basics-ability-scores/ability-scores#TOC-Strength-Str-\">Strength</a>&nbsp;but a –2 penalty to AC.</h3>\n</li>\n</ul>\n<h3>Other Racial Traits</h3>\n<ul>\n<li><strong>Speak with Sharks:</strong> Sahuagin can communicate telepathically with&nbsp;<a href=\"https://www.d20pfsrd.com/bestiary/monster-listings/animals/shark/shark\">sharks</a>&nbsp;to a distance of 100 feet. This communication is limited to simple concepts, such as “attack,” “come,” and “defend.”</li>\n</ul>"
        },
        "tags": [],
        "changes": [
          {
            "_id": "hwuykuqm",
            "formula": "2",
            "operator": "+",
            "subTarget": "str",
            "modifier": "racial",
            "priority": 0,
            "value": 0,
            "target": "ability"
          },
          {
            "_id": "2fjyz0d4",
            "formula": "2",
            "operator": "+",
            "subTarget": "wis",
            "modifier": "racial",
            "priority": 0,
            "value": 0,
            "target": "ability"
          },
          {
            "_id": "pc4inehz",
            "formula": "-2",
            "operator": "+",
            "subTarget": "cha",
            "modifier": "racial",
            "priority": 0,
            "value": 0,
            "target": "ability"
          },
          {
            "_id": "j48hua2n",
            "formula": "3",
            "operator": "+",
            "subTarget": "nac",
            "modifier": "base",
            "priority": 0,
            "value": 0,
            "target": "ac"
          }
        ],
        "contextNotes": [],
        "links": {
          "children": []
        },
        "armorProf": {
          "value": []
        },
        "weaponProf": {
          "value": []
        },
        "flags": {
          "boolean": [],
          "dictionary": []
        },
        "scriptCalls": [],
        "creatureType": "monstrousHumanoid",
        "subTypes": [
          [
            "Aquatic"
          ]
        ]
      },
      "effects": [],
      "folder": null,
      "sort": 0,
      "permission": {
        "default": 0
      },
      "flags": {}
    },
    {
      "_id": "w3wjj6s3N69BsMc3",
      "name": "Ranger (See Page)",
      "type": "class",
      "img": "systems/pf1/icons/items/weapons/longbow.PNG",
      "data": {
        "description": {
          "value": "<p>For those who relish the thrill of the hunt, there are only predators and prey. Be they scouts, trackers, or bounty hunters, rangers share much in common: unique mastery of specialized weapons, skill at stalking even the most elusive game, and the expertise to defeat a wide range of quarries. Knowledgeable, patient, and skilled hunters, these rangers hound man, beast, and monster alike, gaining insight into the way of the predator, skill in varied environments, and ever more lethal martial prowess. While some track man-eating creatures to protect the frontier, others pursue more cunning game—even fugitives among their own people.</p>\n<p><strong>Role</strong>: Ranger are deft skirmishers, either in melee or at range, capable of skillfully dancing in and out of battle. Their abilities allow them to deal significant harm to specific types of foes, but their skills are valuable against all manner of enemies.</p>\n<p><strong>Alignment</strong>: Any</p>\n<p><strong>Hit Die</strong>: d10</p>\n<p><strong>Starting Wealth</strong>: 5d6 × 10 gp (average 175 gp.) In addition, each character begins play with an outfit worth 10 gp or less.</p>\n<h2><span id=\"Class_Skills\">Class Skills</span></h2>\n<p>The ranger’s class skills are <a href=\"https://www.d20pfsrd.com/skills/climb\">Climb</a>&nbsp;(<a href=\"https://www.d20pfsrd.com/basics-ability-scores/ability-scores#TOC-Strength-Str-\">Str</a>), <a href=\"https://www.d20pfsrd.com/skills/craft\">Craft</a>&nbsp;(<a href=\"https://www.d20pfsrd.com/basics-ability-scores/ability-scores#TOC-Intelligence-Int-\">Int</a>), <a href=\"https://www.d20pfsrd.com/skills/handle-animal\">Handle Animal</a>&nbsp;(<a href=\"https://www.d20pfsrd.com/basics-ability-scores/ability-scores#TOC-Charisma-Cha-\">Cha</a>), <a href=\"https://www.d20pfsrd.com/skills/heal\">Heal</a>&nbsp;(<a href=\"https://www.d20pfsrd.com/basics-ability-scores/ability-scores#TOC-Wisdom-Wis-\">Wis</a>), <a href=\"https://www.d20pfsrd.com/skills/intimidate\">Intimidate</a>&nbsp;(<a href=\"https://www.d20pfsrd.com/basics-ability-scores/ability-scores#TOC-Charisma-Cha-\">Cha</a>), <a href=\"https://www.d20pfsrd.com/skills/knowledge\">Knowledge</a>&nbsp;(dungeoneering) (<a href=\"https://www.d20pfsrd.com/basics-ability-scores/ability-scores#TOC-Intelligence-Int-\">Int</a>), <a href=\"https://www.d20pfsrd.com/skills/knowledge\">Knowledge</a>&nbsp;(geography) (<a href=\"https://www.d20pfsrd.com/basics-ability-scores/ability-scores#TOC-Intelligence-Int-\">Int</a>), <a href=\"https://www.d20pfsrd.com/skills/knowledge\">Knowledge</a>&nbsp;(nature) (<a href=\"https://www.d20pfsrd.com/basics-ability-scores/ability-scores#TOC-Intelligence-Int-\">Int</a>), <a href=\"https://www.d20pfsrd.com/skills/perception\">Perception</a>&nbsp;(<a href=\"https://www.d20pfsrd.com/basics-ability-scores/ability-scores#TOC-Wisdom-Wis-\">Wis</a>), <a href=\"https://www.d20pfsrd.com/skills/profession\">Profession</a>&nbsp;(<a href=\"https://www.d20pfsrd.com/basics-ability-scores/ability-scores#TOC-Wisdom-Wis-\">Wis</a>), <a href=\"https://www.d20pfsrd.com/skills/ride\">Ride</a>&nbsp;(<a href=\"https://www.d20pfsrd.com/basics-ability-scores/ability-scores#TOC-Dexterity-Dex-\">Dex</a>), <a href=\"https://www.d20pfsrd.com/skills/spellcraft\">Spellcraft</a>&nbsp;(<a href=\"https://www.d20pfsrd.com/basics-ability-scores/ability-scores#TOC-Intelligence-Int-\">Int</a>), <a href=\"https://www.d20pfsrd.com/skills/stealth\">Stealth</a>&nbsp;(<a href=\"https://www.d20pfsrd.com/basics-ability-scores/ability-scores#TOC-Dexterity-Dex-\">Dex</a>), <a href=\"https://www.d20pfsrd.com/skills/survival\">Survival</a>&nbsp;(<a href=\"https://www.d20pfsrd.com/basics-ability-scores/ability-scores#TOC-Wisdom-Wis-\">Wis</a>), and <a href=\"https://www.d20pfsrd.com/skills/swim\">Swim</a>&nbsp;(<a href=\"https://www.d20pfsrd.com/basics-ability-scores/ability-scores#TOC-Strength-Str-\">Str</a>).</p>\n<p><strong>Skill Ranks per Level</strong>: 6 +&nbsp;<a href=\"https://www.d20pfsrd.com/basics-ability-scores/ability-scores#TOC-Intelligence-Int-\">Int</a>&nbsp;modifier.</p>"
        },
        "tags": [],
        "changes": [],
        "links": {
          "children": [],
          "classAssociations": [
            {
              "id": "pf1.class-abilities.XmALhWqXdN9yOmtd",
              "dataType": "compendium",
              "name": "Favored Enemy",
              "img": "systems/pf1/icons/skills/blood_13.jpg",
              "hiddenLinks": {},
              "level": 1,
              "_index": 0
            },
            {
              "id": "pf1.class-abilities.U2YBSx1s8cT8iDq1",
              "dataType": "compendium",
              "name": "Favored Terrain",
              "img": "systems/pf1/icons/skills/green_18.jpg",
              "hiddenLinks": {},
              "level": 3,
              "_index": 1
            },
            {
              "id": "pf1.class-abilities.r8wPs0bB3WhOLxbX",
              "dataType": "compendium",
              "name": "Track",
              "img": "systems/pf1/icons/skills/beast_01.jpg",
              "hiddenLinks": {},
              "level": 1,
              "_index": 2
            },
            {
              "id": "pf1.class-abilities.Yr8dfM2d8JEWoYkr",
              "dataType": "compendium",
              "name": "Wild Empathy",
              "img": "systems/pf1/icons/skills/green_13.jpg",
              "hiddenLinks": {},
              "level": 1,
              "_index": 3
            },
            {
              "id": "pf1.class-abilities.BO7BEFHDcf6qBaYV",
              "dataType": "compendium",
              "name": "Combat Style Feat",
              "img": "systems/pf1/icons/feats/double-slice.jpg",
              "hiddenLinks": {},
              "level": 2,
              "_index": 4
            },
            {
              "id": "pf1.class-abilities.E0skJEqlJOvB5CoA",
              "dataType": "compendium",
              "name": "Endurance",
              "img": "systems/pf1/icons/feats/athletic.jpg",
              "hiddenLinks": {},
              "level": 3,
              "_index": 5
            },
            {
              "id": "pf1.class-abilities.Bs5i98ja24ODe9WL",
              "dataType": "compendium",
              "name": "Hunter's Bond",
              "img": "systems/pf1/icons/skills/green_21.jpg",
              "hiddenLinks": {},
              "level": 4,
              "_index": 6
            },
            {
              "id": "pf1.class-abilities.5iXq1igb1Cq0qobT",
              "dataType": "compendium",
              "name": "Woodland Stride",
              "img": "systems/pf1/icons/skills/green_16.jpg",
              "hiddenLinks": {},
              "level": 7,
              "_index": 7
            },
            {
              "id": "pf1.class-abilities.sk0HNTe9lKBpHQpN",
              "dataType": "compendium",
              "name": "Swift Tracker",
              "img": "systems/pf1/icons/skills/green_20.jpg",
              "hiddenLinks": {},
              "level": 8,
              "_index": 8
            },
            {
              "id": "pf1.class-abilities.KQYCRLEdD4bGA5ak",
              "dataType": "compendium",
              "name": "Evasion",
              "img": "systems/pf1/icons/skills/blue_06.jpg",
              "hiddenLinks": {},
              "level": 9,
              "_index": 9
            },
            {
              "id": "pf1.class-abilities.5NS7Ec3WhKIkhygg",
              "dataType": "compendium",
              "name": "Quarry",
              "img": "systems/pf1/icons/skills/arrow_05.jpg",
              "hiddenLinks": {},
              "level": 11,
              "_index": 10
            },
            {
              "id": "pf1.class-abilities.E90iE6Ynyq1cgGXA",
              "dataType": "compendium",
              "name": "Camouflage",
              "img": "systems/pf1/icons/skills/green_18.jpg",
              "hiddenLinks": {},
              "level": 12,
              "_index": 11
            },
            {
              "id": "pf1.class-abilities.Cc2eFfhJYlClCGEH",
              "dataType": "compendium",
              "name": "Improved Evasion",
              "img": "systems/pf1/icons/skills/blue_06.jpg",
              "hiddenLinks": {},
              "level": 16,
              "_index": 12
            },
            {
              "id": "pf1.class-abilities.ytotO22rp5ji6rT1",
              "dataType": "compendium",
              "name": "Hide in Plain Sight",
              "img": "systems/pf1/icons/skills/emerald_09.jpg",
              "hiddenLinks": {},
              "level": 17,
              "_index": 13
            },
            {
              "id": "pf1.class-abilities.oRac7XDHBN0JzuyY",
              "dataType": "compendium",
              "name": "Improved Quarry",
              "img": "systems/pf1/icons/skills/emerald_10.jpg",
              "hiddenLinks": {},
              "level": 19,
              "_index": 14
            },
            {
              "id": "pf1.class-abilities.GAHaeOGTBeR6LJ3K",
              "dataType": "compendium",
              "name": "Master Hunter",
              "img": "systems/pf1/icons/skills/arrow_06.jpg",
              "hiddenLinks": {},
              "level": 20,
              "_index": 15
            }
          ]
        },
        "tag": "ranger",
        "useCustomTag": true,
        "armorProf": {
          "value": [
            "lgt",
            "med",
            "shl"
          ]
        },
        "weaponProf": {
          "value": [
            "sim",
            "mar"
          ]
        },
        "flags": {
          "boolean": [],
          "dictionary": []
        },
        "scriptCalls": [],
        "level": 2,
        "hd": 10,
        "hp": 15,
        "bab": "high",
        "skillsPerLevel": 6,
        "savingThrows": {
          "fort": {
            "value": "high"
          },
          "ref": {
            "value": "high"
          }
        },
        "classSkills": {
          "acr": false,
          "apr": false,
          "art": false,
          "blf": false,
          "clm": true,
          "crf": true,
          "dip": false,
          "dev": false,
          "dis": false,
          "esc": false,
          "fly": false,
          "han": true,
          "hea": true,
          "int": true,
          "kar": false,
          "kdu": true,
          "ken": false,
          "kge": true,
          "khi": false,
          "klo": false,
          "kna": true,
          "kno": false,
          "kpl": false,
          "kre": false,
          "lin": false,
          "lor": false,
          "per": true,
          "prf": false,
          "pro": true,
          "rid": true,
          "sen": false,
          "slt": false,
          "spl": true,
          "ste": true,
          "sur": true,
          "swm": true,
          "umd": false
        }
      },
      "effects": [],
      "folder": null,
      "sort": 0,
      "permission": {
        "default": 0
      },
      "flags": {}
    },
    {
      "_id": "6Uh8PAjR3BE7dult",
      "name": "Monstrous Humanoid (Aquatic)",
      "type": "class",
      "img": "systems/pf1/icons/skills/blue_32.jpg",
      "data": {
        "description": {
          "value": "<p>Monstrous humanoids are similar to humanoids, but with monstrous or animalistic features. They often have magical abilities as well.</p>\n<h2><span id=\"Features\">Features</span></h2>\n<p>A monstrous humanoid has the following features.</p>\n<ul>\n<li>d10 Hit Die.</li>\n<li>Base attack bonus equal to total Hit Dice (fast progression).</li>\n<li>Good&nbsp;<a href=\"https://www.d20pfsrd.com/gamemastering/combat#TOC-Reflex\" rel=\"nofollow\">Reflex</a>&nbsp;and&nbsp;<a href=\"https://www.d20pfsrd.com/gamemastering/combat#TOC-Will\" rel=\"nofollow\">Will</a>&nbsp;Saves.</li>\n<li>Skill points equal to 4 + Int modifier (minimum 1) per Hit Die. The following are class skills for monstrous humanoids: <a href=\"https://www.d20pfsrd.com/skills/climb\" rel=\"nofollow\">Climb</a>, <a href=\"https://www.d20pfsrd.com/skills/craft\" rel=\"nofollow\">Craft</a>, <a href=\"https://www.d20pfsrd.com/skills/fly\" rel=\"nofollow\">Fly</a>, <a href=\"https://www.d20pfsrd.com/skills/intimidate\" rel=\"nofollow\">Intimidate</a>, <a href=\"https://www.d20pfsrd.com/skills/perception\" rel=\"nofollow\">Perception</a>, <a href=\"https://www.d20pfsrd.com/skills/ride\" rel=\"nofollow\">Ride</a>, <a href=\"https://www.d20pfsrd.com/skills/stealth\" rel=\"nofollow\">Stealth</a>, <a href=\"https://www.d20pfsrd.com/skills/survival\" rel=\"nofollow\">Survival</a>, and <a href=\"https://www.d20pfsrd.com/skills/swim\" rel=\"nofollow\">Swim</a>.</li>\n</ul>\n<h2><span id=\"Traits\">Traits</span></h2>\n<p>A monstrous humanoid possesses the following traits (unless otherwise noted in a creature’s entry).</p>\n<ul>\n<li><a href=\"https://www.d20pfsrd.com/gamemastering/special-abilities#TOC-Darkvision\">Darkvision</a>&nbsp;60 feet.</li>\n<li>Proficient with all simple weapons and any weapons mentioned in its entry.</li>\n<li>Proficient with whatever type of armor (light, medium, or heavy) it is described as wearing, as well as all lighter types. Monstrous humanoids not indicated as wearing armor are not proficient with armor. Monstrous humanoids are proficient with shields if they are proficient with any form of armor.</li>\n<li>Monstrous humanoids breathe, eat, and sleep.</li>\n</ul>"
        },
        "tags": [],
        "changes": [],
        "links": "",
        "tag": "monstrous humanoid",
        "useCustomTag": true,
        "armorProf": {
          "value": []
        },
        "weaponProf": {
          "value": []
        },
        "flags": {
          "boolean": [],
          "dictionary": []
        },
        "scriptCalls": [],
        "classType": "racial",
        "level": 0,
        "hd": 10,
        "hp": 0,
        "bab": "high",
        "skillsPerLevel": 4,
        "savingThrows": {
          "ref": {
            "value": "high"
          },
          "will": {
            "value": "high"
          }
        },
        "classSkills": {
          "acr": false,
          "apr": false,
          "art": false,
          "blf": false,
          "clm": true,
          "crf": true,
          "dip": false,
          "dev": false,
          "dis": false,
          "esc": false,
          "fly": true,
          "han": false,
          "hea": false,
          "int": true,
          "kar": false,
          "kdu": false,
          "ken": false,
          "kge": false,
          "khi": false,
          "klo": false,
          "kna": false,
          "kno": false,
          "kpl": false,
          "kre": false,
          "lin": false,
          "lor": false,
          "per": true,
          "prf": false,
          "pro": false,
          "rid": true,
          "sen": false,
          "slt": false,
          "spl": false,
          "ste": true,
          "sur": true,
          "swm": true,
          "umd": false
        }
      },
      "effects": [],
      "folder": null,
      "sort": 0,
      "permission": {
        "default": 0
      },
      "flags": {}
    },
    {
      "_id": "51u1utpo6h8m5qei",
      "name": "Sense: Darkvision 30ft.",
      "type": "feat",
      "img": "systems/pf1/icons/skills/shadow_12.jpg",
      "data": {
        "description": {
          "value": "Darkvision is the extraordinary ability to see with no light source at all, out to a range specified for the creature. Darkvision is black-and-white only (colors cannot be discerned). It does not allow characters to see anything that they could not see otherwise—invisible objects are still invisible, and illusions are still visible as what they seem to be. Likewise, darkvision subjects a creature to gaze attacks normally. The presence of light does not spoil darkvision."
        },
        "tags": [],
        "damage": {
          "parts": [],
          "critParts": [],
          "nonCritParts": []
        },
        "attackParts": [],
        "effectNotes": [],
        "attackNotes": [],
        "changes": [],
        "contextNotes": [],
        "links": {
          "children": [],
          "charges": []
        },
        "tag": "senseDarkvision30ft",
        "armorProf": {
          "value": []
        },
        "weaponProf": {
          "value": []
        },
        "flags": {
          "boolean": [],
          "dictionary": []
        },
        "scriptCalls": [],
        "featType": "racial",
        "associations": {
          "classes": []
        },
        "abilityType": "ex"
      },
      "effects": [],
      "folder": null,
      "sort": 0,
      "permission": {
        "default": 0
      },
      "flags": {}
    },
    {
      "_id": "k4qd77szzjxk7t2y",
      "name": "Sense: Blindsense",
      "type": "feat",
      "img": "systems/pf1/icons/skills/light_01.jpg",
      "data": {
        "description": {
          "value": "Using nonvisual senses, such as acute smell or hearing, a creature with blindsense notices things it cannot see.\n                The creature usually does not need to make Perception checks to pinpoint the location of a creature within range of its blindsense ability, provided that it has line of effect to that creature.<br><br>\n                Any opponent the creature cannot see still has total concealment against the creature with blindsense, and the creature still has the normal miss chance when attacking foes that have concealment.<br><br>\n                Visibility still affects the movement of a creature with blindsense. A creature with blindsense is still denied its Dexterity bonus to Armor Class against attacks from creatures it cannot see."
        },
        "tags": [],
        "damage": {
          "parts": [],
          "critParts": [],
          "nonCritParts": []
        },
        "attackParts": [],
        "effectNotes": [],
        "attackNotes": [],
        "changes": [],
        "contextNotes": [],
        "links": {
          "children": [],
          "charges": []
        },
        "tag": "senseBlindsense",
        "armorProf": {
          "value": []
        },
        "weaponProf": {
          "value": []
        },
        "flags": {
          "boolean": [],
          "dictionary": []
        },
        "scriptCalls": [],
        "featType": "racial",
        "associations": {
          "classes": []
        },
        "abilityType": "ex"
      },
      "effects": [],
      "folder": null,
      "sort": 0,
      "permission": {
        "default": 0
      },
      "flags": {}
    },
    {
      "_id": "Zeq6RWYv5otvg8q7",
      "name": "Cleave",
      "type": "feat",
      "img": "systems/pf1/icons/feats/cleave.jpg",
      "data": {
        "description": {
          "value": "\n                <i>You can strike two adjacent foes with a single swing.</i>\n                <br />\n                <br />\n                \n                <p><b>Prerequisites</b></p>\n                <p> Str 13, Power Attack, base attack bonus +1.</p>\n                \n            <br />\n                <p><b>Benefits</b></p>\n                <p><p class=\"stat-block-1\"> As a standard action, you can make a single attack at your full base attack bonus against a foe within reach. If you hit, you deal damage normally and can make an additional attack (using your full base attack bonus) against a foe that is adjacent to the first and also within reach. You can only make one additional attack per round with this feat. When you use this feat, you take a &ndash;2 penalty to your Armor Class until your next turn.</p></p>\n                \n            \n            "
        },
        "tags": [
          [
            "Combat"
          ],
          [
            "Offensive"
          ]
        ],
        "measureTemplate": {
          "size": "0"
        },
        "actionType": "",
        "damage": {
          "parts": [],
          "critParts": [],
          "nonCritParts": []
        },
        "attackParts": [],
        "effectNotes": [],
        "attackNotes": [],
        "changes": [],
        "contextNotes": [],
        "links": {
          "children": [],
          "charges": []
        },
        "tag": "cleave",
        "armorProf": {
          "value": []
        },
        "weaponProf": {
          "value": []
        },
        "flags": {
          "boolean": [],
          "dictionary": []
        },
        "scriptCalls": [],
        "associations": {
          "classes": []
        }
      },
      "effects": [],
      "folder": null,
      "sort": 0,
      "permission": {
        "default": 0
      },
      "flags": {}
    },
    {
      "_id": "FUW5mIXHNBBIQ1Sq",
      "name": "Power Attack",
      "type": "feat",
      "img": "systems/pf1/icons/feats/power-attack.jpg",
      "data": {
        "description": {
          "value": "\n                <i>You can make exceptionally deadly melee attacks by sacrificing accuracy for strength.</i>\n                <br />\n                <br />\n                \n                <p><b>Prerequisites</b></p>\n                <p> Str 13, base attack bonus +1.</p>\n                \n            <br />\n                <p><b>Benefits</b></p>\n                <p><p class=\"stat-block-1\"> You can choose to take a &ndash;1 penalty on all melee attack rolls and combat maneuver checks to gain a +2 bonus on all melee damage rolls. This bonus to damage is increased by half (+50%) if you are making an attack with a two-handed weapon, a one handed weapon using two hands, or a primary natural weapon that adds 1-1/2 times your Strength modifier on damage rolls. This bonus to damage is halved (&ndash;50%) if you are making an attack with an off-hand weapon or secondary natural weapon. When your base attack bonus reaches +4, and every 4 points thereafter, the penalty increases by &ndash;1 and the bonus to damage increases by +2. You must choose to use this feat before making an attack roll, and its effects last until your next turn. The bonus damage does not apply to touch attacks or effects that do not deal hit point damage.</p></p>\n                \n            \n            "
        },
        "tags": [
          [
            "Combat"
          ],
          [
            "Offensive"
          ]
        ],
        "measureTemplate": {
          "size": "0"
        },
        "actionType": "",
        "damage": {
          "parts": [],
          "critParts": [],
          "nonCritParts": []
        },
        "attackParts": [],
        "effectNotes": [],
        "attackNotes": [],
        "changes": [],
        "contextNotes": [],
        "links": {
          "children": [],
          "charges": []
        },
        "tag": "powerAttack",
        "armorProf": {
          "value": []
        },
        "weaponProf": {
          "value": []
        },
        "flags": {
          "boolean": [],
          "dictionary": []
        },
        "scriptCalls": [],
        "associations": {
          "classes": []
        }
      },
      "effects": [],
      "folder": null,
      "sort": 0,
      "permission": {
        "default": 0
      },
      "flags": {}
    },
    {
      "_id": "q89y8vtoe4pic429",
      "name": "Pushing Assault",
      "type": "feat",
      "img": "systems/pf1/icons/skills/yellow_36.jpg",
      "data": {
        "description": {
          "value": "sbc | As Pushing Assault could not be found in any compendium, a placeholder was generated."
        },
        "tags": [],
        "damage": {
          "parts": [],
          "critParts": [],
          "nonCritParts": []
        },
        "attackParts": [],
        "effectNotes": [],
        "attackNotes": [],
        "changes": [],
        "contextNotes": [],
        "links": {
          "children": [],
          "charges": []
        },
        "armorProf": {
          "value": []
        },
        "weaponProf": {
          "value": []
        },
        "flags": {
          "boolean": [],
          "dictionary": []
        },
        "scriptCalls": [],
        "associations": {
          "classes": []
        }
      },
      "effects": [],
      "folder": null,
      "sort": 0,
      "permission": {
        "default": 0
      },
      "flags": {}
    },
    {
      "_id": "nsknsiv3zwga1130",
      "name": "Special Quality: Track +1",
      "type": "feat",
      "img": "systems/pf1/icons/skills/yellow_36.jpg",
      "data": {
        "description": {
          "value": "sbc | Placeholder for Special Qualities, which in most statblocks are listed under SQ in the statistics block, but described in the Special Abilities. Remove duplicates as needed!"
        },
        "tags": [],
        "damage": {
          "parts": [],
          "critParts": [],
          "nonCritParts": []
        },
        "attackParts": [],
        "effectNotes": [],
        "attackNotes": [],
        "changes": [],
        "contextNotes": [],
        "links": {
          "children": [],
          "charges": []
        },
        "armorProf": {
          "value": []
        },
        "weaponProf": {
          "value": []
        },
        "flags": {
          "boolean": [],
          "dictionary": []
        },
        "scriptCalls": [],
        "featType": "misc",
        "associations": {
          "classes": []
        }
      },
      "effects": [],
      "folder": null,
      "sort": 0,
      "permission": {
        "default": 0
      },
      "flags": {}
    },
    {
      "_id": "ukjdhnyjb1gsirf3",
      "name": "Special Quality: Wild Empathy +0",
      "type": "feat",
      "img": "systems/pf1/icons/skills/yellow_36.jpg",
      "data": {
        "description": {
          "value": "sbc | Placeholder for Special Qualities, which in most statblocks are listed under SQ in the statistics block, but described in the Special Abilities. Remove duplicates as needed!"
        },
        "tags": [],
        "damage": {
          "parts": [],
          "critParts": [],
          "nonCritParts": []
        },
        "attackParts": [],
        "effectNotes": [],
        "attackNotes": [],
        "changes": [],
        "contextNotes": [],
        "links": {
          "children": [],
          "charges": []
        },
        "armorProf": {
          "value": []
        },
        "weaponProf": {
          "value": []
        },
        "flags": {
          "boolean": [],
          "dictionary": []
        },
        "scriptCalls": [],
        "featType": "misc",
        "associations": {
          "classes": []
        }
      },
      "effects": [],
      "folder": null,
      "sort": 0,
      "permission": {
        "default": 0
      },
      "flags": {}
    },
    {
      "_id": "wsret3cigdb1dx6o",
      "name": "Potion Of Cure Light Wounds",
      "type": "loot",
      "img": "systems/pf1/icons/skills/yellow_36.jpg",
      "data": {
        "description": {
          "value": "sbc | As potion of cure light wounds could not be found in any compendium, a placeholder was generated."
        },
        "tags": [],
        "changes": [],
        "contextNotes": [],
        "links": {
          "children": []
        },
        "flags": {
          "boolean": [],
          "dictionary": []
        },
        "scriptCalls": []
      },
      "effects": [],
      "folder": null,
      "sort": 0,
      "permission": {
        "default": 0
      },
      "flags": {}
    },
    {
      "_id": "awNlvqmRM1TZRVR9",
      "name": "Mwk Longspear",
      "type": "weapon",
      "img": "systems/pf1/icons/items/weapons/longspear.PNG",
      "data": {
        "description": {
          "value": "<p><strong>Source</strong> <em>Ultimate Equipment pg. 17</em>, <em>PRPG Core Rulebook pg. 142</em></p><h3 class=\"framing\"><img src=\"https://www.aonprd.com/images/PathfinderSocietySymbol.gif\" title=\"PFS Legal\" style=\"margin:3px 3px 0px 3px;\">Statistics</h3><p><strong>Cost</strong> 5 gp <strong>Weight</strong> 9 lbs.</p><p><strong>Damage</strong> 1d6 (small), 1d8 (medium); <strong>Critical</strong> x3; <strong>Range</strong> -; <strong>Type</strong> P; <strong>Special</strong> brace, reach</p><p><strong>Category</strong> Two-Handed; <strong>Proficiency</strong> Simple</p><p><strong>Weapon Groups</strong> Spears</p><h3 class=\"framing\">Description</h3><p>A longspear is about 8 feet in length.</p>"
        },
        "tags": [],
        "weight": 9,
        "price": 5,
        "hardness": 10,
        "identifiedName": "Mwk Longspear",
        "changes": [],
        "contextNotes": [],
        "links": {
          "children": []
        },
        "tag": "longspear",
        "flags": {
          "boolean": [],
          "dictionary": []
        },
        "scriptCalls": [],
        "masterwork": true,
        "weaponSubtype": "2h",
        "weaponData": {
          "damageRoll": "1d8",
          "damageType": "P",
          "critMult": 3,
          "range": 0
        }
      },
      "effects": [],
      "folder": null,
      "sort": 0,
      "permission": {
        "default": 0
      },
      "flags": {}
    },
    {
      "_id": "vlas81ct1ko6br8e",
      "name": "Mwk Underwater Heavy Crossbow With 20 Bolts",
      "type": "weapon",
      "img": "systems/pf1/icons/skills/yellow_36.jpg",
      "data": {
        "description": {
          "value": "sbc | As mwk underwater heavy crossbow with 20 bolts could not be found in any compendium, a placeholder was generated."
        },
        "tags": [],
        "changes": [],
        "contextNotes": [],
        "links": {
          "children": []
        },
        "flags": {
          "boolean": [],
          "dictionary": []
        },
        "scriptCalls": []
      },
      "effects": [],
      "folder": null,
      "sort": 0,
      "permission": {
        "default": 0
      },
      "flags": {}
    },
    {
      "_id": "yl2upsv8wa8ycxvm",
      "name": "Hand Of The Mage",
      "type": "loot",
      "img": "systems/pf1/icons/skills/yellow_36.jpg",
      "data": {
        "description": {
          "value": "sbc | As hand of the mage could not be found in any compendium, a placeholder was generated."
        },
        "tags": [],
        "changes": [],
        "contextNotes": [],
        "links": {
          "children": []
        },
        "flags": {
          "boolean": [],
          "dictionary": []
        },
        "scriptCalls": []
      },
      "effects": [],
      "folder": null,
      "sort": 0,
      "permission": {
        "default": 0
      },
      "flags": {}
    },
    {
      "_id": "xp3gg2jl0tc4tw4z",
      "name": "Agate Earring Worth 25 Gp",
      "type": "loot",
      "img": "systems/pf1/icons/skills/yellow_36.jpg",
      "data": {
        "description": {
          "value": "sbc | As agate earring worth 25 gp could not be found in any compendium, a placeholder was generated."
        },
        "tags": [],
        "changes": [],
        "contextNotes": [],
        "links": {
          "children": []
        },
        "flags": {
          "boolean": [],
          "dictionary": []
        },
        "scriptCalls": []
      },
      "effects": [],
      "folder": null,
      "sort": 0,
      "permission": {
        "default": 0
      },
      "flags": {}
    },
    {
      "_id": "27pngx5vp9yz9fxc",
      "name": "Money Pouch: 18 Gp",
      "type": "container",
      "img": "systems/pf1/icons/items/inventory/pouch-sealed.jpg",
      "data": {
        "description": {
          "value": "sbc | All currency carried was put into this container."
        },
        "tags": [],
        "inventoryItems": [],
        "currency": {
          "gp": 18
        },
        "flags": {
          "boolean": [],
          "dictionary": []
        }
      },
      "effects": [],
      "folder": null,
      "sort": 0,
      "permission": {
        "default": 0
      },
      "flags": {}
    },
    {
      "_id": "qoghzhxpobhugfqf",
      "name": "Pearls (7, Worth 100 Gp Each)",
      "type": "loot",
      "img": "systems/pf1/icons/skills/yellow_36.jpg",
      "data": {
        "description": {
          "value": "sbc | As pearls (7, worth 100 gp each) could not be found in any compendium, a placeholder was generated."
        },
        "tags": [],
        "changes": [],
        "contextNotes": [],
        "links": {
          "children": []
        },
        "flags": {
          "boolean": [],
          "dictionary": []
        },
        "scriptCalls": []
      },
      "effects": [],
      "folder": null,
      "sort": 0,
      "permission": {
        "default": 0
      },
      "flags": {}
    },
    {
      "_id": "na27kgyzjyvst94n",
      "name": "Mwk Longspear",
      "type": "attack",
      "img": null,
      "data": {
        "tags": [],
        "activation": {
          "type": "attack"
        },
        "unchainedAction": {
          "activation": {
            "type": "attack"
          }
        },
        "duration": {
          "units": "inst"
        },
        "range": {
          "value": "",
          "units": "melee"
        },
        "attackName": "Longspear",
        "actionType": "mwak",
        "attackBonus": "0",
        "damage": {
          "parts": [
            [
              "1d8+1",
              "P"
            ]
          ],
          "critParts": [],
          "nonCritParts": []
        },
        "attackParts": [],
        "ability": {
          "attack": "str",
          "damage": "str",
          "critMult": "3"
        },
        "effectNotes": [],
        "attackNotes": [
          "mwk longspear +8 (1d8+4/x3 )",
          "Weapon Qualities: [brace, reach]"
        ],
        "links": {
          "children": [],
          "charges": [],
          "ammunition": []
        },
        "flags": {
          "boolean": [],
          "dictionary": []
        },
        "scriptCalls": [],
        "masterwork": true,
        "primaryAttack": false,
        "conditionals": []
      },
      "effects": [],
      "folder": null,
      "sort": 0,
      "permission": {
        "default": 0
      },
      "flags": {}
    },
    {
      "_id": "037i58evydfz28qg",
      "name": "Bite",
      "type": "attack",
      "img": "systems/pf1/icons/items/inventory/monster-head.jpg",
      "data": {
        "tags": [],
        "activation": {
          "type": "attack"
        },
        "unchainedAction": {
          "activation": {
            "type": "attack"
          }
        },
        "duration": {
          "units": "inst"
        },
        "range": {
          "value": "",
          "units": "melee"
        },
        "attackName": "Bite",
        "actionType": "mwak",
        "attackBonus": "-5",
        "damage": {
          "parts": [
            [
              "1d6+0",
              "B, P and S"
            ]
          ],
          "critParts": [],
          "nonCritParts": []
        },
        "attackParts": [],
        "ability": {
          "attack": "str",
          "damage": "str"
        },
        "effectNotes": [],
        "attackNotes": [
          "bite +2 (1d6+3 )"
        ],
        "links": {
          "children": [],
          "charges": [],
          "ammunition": []
        },
        "flags": {
          "boolean": [],
          "dictionary": []
        },
        "scriptCalls": [],
        "attackType": "natural",
        "conditionals": []
      },
      "effects": [],
      "folder": null,
      "sort": 0,
      "permission": {
        "default": 0
      },
      "flags": {}
    },
    {
      "_id": "m5gnzlp0lvq4pqy9",
      "name": "Claws",
      "type": "attack",
      "img": "systems/pf1/icons/items/inventory/monster-paw-bear.jpg",
      "data": {
        "tags": [],
        "activation": {
          "type": "attack"
        },
        "unchainedAction": {
          "activation": {
            "type": "attack"
          }
        },
        "duration": {
          "units": "inst"
        },
        "range": {
          "value": "",
          "units": "melee"
        },
        "attackName": "Claws",
        "actionType": "mwak",
        "attackBonus": "0",
        "damage": {
          "parts": [
            [
              "1d4+0",
              "B and S"
            ]
          ],
          "critParts": [],
          "nonCritParts": []
        },
        "attackParts": [
          [
            "0",
            "Claws: 1"
          ]
        ],
        "ability": {
          "attack": "str",
          "damage": "str"
        },
        "effectNotes": [],
        "attackNotes": [
          "2 claws +7 (1d4+3 )"
        ],
        "links": {
          "children": [],
          "charges": [],
          "ammunition": []
        },
        "flags": {
          "boolean": [],
          "dictionary": []
        },
        "scriptCalls": [],
        "attackType": "natural",
        "conditionals": []
      },
      "effects": [],
      "folder": null,
      "sort": 0,
      "permission": {
        "default": 0
      },
      "flags": {}
    },
    {
      "_id": "8lsbbos4m6rapbma",
      "name": "Bite",
      "type": "attack",
      "img": "systems/pf1/icons/items/inventory/monster-head.jpg",
      "data": {
        "tags": [],
        "activation": {
          "type": "attack"
        },
        "unchainedAction": {
          "activation": {
            "type": "attack"
          }
        },
        "duration": {
          "units": "inst"
        },
        "range": {
          "value": "",
          "units": "melee"
        },
        "attackName": "Bite",
        "actionType": "mwak",
        "attackBonus": "0",
        "damage": {
          "parts": [
            [
              "1d6+0",
              "B, P and S"
            ]
          ],
          "critParts": [],
          "nonCritParts": []
        },
        "attackParts": [],
        "ability": {
          "attack": "str",
          "damage": "str"
        },
        "effectNotes": [],
        "attackNotes": [
          "bite +7 (1d6+3 )"
        ],
        "links": {
          "children": [],
          "charges": [],
          "ammunition": []
        },
        "flags": {
          "boolean": [],
          "dictionary": []
        },
        "scriptCalls": [],
        "attackType": "natural",
        "conditionals": []
      },
      "effects": [],
      "folder": null,
      "sort": 0,
      "permission": {
        "default": 0
      },
      "flags": {}
    },
    {
      "_id": "uynlcmkbt2c45ihr",
      "name": "Mwk Underwater Heavy Crossbow",
      "type": "attack",
      "img": null,
      "data": {
        "tags": [],
        "activation": {
          "type": "attack"
        },
        "unchainedAction": {
          "activation": {
            "type": "attack"
          }
        },
        "duration": {
          "units": "inst"
        },
        "range": {
          "value": "5",
          "units": "ft"
        },
        "attackName": "Underwater Heavy Crossbow",
        "actionType": "rwak",
        "attackBonus": "0",
        "damage": {
          "parts": [
            [
              "1d10+0",
              ""
            ]
          ],
          "critParts": [],
          "nonCritParts": []
        },
        "attackParts": [],
        "ability": {
          "attack": "dex",
          "damage": "",
          "critRange": "19"
        },
        "effectNotes": [],
        "attackNotes": [
          "mwk underwater heavy crossbow +8 (1d10/19-20 )"
        ],
        "links": {
          "children": [],
          "charges": [],
          "ammunition": []
        },
        "flags": {
          "boolean": [],
          "dictionary": []
        },
        "scriptCalls": [],
        "masterwork": true,
        "primaryAttack": false,
        "conditionals": []
      },
      "effects": [],
      "folder": null,
      "sort": 0,
      "permission": {
        "default": 0
      },
      "flags": {}
    },
    {
      "_id": "d1kvx6grk4r1kgv7",
      "name": "Special Attack: Blood Frenzy",
      "type": "attack",
      "img": "systems/pf1/icons/skills/yellow_36.jpg",
      "data": {
        "description": {
          "value": "sbc | Placeholder for Special Attacks, which in most statblocks are listed under 'Special Attacks' in the statistics block, but are described in the 'Special Abilities' block. Remove duplicates as needed!"
        },
        "tags": [],
        "damage": {
          "parts": [],
          "critParts": [],
          "nonCritParts": []
        },
        "attackParts": [],
        "effectNotes": [],
        "attackNotes": [],
        "links": {
          "children": [],
          "charges": [],
          "ammunition": []
        },
        "flags": {
          "boolean": [],
          "dictionary": []
        },
        "scriptCalls": [],
        "attackType": "misc",
        "conditionals": []
      },
      "effects": [],
      "folder": null,
      "sort": 0,
      "permission": {
        "default": 0
      },
      "flags": {}
    },
    {
      "_id": "8veg5rdywurm3yi8",
      "name": "Special Attack:  Combat Style (two-handed Weapon)",
      "type": "attack",
      "img": "systems/pf1/icons/skills/yellow_36.jpg",
      "data": {
        "description": {
          "value": "sbc | Placeholder for Special Attacks, which in most statblocks are listed under 'Special Attacks' in the statistics block, but are described in the 'Special Abilities' block. Remove duplicates as needed!"
        },
        "tags": [],
        "damage": {
          "parts": [],
          "critParts": [],
          "nonCritParts": []
        },
        "attackParts": [],
        "effectNotes": [],
        "attackNotes": [],
        "links": {
          "children": [],
          "charges": [],
          "ammunition": []
        },
        "flags": {
          "boolean": [],
          "dictionary": []
        },
        "scriptCalls": [],
        "attackType": "misc",
        "conditionals": []
      },
      "effects": [],
      "folder": null,
      "sort": 0,
      "permission": {
        "default": 0
      },
      "flags": {}
    },
    {
      "_id": "hi5htfmut8g6m56m",
      "name": "Special Attack:  Favored Enemy (elves +2)",
      "type": "attack",
      "img": "systems/pf1/icons/skills/yellow_36.jpg",
      "data": {
        "description": {
          "value": "sbc | Placeholder for Special Attacks, which in most statblocks are listed under 'Special Attacks' in the statistics block, but are described in the 'Special Abilities' block. Remove duplicates as needed!"
        },
        "tags": [],
        "damage": {
          "parts": [],
          "critParts": [],
          "nonCritParts": []
        },
        "attackParts": [],
        "effectNotes": [],
        "attackNotes": [],
        "links": {
          "children": [],
          "charges": [],
          "ammunition": []
        },
        "flags": {
          "boolean": [],
          "dictionary": []
        },
        "scriptCalls": [],
        "attackType": "misc",
        "conditionals": []
      },
      "effects": [],
      "folder": null,
      "sort": 0,
      "permission": {
        "default": 0
      },
      "flags": {}
    },
    {
      "_id": "c5nf71yn8lgw43zo",
      "name": "Tactics",
      "type": "feat",
      "img": "icons/skills/targeting/crosshair-pointed-orange.webp",
      "data": {
        "description": {
          "value": "<div><strong>During Combat</strong>:  The deep racer regularly uses Pushing Assault.</div>"
        },
        "tags": [],
        "damage": {
          "parts": [],
          "critParts": [],
          "nonCritParts": []
        },
        "attackParts": [],
        "effectNotes": [],
        "attackNotes": [],
        "changes": [],
        "contextNotes": [],
        "links": {
          "children": [],
          "charges": []
        },
        "armorProf": {
          "value": []
        },
        "weaponProf": {
          "value": []
        },
        "flags": {
          "boolean": [],
          "dictionary": []
        },
        "scriptCalls": [],
        "featType": "misc",
        "associations": {
          "classes": []
        }
      },
      "effects": [],
      "folder": null,
      "sort": 0,
      "permission": {
        "default": 0
      },
      "flags": {}
    },
    {
      "_id": "3wlgg1xubnqubc1n",
      "name": "Ecology",
      "type": "feat",
      "img": "icons/environment/wilderness/tree-oak.webp",
      "data": {
        "description": {
          "value": "<div><strong>Environment</strong>:  temperate or warm ocean</div>"
        },
        "tags": [],
        "damage": {
          "parts": [],
          "critParts": [],
          "nonCritParts": []
        },
        "attackParts": [],
        "effectNotes": [],
        "attackNotes": [],
        "changes": [],
        "contextNotes": [],
        "links": {
          "children": [],
          "charges": []
        },
        "armorProf": {
          "value": []
        },
        "weaponProf": {
          "value": []
        },
        "flags": {
          "boolean": [],
          "dictionary": []
        },
        "scriptCalls": [],
        "featType": "misc",
        "associations": {
          "classes": []
        }
      },
      "effects": [],
      "folder": null,
      "sort": 0,
      "permission": {
        "default": 0
      },
      "flags": {}
    },
    {
      "_id": "mJrL6IsR2Rt8gFpa",
      "name": "sbc | Conversion Buff",
      "type": "buff",
      "img": "systems/pf1/icons/skills/yellow_36.jpg",
      "data": {
        "description": {
          "value": "<h2>sbc | Conversion Buff</h2>\n                        This Buff was created by <strong>sbc</strong> to compensate for differences between the input and the values FoundryVTT calculates automatically.\n                        <br><br>\n                        Especially when the pathfinder system gets upgraded, entries in compendiums get updated or foundry changes in some way, this buff may become outdated.\n                        <br><br>\n                        For most mooks the conversion should more or less work, but for important NPCs or creatures it is adviced to double check the conversion manually."
        },
        "tags": [],
        "changes": [
          {
            "formula": "2",
            "modifier": "untypedPerm",
            "operator": "add",
            "priority": 0,
            "subTarget": "cmb",
            "target": "misc",
            "value": 2,
            "id": "dtik7tiu"
          },
          {
            "formula": "2",
            "modifier": "untypedPerm",
            "operator": "add",
            "priority": 0,
            "subTarget": "cmd",
            "target": "misc",
            "value": 2,
            "id": "x0ec5ove"
          },
          {
            "formula": "17",
            "modifier": "untypedPerm",
            "operator": "add",
            "priority": 0,
            "subTarget": "mhp",
            "target": "misc",
            "value": 17,
            "id": "bsvjet8v"
          },
          {
            "formula": "1",
            "modifier": "untypedPerm",
            "operator": "add",
            "priority": 0,
            "subTarget": "ref",
            "target": "savingThrows",
            "value": 1,
            "id": "aanmuddp"
          },
          {
            "formula": "1",
            "modifier": "untypedPerm",
            "operator": "add",
            "priority": 0,
            "subTarget": "will",
            "target": "savingThrows",
            "value": 1,
            "id": "50ebc52j"
          },
          {
            "formula": "1",
            "modifier": "untypedPerm",
            "operator": "add",
            "priority": 0,
            "subTarget": "skill.han",
            "target": "skill",
            "value": 1,
            "id": "xzpvgrgv"
          },
          {
            "formula": "-1",
            "modifier": "untypedPerm",
            "operator": "add",
            "priority": 0,
            "subTarget": "skill.per",
            "target": "skill",
            "value": -1,
            "id": "4nkgj1ut"
          },
          {
            "formula": "-1",
            "modifier": "untypedPerm",
            "operator": "add",
            "priority": 0,
            "subTarget": "skill.sur",
            "target": "skill",
            "value": -1,
            "id": "afd97ge9"
          },
          {
            "formula": "-9",
            "modifier": "untypedPerm",
            "operator": "add",
            "priority": 0,
            "subTarget": "skill.swm",
            "target": "skill",
            "value": -9,
            "id": "g7u2tt52"
          }
        ],
        "contextNotes": [],
        "links": {
          "children": []
        },
        "tag": "sbcConversionBuff",
        "useCustomTag": true,
        "flags": {
          "boolean": [],
          "dictionary": []
        },
        "scriptCalls": [],
        "buffType": "perm",
        "active": true,
        "hideFromToken": true
      },
      "effects": [],
      "folder": null,
      "sort": 0,
      "permission": {
        "default": 0,
        "iM1ACTqH0Ml6HJtd": 3
      },
      "flags": {}
    }
  ],
  "effects": [],
  "folder": null,
  "sort": 0,
  "permission": {
    "default": 0
  },
  "flags": {}
}