{
  "_id": "8tNmzrm2OrWPEbr6",
  "name": "Young Sea Dragon",
  "type": "npc",
  "img": "systems/pf1/icons/races/creature-types/dragon.png",
  "data": {
    "abilities": {
      "str": {
        "value": 21
      },
      "dex": {
        "value": 12
      },
      "con": {
        "value": 17
      },
      "int": {
        "value": 16
      },
      "wis": {
        "value": 17
      },
      "cha": {
        "value": 16
      }
    },
    "attributes": {
      "naturalAC": "+11",
      "cmdNotes": "30 vs. trip",
      "hp": {
        "value": 97
      },
      "speed": {
        "land": {
          "base": 40
        },
        "swim": {
          "base": 60
        },
        "fly": {
          "base": 200,
          "maneuverability": "poor"
        }
      },
      "spells": {
        "usedSpellbooks": [
          "spelllike",
          "primary"
        ],
        "spellbooks": {
          "primary": {
            "altName": "Hd Spells Known",
            "class": "hd",
            "cl": {
              "formula": "1"
            },
            "concentrationFormula": "6",
            "concentrationNotes": "sbc | Total in statblock was +4, adjust as needed.",
            "clNotes": "sbc | Total in statblock was CL 1, adjust as needed.",
            "autoSpellLevelCalculation": false,
            "autoSpellLevels": false,
            "spontaneous": true,
            "domainSlotValue": 0
          },
          "spelllike": {
            "altName": "Spell-like Abilities",
            "concentrationNotes": "sbc | Total in statblock was +12, adjust as needed.",
            "clNotes": "sbc | Total in statblock was CL 9, adjust as needed.",
            "autoSpellLevelCalculation": false,
            "autoSpellLevels": false,
            "arcaneSpellFailure": false,
            "spontaneous": true,
            "domainSlotValue": 0
          }
        }
      }
    },
    "details": {
      "alignment": "cg",
      "cr": {
        "base": 8
      }
    },
    "skills": {
      "dip": {
        "rank": 9
      },
      "fly": {
        "rank": 5
      },
      "int": {
        "rank": 9
      },
      "kar": {
        "rank": 9
      },
      "kna": {
        "rank": 9
      },
      "per": {
        "rank": -1
      },
      "sen": {
        "rank": 11
      },
      "ste": {
        "rank": 9
      },
      "sur": {
        "rank": 9
      },
      "swm": {
        "rank": 17
      }
    },
    "traits": {
      "size": "lg",
      "senses": "dragon senses; Perception +5",
      "languages": {
        "value": [
          "aquan",
          "common",
          "draconic"
        ]
      },
      "di": {
        "value": [
          "electric"
        ]
      },
      "dv": {
        "value": []
      },
      "ci": {
        "value": [
          "paralyze",
          "sleep"
        ]
      },
      "stature": ""
    }
  },
  "token": {
    "name": "Young Sea Dragon",
    "displayName": 20,
    "actorLink": false,
    "width": 2,
    "height": 2,
    "scale": 1,
    "mirrorX": false,
    "mirrorY": false,
    "lockRotation": false,
    "rotation": 0,
    "alpha": 1,
    "vision": false,
    "dimSight": 0,
    "brightSight": 0,
    "dimLight": 0,
    "brightLight": 0,
    "sightAngle": 0,
    "lightAngle": 0,
    "lightAlpha": 0.25,
    "lightAnimation": {
      "speed": 5,
      "intensity": 5
    },
    "disposition": -1,
    "displayBars": 20,
    "bar1": {
      "attribute": null
    },
    "bar2": {
      "attribute": null
    },
    "flags": {},
    "randomImg": false,
    "img": "systems/pf1/icons/races/creature-types/dragon.png"
  },
  "items": [
    {
      "_id": "X2WLdbFFedaah6VC",
      "name": "Dragon (Water)",
      "type": "class",
      "img": "systems/pf1/icons/skills/fire_05.jpg",
      "data": {
        "description": {
          "value": "<p>A dragon is a reptile-like creature, usually winged, with magical or unusual abilities.</p>\n<h2><span id=\"Features\">Features</span></h2>\n<p>A dragon has the following features.</p>\n<ul>\n<li>d12 Hit Die.</li>\n<li>Base attack bonus equal to total Hit Dice (fast progression).</li>\n<li>Good&nbsp;<a href=\"https://www.d20pfsrd.com/gamemastering/combat#TOC-Fortitude\" rel=\"nofollow\">Fortitude</a>,&nbsp;<a href=\"https://www.d20pfsrd.com/gamemastering/combat#TOC-Reflex\" rel=\"nofollow\">Reflex</a>, and&nbsp;<a href=\"https://www.d20pfsrd.com/gamemastering/combat#TOC-Will\" rel=\"nofollow\">Will</a>&nbsp;Saves.</li>\n<li>Skill points equal to 6 + Int modifier (minimum 1) per Hit Die. The following are class skills for dragons: <a href=\"https://www.d20pfsrd.com/skills/appraise\" rel=\"nofollow\">Appraise</a>, <a href=\"https://www.d20pfsrd.com/skills/bluff\" rel=\"nofollow\">Bluff</a>, <a href=\"https://www.d20pfsrd.com/skills/climb\" rel=\"nofollow\">Climb</a>, <a href=\"https://www.d20pfsrd.com/skills/craft\" rel=\"nofollow\">Craft</a>, <a href=\"https://www.d20pfsrd.com/skills/diplomacy\" rel=\"nofollow\">Diplomacy</a>, <a href=\"https://www.d20pfsrd.com/skills/fly\" rel=\"nofollow\">Fly</a>, <a href=\"https://www.d20pfsrd.com/skills/heal\" rel=\"nofollow\">Heal</a>, <a href=\"https://www.d20pfsrd.com/skills/intimidate\" rel=\"nofollow\">Intimidate</a>, <a href=\"https://www.d20pfsrd.com/skills/knowledge\" rel=\"nofollow\">Knowledge</a> (all), <a href=\"https://www.d20pfsrd.com/skills/linguistics\" rel=\"nofollow\">Linguistics</a>, <a href=\"https://www.d20pfsrd.com/skills/perception\" rel=\"nofollow\">Perception</a>, <a href=\"https://www.d20pfsrd.com/skills/sense-motive\" rel=\"nofollow\">Sense Motive</a>, <a href=\"https://www.d20pfsrd.com/skills/spellcraft\" rel=\"nofollow\">Spellcraft</a>, <a href=\"https://www.d20pfsrd.com/skills/stealth\" rel=\"nofollow\">Stealth</a>, <a href=\"https://www.d20pfsrd.com/skills/survival\" rel=\"nofollow\">Survival</a>, <a href=\"https://www.d20pfsrd.com/skills/swim\" rel=\"nofollow\">Swim</a>, and <a href=\"https://www.d20pfsrd.com/skills/use-magic-device\" rel=\"nofollow\">Use Magic Device</a>.</li>\n</ul>\n<h2><span id=\"Traits\">Traits</span></h2>\n<p>A dragon possesses the following traits (unless otherwise noted in a creature’s entry).</p>\n<ul>\n<li><a href=\"https://www.d20pfsrd.com/gamemastering/special-abilities#TOC-Darkvision\">Darkvision</a>&nbsp;60 feet and&nbsp;<a href=\"https://www.d20pfsrd.com/gamemastering/special-abilities#TOC-Low-Light-Vision\">low-light vision</a>.</li>\n<li>Immunity to magic sleep effects and paralysis effects.</li>\n<li>Proficient with its natural weapons only unless humanoid in form (or capable of assuming humanoid form), in which case proficient with all simple weapons and any weapons mentioned in its entry.</li>\n<li>Proficient with no armor.</li>\n<li>Dragons breathe, eat, and sleep.</li>\n</ul>"
        },
        "tags": [],
        "changes": [],
        "links": "",
        "tag": "dragon",
        "useCustomTag": true,
        "armorProf": {
          "value": []
        },
        "weaponProf": {
          "value": []
        },
        "flags": {
          "boolean": [],
          "dictionary": []
        },
        "scriptCalls": [],
        "classType": "racial",
        "level": 9,
        "hd": 12,
        "hp": 70,
        "bab": "high",
        "skillsPerLevel": 6,
        "savingThrows": {
          "fort": {
            "value": "high"
          },
          "ref": {
            "value": "high"
          },
          "will": {
            "value": "high"
          }
        },
        "classSkills": {
          "acr": false,
          "apr": true,
          "art": false,
          "blf": true,
          "clm": true,
          "crf": true,
          "dip": true,
          "dev": false,
          "dis": false,
          "esc": false,
          "fly": true,
          "han": false,
          "hea": true,
          "int": true,
          "kar": true,
          "kdu": true,
          "ken": true,
          "kge": true,
          "khi": true,
          "klo": true,
          "kna": true,
          "kno": true,
          "kpl": true,
          "kre": true,
          "lin": true,
          "lor": false,
          "per": true,
          "prf": false,
          "pro": false,
          "rid": false,
          "sen": true,
          "slt": false,
          "spl": true,
          "ste": true,
          "sur": true,
          "swm": true,
          "umd": true
        }
      },
      "effects": [],
      "folder": null,
      "sort": 0,
      "permission": {
        "default": 0
      },
      "flags": {}
    },
    {
      "_id": "3rr72icdmpxyn35m",
      "name": "Race: Dragon",
      "type": "race",
      "img": "systems/pf1/icons/skills/fire_05.jpg",
      "data": {
        "description": {
          "value": "sbc | As no playable race was found a placeholder was generated."
        },
        "tags": [],
        "changes": [],
        "contextNotes": [],
        "links": {
          "children": []
        },
        "armorProf": {
          "value": []
        },
        "weaponProf": {
          "value": []
        },
        "flags": {
          "boolean": [],
          "dictionary": []
        },
        "scriptCalls": [],
        "creatureType": "dragon",
        "subTypes": [
          [
            "water"
          ]
        ]
      },
      "effects": [],
      "folder": null,
      "sort": 0,
      "permission": {
        "default": 0
      },
      "flags": {}
    },
    {
      "_id": "80g4srb6mq3p8l7t",
      "name": "Sense: Dragon Senses",
      "type": "feat",
      "img": "systems/pf1/icons/races/creature-types/dragon.png",
      "data": {
        "description": {
          "value": "Dragons have darkvision 120 ft. and blindsense 60 ft. They see four times as well as a human in dim light and twice as well in normal light."
        },
        "tags": [],
        "damage": {
          "parts": [],
          "critParts": [],
          "nonCritParts": []
        },
        "attackParts": [],
        "effectNotes": [],
        "attackNotes": [],
        "changes": [],
        "contextNotes": [],
        "links": {
          "children": [],
          "charges": []
        },
        "tag": "senseDragonSenses",
        "armorProf": {
          "value": []
        },
        "weaponProf": {
          "value": []
        },
        "flags": {
          "boolean": [],
          "dictionary": []
        },
        "scriptCalls": [],
        "featType": "racial",
        "associations": {
          "classes": []
        },
        "abilityType": "ex"
      },
      "effects": [],
      "folder": null,
      "sort": 0,
      "permission": {
        "default": 0
      },
      "flags": {}
    },
    {
      "_id": "Q1cY8r0Pvb66pMG0",
      "name": "Alertness",
      "type": "feat",
      "img": "systems/pf1/icons/feats/alertness.jpg",
      "data": {
        "description": {
          "value": "\n                <i>You often notice things that others might miss.</i>\n                <br />\n                <br />\n                \n                <p><b>Benefits</b></p>\n                <p><p class=\"stat-block-1\"> You get a +2 bonus on Perception and Sense Motive skill checks. If you have 10 or more ranks in one of these skills, the bonus increases to +4 for that skill.</p></p>\n                \n            \n            "
        },
        "tags": [
          [
            "General"
          ],
          [
            "Skill"
          ]
        ],
        "measureTemplate": {
          "size": "0"
        },
        "actionType": "",
        "damage": {
          "parts": [],
          "critParts": [],
          "nonCritParts": []
        },
        "attackParts": [],
        "effectNotes": [],
        "attackNotes": [],
        "changes": [
          {
            "_id": "4lwdra12",
            "formula": "@skills.sen.rank>=10?4:2",
            "operator": "add",
            "subTarget": "skill.sen",
            "modifier": "untyped",
            "priority": 0,
            "value": 0,
            "target": "skill"
          },
          {
            "_id": "3f1srila",
            "formula": "@skills.per.rank>=10?4:2",
            "operator": "add",
            "subTarget": "skill.per",
            "modifier": "untyped",
            "priority": 0,
            "value": 0,
            "target": "skill"
          }
        ],
        "contextNotes": [],
        "links": {
          "children": [],
          "charges": []
        },
        "tag": "alertness",
        "armorProf": {
          "value": []
        },
        "weaponProf": {
          "value": []
        },
        "flags": {
          "boolean": [],
          "dictionary": []
        },
        "scriptCalls": [],
        "associations": {
          "classes": []
        }
      },
      "effects": [],
      "folder": null,
      "sort": 0,
      "permission": {
        "default": 0
      },
      "flags": {}
    },
    {
      "_id": "fVRnBIHR4Jq6btvm",
      "name": "Great Fortitude",
      "type": "feat",
      "img": "systems/pf1/icons/feats/great-fortitude.jpg",
      "data": {
        "description": {
          "value": "\n                <i>You are resistant to poisons, diseases, and other maladies.</i>\n                <br />\n                <br />\n                \n                <p><b>Benefits</b></p>\n                <p><p class=\"stat-block-1\"> You get a +2 bonus on all Fortitude saving throws.</p></p>\n                \n            \n            "
        },
        "tags": [
          [
            "General"
          ],
          [
            "Saving Throw"
          ],
          [
            "Defensive"
          ]
        ],
        "measureTemplate": {
          "size": "0"
        },
        "actionType": "",
        "damage": {
          "parts": [],
          "critParts": [],
          "nonCritParts": []
        },
        "attackParts": [],
        "effectNotes": [],
        "attackNotes": [],
        "changes": [
          {
            "_id": "0rubibb4",
            "formula": "2",
            "operator": "add",
            "subTarget": "fort",
            "modifier": "untyped",
            "priority": 0,
            "value": 0,
            "target": "savingThrows"
          }
        ],
        "contextNotes": [],
        "links": {
          "children": [],
          "charges": []
        },
        "tag": "greatFortitude",
        "armorProf": {
          "value": []
        },
        "weaponProf": {
          "value": []
        },
        "flags": {
          "boolean": [],
          "dictionary": []
        },
        "scriptCalls": [],
        "associations": {
          "classes": []
        }
      },
      "effects": [],
      "folder": null,
      "sort": 0,
      "permission": {
        "default": 0
      },
      "flags": {}
    },
    {
      "_id": "Uuiu3p982omhMEPj",
      "name": "Improved Initiative",
      "type": "feat",
      "img": "systems/pf1/icons/feats/improved-initiative.jpg",
      "data": {
        "description": {
          "value": "\n                <i>Your quick reflexes allow you to react rapidly to danger.</i>\n                <br />\n                <br />\n                \n                <p><b>Benefits</b></p>\n                <p><p class=\"stat-block-1\"> You get a +4 bonus on initiative checks.</p></p>\n                \n            \n            "
        },
        "tags": [
          [
            "Combat"
          ]
        ],
        "measureTemplate": {
          "size": "0"
        },
        "actionType": "",
        "damage": {
          "parts": [],
          "critParts": [],
          "nonCritParts": []
        },
        "attackParts": [],
        "effectNotes": [],
        "attackNotes": [],
        "changes": [
          {
            "_id": "ign7okhi",
            "formula": "4",
            "operator": "add",
            "subTarget": "init",
            "modifier": "untyped",
            "priority": 0,
            "value": 0,
            "target": "misc"
          }
        ],
        "contextNotes": [],
        "links": {
          "children": [],
          "charges": []
        },
        "tag": "improvedInitiative",
        "armorProf": {
          "value": []
        },
        "weaponProf": {
          "value": []
        },
        "flags": {
          "boolean": [],
          "dictionary": []
        },
        "scriptCalls": [],
        "associations": {
          "classes": []
        }
      },
      "effects": [],
      "folder": null,
      "sort": 0,
      "permission": {
        "default": 0
      },
      "flags": {}
    },
    {
      "_id": "xq2TFr7bsYBBHOi5",
      "name": "Lunge",
      "type": "feat",
      "img": "systems/pf1/icons/feats/lunge.jpg",
      "data": {
        "description": {
          "value": "\n                <i>You can strike foes that would normally be out of reach.</i>\n                <br />\n                <br />\n                \n                <p><b>Prerequisites</b></p>\n                <p> Base attack bonus +6.</p>\n                \n            <br />\n                <p><b>Benefits</b></p>\n                <p><p class=\"stat-block-1\"> You can increase the reach of your melee attacks by 5 feet until the end of your turn by taking a &ndash;2 penalty to your AC until your next turn. You must decide to use this ability before any attacks are made.</p></p>\n                \n            \n            "
        },
        "tags": [
          [
            "Combat"
          ],
          [
            "Offensive"
          ]
        ],
        "measureTemplate": {
          "size": "0"
        },
        "actionType": "",
        "damage": {
          "parts": [],
          "critParts": [],
          "nonCritParts": []
        },
        "attackParts": [],
        "effectNotes": [],
        "attackNotes": [],
        "changes": [],
        "contextNotes": [],
        "links": {
          "children": [],
          "charges": []
        },
        "tag": "lunge",
        "armorProf": {
          "value": []
        },
        "weaponProf": {
          "value": []
        },
        "flags": {
          "boolean": [],
          "dictionary": []
        },
        "scriptCalls": [],
        "associations": {
          "classes": []
        }
      },
      "effects": [],
      "folder": null,
      "sort": 0,
      "permission": {
        "default": 0
      },
      "flags": {}
    },
    {
      "_id": "km0dypzaxvb4qax5",
      "name": "Multiattack",
      "type": "feat",
      "img": "systems/pf1/icons/skills/yellow_36.jpg",
      "data": {
        "description": {
          "value": "sbc | As Multiattack could not be found in any compendium, a placeholder was generated."
        },
        "tags": [],
        "damage": {
          "parts": [],
          "critParts": [],
          "nonCritParts": []
        },
        "attackParts": [],
        "effectNotes": [],
        "attackNotes": [],
        "changes": [],
        "contextNotes": [],
        "links": {
          "children": [],
          "charges": []
        },
        "armorProf": {
          "value": []
        },
        "weaponProf": {
          "value": []
        },
        "flags": {
          "boolean": [],
          "dictionary": []
        },
        "scriptCalls": [],
        "associations": {
          "classes": []
        }
      },
      "effects": [],
      "folder": null,
      "sort": 0,
      "permission": {
        "default": 0
      },
      "flags": {}
    },
    {
      "_id": "69twttae2gjaccqj",
      "name": "Special Quality: Change Shape",
      "type": "feat",
      "img": "systems/pf1/icons/skills/yellow_36.jpg",
      "data": {
        "description": {
          "value": "sbc | Placeholder for Special Qualities, which in most statblocks are listed under SQ in the statistics block, but described in the Special Abilities. Remove duplicates as needed!"
        },
        "tags": [],
        "damage": {
          "parts": [],
          "critParts": [],
          "nonCritParts": []
        },
        "attackParts": [],
        "effectNotes": [],
        "attackNotes": [],
        "changes": [],
        "contextNotes": [],
        "links": {
          "children": [],
          "charges": []
        },
        "armorProf": {
          "value": []
        },
        "weaponProf": {
          "value": []
        },
        "flags": {
          "boolean": [],
          "dictionary": []
        },
        "scriptCalls": [],
        "featType": "misc",
        "associations": {
          "classes": []
        }
      },
      "effects": [],
      "folder": null,
      "sort": 0,
      "permission": {
        "default": 0
      },
      "flags": {}
    },
    {
      "_id": "00d3es5lj51xmgcd",
      "name": "Special Quality: Water Breathing",
      "type": "feat",
      "img": "systems/pf1/icons/skills/yellow_36.jpg",
      "data": {
        "description": {
          "value": "sbc | Placeholder for Special Qualities, which in most statblocks are listed under SQ in the statistics block, but described in the Special Abilities. Remove duplicates as needed!"
        },
        "tags": [],
        "damage": {
          "parts": [],
          "critParts": [],
          "nonCritParts": []
        },
        "attackParts": [],
        "effectNotes": [],
        "attackNotes": [],
        "changes": [],
        "contextNotes": [],
        "links": {
          "children": [],
          "charges": []
        },
        "armorProf": {
          "value": []
        },
        "weaponProf": {
          "value": []
        },
        "flags": {
          "boolean": [],
          "dictionary": []
        },
        "scriptCalls": [],
        "featType": "misc",
        "associations": {
          "classes": []
        }
      },
      "effects": [],
      "folder": null,
      "sort": 0,
      "permission": {
        "default": 0
      },
      "flags": {}
    },
    {
      "_id": "ukmvvw0s6fo7augi",
      "name": "Bite",
      "type": "attack",
      "img": "systems/pf1/icons/items/inventory/monster-head.jpg",
      "data": {
        "tags": [],
        "activation": {
          "type": "attack"
        },
        "unchainedAction": {
          "activation": {
            "type": "attack"
          }
        },
        "duration": {
          "units": "inst"
        },
        "range": {
          "value": "",
          "units": "melee"
        },
        "attackName": "Bite",
        "actionType": "mwak",
        "attackBonus": "0",
        "damage": {
          "parts": [
            [
              "2d6+2",
              "B, P and S"
            ]
          ],
          "critParts": [],
          "nonCritParts": []
        },
        "attackParts": [],
        "ability": {
          "attack": "str",
          "damage": "str"
        },
        "effectNotes": [],
        "attackNotes": [
          "bite +13 (2d6+7 )"
        ],
        "links": {
          "children": [],
          "charges": [],
          "ammunition": []
        },
        "flags": {
          "boolean": [],
          "dictionary": []
        },
        "scriptCalls": [],
        "attackType": "natural",
        "conditionals": []
      },
      "effects": [],
      "folder": null,
      "sort": 0,
      "permission": {
        "default": 0
      },
      "flags": {}
    },
    {
      "_id": "9pcq73ghix9vs0ae",
      "name": "Claws",
      "type": "attack",
      "img": "systems/pf1/icons/items/inventory/monster-paw-bear.jpg",
      "data": {
        "tags": [],
        "activation": {
          "type": "attack"
        },
        "unchainedAction": {
          "activation": {
            "type": "attack"
          }
        },
        "duration": {
          "units": "inst"
        },
        "range": {
          "value": "",
          "units": "melee"
        },
        "attackName": "Claws",
        "actionType": "mwak",
        "attackBonus": "0",
        "damage": {
          "parts": [
            [
              "1d8+0",
              "B and S"
            ]
          ],
          "critParts": [],
          "nonCritParts": []
        },
        "attackParts": [
          [
            "0",
            "Claws: 1"
          ]
        ],
        "ability": {
          "attack": "str",
          "damage": "str"
        },
        "effectNotes": [],
        "attackNotes": [
          "2 claws +13 (1d8+5 )"
        ],
        "links": {
          "children": [],
          "charges": [],
          "ammunition": []
        },
        "flags": {
          "boolean": [],
          "dictionary": []
        },
        "scriptCalls": [],
        "attackType": "natural",
        "conditionals": []
      },
      "effects": [],
      "folder": null,
      "sort": 0,
      "permission": {
        "default": 0
      },
      "flags": {}
    },
    {
      "_id": "pm8z7wxq3qlt5a90",
      "name": "Gore",
      "type": "attack",
      "img": "systems/pf1/icons/items/inventory/monster-tusk-bloody.jpg",
      "data": {
        "tags": [],
        "activation": {
          "type": "attack"
        },
        "unchainedAction": {
          "activation": {
            "type": "attack"
          }
        },
        "duration": {
          "units": "inst"
        },
        "range": {
          "value": "",
          "units": "melee"
        },
        "attackName": "Gore",
        "actionType": "mwak",
        "attackBonus": "0",
        "damage": {
          "parts": [
            [
              "1d8+2",
              "P"
            ]
          ],
          "critParts": [],
          "nonCritParts": []
        },
        "attackParts": [],
        "ability": {
          "attack": "str",
          "damage": "str"
        },
        "effectNotes": [],
        "attackNotes": [
          "gore +13 (1d8+7 )"
        ],
        "links": {
          "children": [],
          "charges": [],
          "ammunition": []
        },
        "flags": {
          "boolean": [],
          "dictionary": []
        },
        "scriptCalls": [],
        "attackType": "natural",
        "conditionals": []
      },
      "effects": [],
      "folder": null,
      "sort": 0,
      "permission": {
        "default": 0
      },
      "flags": {}
    },
    {
      "_id": "lt4y8g9a2ydoq58j",
      "name": "Tail Slap",
      "type": "attack",
      "img": "systems/pf1/icons/items/inventory/monster-tail.jpg",
      "data": {
        "tags": [],
        "activation": {
          "type": "attack"
        },
        "unchainedAction": {
          "activation": {
            "type": "attack"
          }
        },
        "duration": {
          "units": "inst"
        },
        "range": {
          "value": "",
          "units": "melee"
        },
        "attackName": "Tail Slap",
        "actionType": "mwak",
        "attackBonus": "3",
        "damage": {
          "parts": [
            [
              "1d8+7",
              ""
            ]
          ],
          "critParts": [],
          "nonCritParts": []
        },
        "attackParts": [],
        "ability": {
          "attack": "str",
          "damage": "str"
        },
        "effectNotes": [],
        "attackNotes": [
          "tail slap +11 (1d8+7 )"
        ],
        "links": {
          "children": [],
          "charges": [],
          "ammunition": []
        },
        "flags": {
          "boolean": [],
          "dictionary": []
        },
        "scriptCalls": [],
        "attackType": "natural",
        "primaryAttack": false,
        "conditionals": []
      },
      "effects": [],
      "folder": null,
      "sort": 0,
      "permission": {
        "default": 0
      },
      "flags": {}
    },
    {
      "_id": "qhefpx5xi3k0waa1",
      "name": "Special Attack: Torrent Breath",
      "type": "attack",
      "img": "systems/pf1/icons/skills/yellow_36.jpg",
      "data": {
        "description": {
          "value": "sbc | Placeholder for Special Attacks, which in most statblocks are listed under 'Special Attacks' in the statistics block, but are described in the 'Special Abilities' block. Remove duplicates as needed!"
        },
        "tags": [],
        "damage": {
          "parts": [],
          "critParts": [],
          "nonCritParts": []
        },
        "attackParts": [],
        "effectNotes": [],
        "attackNotes": [],
        "links": {
          "children": [],
          "charges": [],
          "ammunition": []
        },
        "flags": {
          "boolean": [],
          "dictionary": []
        },
        "scriptCalls": [],
        "attackType": "misc",
        "conditionals": []
      },
      "effects": [],
      "folder": null,
      "sort": 0,
      "permission": {
        "default": 0
      },
      "flags": {}
    },
    {
      "_id": "qsc3pgiwdh930j3e",
      "name": "Special Attack: Breath Weapon (40-ft. Cone, 6d6 Fire Damage, Dc 17)",
      "type": "attack",
      "img": "systems/pf1/icons/skills/yellow_36.jpg",
      "data": {
        "description": {
          "value": "sbc | Placeholder for Special Attacks, which in most statblocks are listed under 'Special Attacks' in the statistics block, but are described in the 'Special Abilities' block. Remove duplicates as needed!"
        },
        "tags": [],
        "damage": {
          "parts": [],
          "critParts": [],
          "nonCritParts": []
        },
        "attackParts": [],
        "effectNotes": [],
        "attackNotes": [],
        "links": {
          "children": [],
          "charges": [],
          "ammunition": []
        },
        "flags": {
          "boolean": [],
          "dictionary": []
        },
        "scriptCalls": [],
        "attackType": "misc",
        "conditionals": []
      },
      "effects": [],
      "folder": null,
      "sort": 0,
      "permission": {
        "default": 0
      },
      "flags": {}
    },
    {
      "_id": "snj78r5rw96btfjn",
      "name": "Create Water",
      "type": "spell",
      "img": "systems/pf1/icons/misc/magic-swirl.png",
      "data": {
        "description": {
          "value": "<div class=\"spell-description\">\n  <p>\n    <strong>School</strong>&nbsp;conjuration&nbsp;(creation)&nbsp;[water];\n    <strong>Level</strong>&nbsp;adept 0, cleric/oracle 0, druid 0, hunter 0, inquisitor 0, occultist 0, paladin 1, shaman 0;\n    \n    \n    \n    \n  </p>\n  <p>\n    <strong>Casting Time</strong>&nbsp;1 standard action<br>\n    <strong>Components</strong>&nbsp;V, S<br>\n  </p>\n  <p>\n    <strong>Range</strong>&nbsp;close (25 ft. + 5 ft./2 levels)<br>\n    \n    \n    <strong>Effect</strong>&nbsp;up to 2 gallons of water/level<br>\n    <strong>Duration</strong>&nbsp;instantaneous<br>\n    <strong>Saving Throw</strong>&nbsp;none;&nbsp;<strong>Spell Resistance</strong>&nbsp;no<br>\n  </p>\n  <h2>Description</h2>\n  <p>This spell generates wholesome, drinkable water, just like clean rain water. Water can be created in an area as small as will actually contain the liquid, or in an area three times as large--possibly creating a downpour or filling many small receptacles. This water disappears after 1 day if not consumed.</p><p>Note: Conjuration spells can't create substances or objects within a creature. Water weighs about 8 pounds per gallon. One cubic foot of water contains roughly 8 gallons and weighs about 60 pounds.</p>\n</div>\n"
        },
        "tags": [],
        "activation": {
          "type": "standard"
        },
        "unchainedAction": {
          "activation": {
            "cost": 2,
            "type": "action"
          }
        },
        "range": {
          "units": "close"
        },
        "uses": {
          "value": 3,
          "per": ""
        },
        "measureTemplate": {
          "size": "0"
        },
        "actionType": "other",
        "damage": {
          "parts": [],
          "critParts": [],
          "nonCritParts": []
        },
        "attackParts": [],
        "ability": {
          "attack": "",
          "damage": ""
        },
        "save": {
          "dc": "0"
        },
        "effectNotes": [],
        "attackNotes": [],
        "links": {
          "children": []
        },
        "flags": {
          "boolean": [],
          "dictionary": []
        },
        "scriptCalls": [],
        "learnedAt": {
          "class": [
            [
              "cleric/oracle",
              0
            ],
            [
              "druid",
              0
            ],
            [
              "paladin",
              1
            ],
            [
              "inquisitor",
              0
            ],
            [
              "adept",
              0
            ],
            [
              "shaman",
              0
            ],
            [
              "occultist",
              0
            ],
            [
              "hunter",
              0
            ]
          ],
          "domain": [],
          "subDomain": [],
          "elementalSchool": [],
          "bloodline": []
        },
        "level": 0,
        "school": "con",
        "subschool": "creation",
        "types": "water",
        "conditionals": [],
        "components": {
          "verbal": true,
          "somatic": true
        },
        "spellbook": "spelllike",
        "preparation": {
          "preparedAmount": 3,
          "maxAmount": 3,
          "autoDeductCharges": false
        },
        "atWill": true,
        "sr": false,
        "shortDescription": "<p>This spell generates wholesome, drinkable water, just like clean rain water. Water can be created in an area as small as will actually contain the liquid, or in an area three times as large--possibly creating a downpour or filling many small receptacles. This water disappears after 1 day if not consumed.</p><p>Note: Conjuration spells can't create substances or objects within a creature. Water weighs about 8 pounds per gallon. One cubic foot of water contains roughly 8 gallons and weighs about 60 pounds.</p>",
        "spellDuration": "instantaneous",
        "spellEffect": "up to 2 gallons of water/level"
      },
      "effects": [],
      "folder": null,
      "sort": 0,
      "permission": {
        "default": 0
      },
      "flags": {}
    },
    {
      "_id": "qcjskol4ac3eemhy",
      "name": "Color Spray",
      "type": "spell",
      "img": "systems/pf1/icons/misc/magic-swirl.png",
      "data": {
        "description": {
          "value": "<div class=\"spell-description\">\n  <p>\n    <strong>School</strong>&nbsp;illusion&nbsp;(pattern)&nbsp;[mind-affecting];\n    <strong>Level</strong>&nbsp;bloodrager 1, magus 1, mesmerist 1, psychic 1, sorcerer/wizard 1;\n    \n    \n    \n    \n  </p>\n  <p>\n    <strong>Casting Time</strong>&nbsp;1 standard action<br>\n    <strong>Components</strong>&nbsp;V, S, M (red, yellow, and blue powder or colored sand)<br>\n  </p>\n  <p>\n    <strong>Range</strong>&nbsp;15 feet<br>\n    <strong>Area</strong>&nbsp;cone-shaped burst<br>\n    \n    \n    <strong>Duration</strong>&nbsp;instantaneous; see text<br>\n    <strong>Saving Throw</strong>&nbsp;Will negates;&nbsp;<strong>Spell Resistance</strong>&nbsp;yes<br>\n  </p>\n  <h2>Description</h2>\n  <p>A vivid cone of clashing colors springs forth from your hand, causing creatures to become stunned, perhaps also blinded, and possibly knocking them unconscious. Each creature within the cone is affected according to its HD.</p><p>2 HD or less: The creature is unconscious, blinded, and stunned for 2d4 rounds, then blinded and stunned for 1d4 rounds, and then stunned for 1 round. (Only living creatures are knocked unconscious.) 3 or 4 HD: The creature is blinded and stunned for 1d4 rounds, then stunned for 1 round.</p><p>5 or more HD: The creature is stunned for 1 round.</p><p>Sightless creatures are not affected by <i>color spray</i>.</p>\n</div>\n"
        },
        "tags": [],
        "activation": {
          "type": "standard"
        },
        "unchainedAction": {
          "activation": {
            "cost": 2,
            "type": "action"
          }
        },
        "range": {
          "value": "15",
          "units": "ft"
        },
        "uses": {
          "value": 1,
          "per": "day"
        },
        "measureTemplate": {
          "type": "cone",
          "size": "15"
        },
        "actionType": "spellsave",
        "damage": {
          "parts": [],
          "critParts": [],
          "nonCritParts": []
        },
        "attackParts": [],
        "ability": {
          "attack": "",
          "damage": ""
        },
        "save": {
          "dc": "0",
          "type": "will",
          "description": "Will negates"
        },
        "effectNotes": [],
        "attackNotes": [],
        "links": {
          "children": []
        },
        "flags": {
          "boolean": [],
          "dictionary": []
        },
        "scriptCalls": [],
        "learnedAt": {
          "class": [
            [
              "sorcerer/wizard",
              1
            ],
            [
              "magus",
              1
            ],
            [
              "bloodrager",
              1
            ],
            [
              "psychic",
              1
            ],
            [
              "mesmerist",
              1
            ]
          ],
          "domain": [],
          "subDomain": [],
          "elementalSchool": [],
          "bloodline": []
        },
        "school": "ill",
        "subschool": "pattern",
        "types": "mind-affecting",
        "conditionals": [],
        "components": {
          "verbal": true,
          "somatic": true,
          "material": true
        },
        "materials": {
          "value": "red, yellow, and blue powder or colored sand"
        },
        "preparation": {
          "preparedAmount": 1,
          "maxAmount": 1
        },
        "atWill": true,
        "shortDescription": "<p>A vivid cone of clashing colors springs forth from your hand, causing creatures to become stunned, perhaps also blinded, and possibly knocking them unconscious. Each creature within the cone is affected according to its HD.</p><p>2 HD or less: The creature is unconscious, blinded, and stunned for 2d4 rounds, then blinded and stunned for 1d4 rounds, and then stunned for 1 round. (Only living creatures are knocked unconscious.) 3 or 4 HD: The creature is blinded and stunned for 1d4 rounds, then stunned for 1 round.</p><p>5 or more HD: The creature is stunned for 1 round.</p><p>Sightless creatures are not affected by <i>color spray</i>.</p>",
        "spellDuration": "instantaneous; see text",
        "spellArea": "cone-shaped burst"
      },
      "effects": [],
      "folder": null,
      "sort": 0,
      "permission": {
        "default": 0
      },
      "flags": {}
    },
    {
      "_id": "3plb67e51webutdz",
      "name": "Sleep",
      "type": "spell",
      "img": "systems/pf1/icons/misc/magic-swirl.png",
      "data": {
        "description": {
          "value": "<div class=\"spell-description\">\n  <p>\n    <strong>School</strong>&nbsp;enchantment&nbsp;(compulsion)&nbsp;[mind-affecting];\n    <strong>Level</strong>&nbsp;adept 1, bard 1, mesmerist 1, occultist 1, psychic 1, shaman 1, sorcerer/wizard 1, witch 1;\n    \n    <strong>Subdomain</strong>&nbsp;Night 1;\n    \n    <strong>Bloodline</strong>&nbsp;Dreamspun 1;\n  </p>\n  <p>\n    <strong>Casting Time</strong>&nbsp;1 round<br>\n    <strong>Components</strong>&nbsp;V, S, M (fine sand, rose petals, or a live cricket)<br>\n  </p>\n  <p>\n    <strong>Range</strong>&nbsp;medium (100 ft. + 10 ft./level)<br>\n    <strong>Area</strong>&nbsp;one or more living creatures within a 10-ft.-radius burst<br>\n    \n    \n    <strong>Duration</strong>&nbsp;1 min./level<br>\n    <strong>Saving Throw</strong>&nbsp;Will negates;&nbsp;<strong>Spell Resistance</strong>&nbsp;yes<br>\n  </p>\n  <h2>Description</h2>\n  <p>A <i>sleep</i> spell causes a magical slumber to come upon 4 HD of creatures. Creatures with the fewest HD are affected first. Among creatures with equal HD, those who are closest to the spell's point of origin are affected first. HD that are not sufficient to affect a creature are wasted. <i>Sleep</i>ing creatures are helpless. Slapping or wounding awakens an affected creature, but normal noise does not. Awakening a creature is a standard action (an application of the aid another action). <i>Sleep</i> does not target unconscious creatures, constructs, or undead creatures.</p>\n</div>\n"
        },
        "tags": [],
        "activation": {
          "type": "round"
        },
        "unchainedAction": {
          "activation": {
            "cost": 3,
            "type": "action"
          }
        },
        "range": {
          "units": "medium"
        },
        "uses": {
          "value": 1,
          "per": "day"
        },
        "measureTemplate": {
          "type": "circle",
          "size": "10"
        },
        "actionType": "spellsave",
        "damage": {
          "parts": [],
          "critParts": [],
          "nonCritParts": []
        },
        "attackParts": [],
        "ability": {
          "attack": "",
          "damage": ""
        },
        "save": {
          "dc": "0",
          "type": "will",
          "description": "Will negates"
        },
        "effectNotes": [],
        "attackNotes": [],
        "links": {
          "children": []
        },
        "flags": {
          "boolean": [],
          "dictionary": []
        },
        "scriptCalls": [],
        "learnedAt": {
          "class": [
            [
              "sorcerer/wizard",
              1
            ],
            [
              "bard",
              1
            ],
            [
              "witch",
              1
            ],
            [
              "adept",
              1
            ],
            [
              "shaman",
              1
            ],
            [
              "psychic",
              1
            ],
            [
              "mesmerist",
              1
            ],
            [
              "occultist",
              1
            ]
          ],
          "domain": [],
          "subDomain": [
            [
              "Night",
              1
            ]
          ],
          "elementalSchool": [],
          "bloodline": [
            [
              "Dreamspun",
              1
            ]
          ]
        },
        "school": "enc",
        "subschool": "compulsion",
        "types": "mind-affecting",
        "conditionals": [],
        "components": {
          "verbal": true,
          "somatic": true,
          "material": true
        },
        "materials": {
          "value": "fine sand, rose petals, or a live cricket"
        },
        "preparation": {
          "preparedAmount": 1,
          "maxAmount": 1
        },
        "atWill": true,
        "shortDescription": "<p>A <i>sleep</i> spell causes a magical slumber to come upon 4 HD of creatures. Creatures with the fewest HD are affected first. Among creatures with equal HD, those who are closest to the spell's point of origin are affected first. HD that are not sufficient to affect a creature are wasted. <i>Sleep</i>ing creatures are helpless. Slapping or wounding awakens an affected creature, but normal noise does not. Awakening a creature is a standard action (an application of the aid another action). <i>Sleep</i> does not target unconscious creatures, constructs, or undead creatures.</p>",
        "spellDuration": "1 min./level",
        "spellArea": "one or more living creatures within a 10-ft.-radius burst"
      },
      "effects": [],
      "folder": null,
      "sort": 0,
      "permission": {
        "default": 0
      },
      "flags": {}
    },
    {
      "_id": "eu2xv8klucttzqmd",
      "name": "Acid Splash",
      "type": "spell",
      "img": "systems/pf1/icons/misc/magic-swirl.png",
      "data": {
        "description": {
          "value": "<div class=\"spell-description\">\n  <p>\n    <strong>School</strong>&nbsp;conjuration&nbsp;(creation)&nbsp;[acid];\n    <strong>Level</strong>&nbsp;inquisitor 0, magus 0, sorcerer/wizard 0, summoner 0, unchained Summoner 0;\n    \n    \n    \n    \n  </p>\n  <p>\n    <strong>Casting Time</strong>&nbsp;1 standard action<br>\n    <strong>Components</strong>&nbsp;V, S<br>\n  </p>\n  <p>\n    <strong>Range</strong>&nbsp;close (25 ft. + 5 ft./2 levels)<br>\n    \n    \n    <strong>Effect</strong>&nbsp;one missile of acid<br>\n    <strong>Duration</strong>&nbsp;instantaneous<br>\n      <strong>Saving Throw</strong>&nbsp;none;&nbsp;\n      <strong>Spell Resistance</strong>&nbsp;no<br>\n  </p>\n  <h2>Description</h2>\n  <p>You fire a small orb of acid at the target. You must succeed on a ranged touch attack to hit your target. The orb deals 1d3 points of acid damage. This acid disappears after 1 round.</p>\n</div>\n"
        },
        "tags": [],
        "activation": {
          "type": "standard"
        },
        "unchainedAction": {
          "activation": {
            "cost": 2,
            "type": "action"
          }
        },
        "range": {
          "units": "close"
        },
        "uses": {
          "per": ""
        },
        "measureTemplate": {
          "size": "0"
        },
        "actionType": "rsak",
        "damage": {
          "parts": [
            [
              "1d3",
              "Acid"
            ]
          ],
          "critParts": [],
          "nonCritParts": []
        },
        "attackParts": [],
        "ability": {
          "attack": "dex",
          "damage": ""
        },
        "save": {
          "dc": "0"
        },
        "effectNotes": [],
        "attackNotes": [],
        "links": {
          "children": []
        },
        "flags": {
          "boolean": [],
          "dictionary": []
        },
        "scriptCalls": [],
        "learnedAt": {
          "class": [
            [
              "sorcerer/wizard",
              0
            ],
            [
              "summoner",
              0
            ],
            [
              "inquisitor",
              0
            ],
            [
              "magus",
              0
            ],
            [
              "unchained Summoner",
              0
            ]
          ],
          "domain": [],
          "subDomain": [],
          "elementalSchool": [],
          "bloodline": []
        },
        "level": 0,
        "school": "con",
        "subschool": "creation",
        "types": "acid",
        "conditionals": [],
        "components": {
          "verbal": true,
          "somatic": true
        },
        "preparation": {
          "preparedAmount": 1,
          "maxAmount": 1,
          "autoDeductCharges": false
        },
        "atWill": true,
        "sr": false,
        "shortDescription": "<p>You fire a small orb of acid at the target. You must succeed on a ranged touch attack to hit your target. The orb deals 1d3 points of acid damage. This acid disappears after 1 round.</p>",
        "spellDuration": "instantaneous",
        "spellEffect": "one missile of acid"
      },
      "effects": [],
      "folder": null,
      "sort": 0,
      "permission": {
        "default": 0
      },
      "flags": {}
    },
    {
      "_id": "p8lm7khq3ynyif21",
      "name": "Constant: Mage Hand",
      "type": "spell",
      "img": "systems/pf1/icons/misc/magic-swirl.png",
      "data": {
        "description": {
          "value": "<div class=\"spell-description\">\n  <p>\n    <strong>School</strong>&nbsp;transmutation;\n    <strong>Level</strong>&nbsp;bard 0, magus 0, medium 0, mesmerist 0, occultist 0, psychic 0, sorcerer/wizard 0, spiritualist 0, summoner 0, unchained Summoner 0;\n    \n    \n    \n    \n  </p>\n  <p>\n    <strong>Casting Time</strong>&nbsp;1 standard action<br>\n    <strong>Components</strong>&nbsp;V, S<br>\n  </p>\n  <p>\n    <strong>Range</strong>&nbsp;close (25 ft. + 5 ft./2 levels)<br>\n    \n    <strong>Targets</strong>&nbsp;one nonmagical, unattended object weighing up to 5 lbs.<br>\n    \n    <strong>Duration</strong>&nbsp;concentration<br>\n    <strong>Saving Throw</strong>&nbsp;none;&nbsp;<strong>Spell Resistance</strong>&nbsp;no<br>\n  </p>\n  <h2>Description</h2>\n  <p>You point your finger at an object and can lift it and move it at will from a distance. As a move action, you can propel the object as far as 15 feet in any direction, though the spell ends if the distance between you and the object ever exceeds the spell's range.</p>\n</div>\n"
        },
        "tags": [],
        "activation": {
          "type": "standard"
        },
        "unchainedAction": {
          "activation": {
            "cost": 2,
            "type": "action"
          }
        },
        "target": {
          "value": "one nonmagical, unattended object weighing up to 5 lbs."
        },
        "range": {
          "units": "close"
        },
        "uses": {
          "value": 3,
          "per": "day"
        },
        "measureTemplate": {
          "size": "0"
        },
        "actionType": "",
        "damage": {
          "parts": [],
          "critParts": [],
          "nonCritParts": []
        },
        "attackParts": [],
        "ability": {
          "attack": "",
          "damage": ""
        },
        "save": {
          "dc": "0"
        },
        "effectNotes": [],
        "attackNotes": [],
        "links": {
          "children": []
        },
        "flags": {
          "boolean": [],
          "dictionary": []
        },
        "scriptCalls": [],
        "learnedAt": {
          "class": [
            [
              "sorcerer/wizard",
              0
            ],
            [
              "bard",
              0
            ],
            [
              "summoner",
              0
            ],
            [
              "magus",
              0
            ],
            [
              "psychic",
              0
            ],
            [
              "medium",
              0
            ],
            [
              "mesmerist",
              0
            ],
            [
              "occultist",
              0
            ],
            [
              "spiritualist",
              0
            ],
            [
              "unchained Summoner",
              0
            ]
          ],
          "domain": [],
          "subDomain": [],
          "elementalSchool": [],
          "bloodline": []
        },
        "level": 0,
        "school": "trs",
        "conditionals": [],
        "components": {
          "verbal": true,
          "somatic": true
        },
        "preparation": {
          "preparedAmount": 1,
          "maxAmount": 1,
          "autoDeductCharges": false
        },
        "atWill": true,
        "sr": false,
        "shortDescription": "<p>You point your finger at an object and can lift it and move it at will from a distance. As a move action, you can propel the object as far as 15 feet in any direction, though the spell ends if the distance between you and the object ever exceeds the spell's range.</p>",
        "spellDuration": "concentration"
      },
      "effects": [],
      "folder": null,
      "sort": 0,
      "permission": {
        "default": 0
      },
      "flags": {}
    },
    {
      "_id": "n879x6fw79jiofew",
      "name": "Ray of Frost",
      "type": "spell",
      "img": "systems/pf1/icons/misc/magic-swirl.png",
      "data": {
        "description": {
          "value": "<div class=\"spell-description\">\n  <p>\n    <strong>School</strong>&nbsp;evocation&nbsp;[cold];\n    <strong>Level</strong>&nbsp;magus 0, sorcerer/wizard 0;\n    \n    \n    \n    \n  </p>\n  <p>\n    <strong>Casting Time</strong>&nbsp;1 standard action<br>\n    <strong>Components</strong>&nbsp;V, S<br>\n  </p>\n  <p>\n    <strong>Range</strong>&nbsp;close (25 ft. + 5 ft./2 levels)<br>\n    \n    \n    <strong>Effect</strong>&nbsp;ray<br>\n    <strong>Duration</strong>&nbsp;instantaneous<br>\n    <strong>Saving Throw</strong>&nbsp;none;&nbsp;<strong>Spell Resistance</strong>&nbsp;yes<br>\n  </p>\n  <h2>Description</h2>\n  <p>A ray of freezing air and ice projects from your pointing finger.</p><p>You must succeed on a ranged touch attack with the ray to deal damage to a target. The ray deals 1d3 points of cold damage.</p>\n</div>\n"
        },
        "tags": [],
        "activation": {
          "type": "standard"
        },
        "unchainedAction": {
          "activation": {
            "cost": 2,
            "type": "action"
          }
        },
        "range": {
          "units": "close"
        },
        "uses": {
          "per": ""
        },
        "measureTemplate": {
          "size": "0"
        },
        "actionType": "rsak",
        "damage": {
          "parts": [
            [
              "1d3",
              "Cold"
            ]
          ],
          "critParts": [],
          "nonCritParts": []
        },
        "attackParts": [],
        "ability": {
          "attack": "dex",
          "damage": ""
        },
        "save": {
          "dc": "0"
        },
        "effectNotes": [],
        "attackNotes": [],
        "links": {
          "children": []
        },
        "flags": {
          "boolean": [],
          "dictionary": []
        },
        "scriptCalls": [],
        "learnedAt": {
          "class": [
            [
              "sorcerer/wizard",
              0
            ],
            [
              "magus",
              0
            ]
          ],
          "domain": [],
          "subDomain": [],
          "elementalSchool": [],
          "bloodline": []
        },
        "level": 0,
        "school": "evo",
        "types": "cold",
        "conditionals": [],
        "components": {
          "verbal": true,
          "somatic": true
        },
        "preparation": {
          "preparedAmount": 1,
          "maxAmount": 1,
          "autoDeductCharges": false
        },
        "atWill": true,
        "shortDescription": "<p>A ray of freezing air and ice projects from your pointing finger.</p><p>You must succeed on a ranged touch attack with the ray to deal damage to a target. The ray deals 1d3 points of cold damage.</p>",
        "spellDuration": "instantaneous",
        "spellEffect": "ray"
      },
      "effects": [],
      "folder": null,
      "sort": 0,
      "permission": {
        "default": 0
      },
      "flags": {}
    },
    {
      "_id": "g8j278xcu2s1zlwy",
      "name": "Resistance",
      "type": "spell",
      "img": "systems/pf1/icons/misc/magic-swirl.png",
      "data": {
        "description": {
          "value": "<div class=\"spell-description\">\n  <p>\n    <strong>School</strong>&nbsp;abjuration;\n    <strong>Level</strong>&nbsp;bard 0, cleric/oracle 0, druid 0, hunter 0, inquisitor 0, medium 0, occultist 0, paladin 1, psychic 0, shaman 0, sorcerer/wizard 0, spiritualist 0, summoner 0, unchained Summoner 0, witch 0;\n    \n    \n    \n    \n  </p>\n  <p>\n    <strong>Casting Time</strong>&nbsp;1 standard action<br>\n    <strong>Components</strong>&nbsp;V, S, M/DF (a miniature cloak)<br>\n  </p>\n  <p>\n    <strong>Range</strong>&nbsp;touch<br>\n    \n    <strong>Targets</strong>&nbsp;creature touched<br>\n    \n    <strong>Duration</strong>&nbsp;1 minute<br>\n    <strong>Saving Throw</strong>&nbsp;Will negates (harmless);&nbsp;<strong>Spell Resistance</strong>&nbsp;yes<br>\n  </p>\n  <h2>Description</h2>\n  <p>You imbue the subject with magical energy that protects it from harm, granting it a +1 resistance bonus on saves.</p><p><i>Resistance</i> can be made permanent with a <i>permanency</i> spell.</p>\n</div>\n"
        },
        "tags": [],
        "activation": {
          "type": "standard"
        },
        "unchainedAction": {
          "activation": {
            "cost": 2,
            "type": "action"
          }
        },
        "target": {
          "value": "creature touched"
        },
        "range": {
          "units": "touch"
        },
        "uses": {
          "per": ""
        },
        "measureTemplate": {
          "size": "0"
        },
        "actionType": "spellsave",
        "damage": {
          "parts": [],
          "critParts": [],
          "nonCritParts": []
        },
        "attackParts": [],
        "ability": {
          "attack": "",
          "damage": ""
        },
        "save": {
          "dc": "0",
          "type": "will",
          "description": "Will negates (harmless)"
        },
        "effectNotes": [],
        "attackNotes": [],
        "links": {
          "children": []
        },
        "flags": {
          "boolean": [],
          "dictionary": []
        },
        "scriptCalls": [],
        "learnedAt": {
          "class": [
            [
              "sorcerer/wizard",
              0
            ],
            [
              "cleric/oracle",
              0
            ],
            [
              "druid",
              0
            ],
            [
              "bard",
              0
            ],
            [
              "paladin",
              1
            ],
            [
              "summoner",
              0
            ],
            [
              "witch",
              0
            ],
            [
              "inquisitor",
              0
            ],
            [
              "shaman",
              0
            ],
            [
              "psychic",
              0
            ],
            [
              "medium",
              0
            ],
            [
              "occultist",
              0
            ],
            [
              "spiritualist",
              0
            ],
            [
              "hunter",
              0
            ],
            [
              "unchained Summoner",
              0
            ]
          ],
          "domain": [],
          "subDomain": [],
          "elementalSchool": [],
          "bloodline": []
        },
        "level": 0,
        "school": "abj",
        "conditionals": [],
        "components": {
          "verbal": true,
          "somatic": true,
          "material": true,
          "divineFocus": 2
        },
        "materials": {
          "value": "a miniature cloak"
        },
        "preparation": {
          "autoDeductCharges": false
        },
        "atWill": true,
        "shortDescription": "<p>You imbue the subject with magical energy that protects it from harm, granting it a +1 resistance bonus on saves.</p><p><i>Resistance</i> can be made permanent with a <i>permanency</i> spell.</p>",
        "spellDuration": "1 minute"
      },
      "effects": [],
      "folder": null,
      "sort": 0,
      "permission": {
        "default": 0
      },
      "flags": {}
    },
    {
      "_id": "lknmca7rgpl0j5hy",
      "name": "Ecology",
      "type": "feat",
      "img": "icons/environment/wilderness/tree-oak.webp",
      "data": {
        "description": {
          "value": "<div><strong>Environment</strong>:  any water</div><div><strong>Organization</strong>:  solitary</div><div><strong>Treasure</strong>:  triple</div>"
        },
        "tags": [],
        "damage": {
          "parts": [],
          "critParts": [],
          "nonCritParts": []
        },
        "attackParts": [],
        "effectNotes": [],
        "attackNotes": [],
        "changes": [],
        "contextNotes": [],
        "links": {
          "children": [],
          "charges": []
        },
        "armorProf": {
          "value": []
        },
        "weaponProf": {
          "value": []
        },
        "flags": {
          "boolean": [],
          "dictionary": []
        },
        "scriptCalls": [],
        "featType": "misc",
        "associations": {
          "classes": []
        }
      },
      "effects": [],
      "folder": null,
      "sort": 0,
      "permission": {
        "default": 0
      },
      "flags": {}
    },
    {
      "_id": "Jcsiec3KA2E1TLXN",
      "name": "sbc | Conversion Buff",
      "type": "buff",
      "img": "systems/pf1/icons/skills/yellow_36.jpg",
      "data": {
        "description": {
          "value": "<h2>sbc | Conversion Buff</h2>\n                        This Buff was created by <strong>sbc</strong> to compensate for differences between the input and the values FoundryVTT calculates automatically.\n                        <br><br>\n                        Especially when the pathfinder system gets upgraded, entries in compendiums get updated or foundry changes in some way, this buff may become outdated.\n                        <br><br>\n                        For most mooks the conversion should more or less work, but for important NPCs or creatures it is adviced to double check the conversion manually."
        },
        "tags": [],
        "changes": [
          {
            "formula": "-12",
            "modifier": "untypedPerm",
            "operator": "add",
            "priority": 0,
            "subTarget": "mhp",
            "target": "misc",
            "value": -12,
            "id": "hcp5ao2b"
          },
          {
            "formula": "4",
            "modifier": "untypedPerm",
            "operator": "add",
            "priority": 0,
            "subTarget": "skill.fly",
            "target": "skill",
            "value": 4,
            "id": "h8y2h1yj"
          },
          {
            "formula": "1",
            "modifier": "untypedPerm",
            "operator": "add",
            "priority": 0,
            "subTarget": "skill.per",
            "target": "skill",
            "value": 1,
            "id": "n6hx4yyk"
          },
          {
            "formula": "-4",
            "modifier": "untypedPerm",
            "operator": "add",
            "priority": 0,
            "subTarget": "skill.sen",
            "target": "skill",
            "value": -4,
            "id": "kykffjfp"
          },
          {
            "formula": "-8",
            "modifier": "untypedPerm",
            "operator": "add",
            "priority": 0,
            "subTarget": "skill.swm",
            "target": "skill",
            "value": -8,
            "id": "38vn2pwh"
          }
        ],
        "contextNotes": [],
        "links": {
          "children": []
        },
        "tag": "sbcConversionBuff",
        "useCustomTag": true,
        "flags": {
          "boolean": [],
          "dictionary": []
        },
        "scriptCalls": [],
        "buffType": "perm",
        "active": true,
        "hideFromToken": true
      },
      "effects": [],
      "folder": null,
      "sort": 0,
      "permission": {
        "default": 0,
        "iM1ACTqH0Ml6HJtd": 3
      },
      "flags": {}
    }
  ],
  "effects": [],
  "folder": null,
  "sort": 0,
  "permission": {
    "default": 0
  },
  "flags": {}
}