{
  "_id": "s9VdOtCX4iL69eBH",
  "name": "Blunt Arrows (20)",
  "type": "loot",
  "img": "systems/pf1/icons/items/weapons/arrow-special.PNG",
  "data": {
    "description": {
      "value": "<p><strong>Source</strong> <em>Ultimate Equipment pg. 22</em>, <em>Advanced Player's Guide pg. 176</em></p>\n<h3 class=\"framing\"><img style=\"margin: 3px 3px 0px 3px;\" title=\"PFS Legal\" src=\"https://www.aonprd.com/images/PathfinderSocietySymbol.gif\" />Statistics</h3>\n<p><strong>Cost</strong> 2 gp <strong>Weight</strong> 3 lbs.</p>\n<p><strong>Category</strong> Ammunition; <strong>Proficiency</strong> Ammunition</p>\n<h3 class=\"framing\">Description</h3>\n<p>These arrows have rounded wooden tips that deal bludgeoning damage rather than piercing.</p>\n<p>An archer can use a blunt arrow to deal nonlethal damage (at the normal -4 attack penalty for using a lethal weapon to deal nonlethal damage).</p>"
    },
    "tags": [],
    "quantity": 20,
    "weight": 30,
    "price": 2,
    "hp": {
      "max": 1,
      "value": 1
    },
    "hardness": 5,
    "identifiedName": "Blunt Arrows (20)",
    "changes": [],
    "contextNotes": [],
    "links": {
      "children": []
    },
    "tag": "bluntArrows20",
    "flags": {
      "boolean": [],
      "dictionary": []
    },
    "scriptCalls": [],
    "subType": "ammo",
    "equipped": false
  },
  "effects": [],
  "folder": null,
  "sort": 0,
  "permission": {
    "default": 0
  },
  "flags": {}
}