{
  "_id": "P2HkbmWWfqb9fOwD",
  "name": "Butchering Axe",
  "type": "weapon",
  "img": "systems/pf1/icons/items/weapons/axe-butchering.PNG",
  "data": {
    "description": {
      "value": "<p><strong>Source</strong> <em>Adventurer's Armory 2 pg. 8</em></p><h3 class=\"framing\">Statistics</h3><p><strong>Cost</strong> 65 gp <strong>Weight</strong> 25 lbs.</p><p><strong>Damage</strong> 1d12 (small), 3d6 (medium); <strong>Critical</strong> x3; <strong>Range</strong> -; <strong>Type</strong> S; <strong>Special</strong> see text</p><p><strong>Category</strong> Two-Handed; <strong>Proficiency</strong> Exotic</p><p><strong>Weapon Groups</strong> Axes</p><h3 class=\"framing\">Description</h3><p>A creation of the orc smiths of Belkzen, this axe has an oversized head bristling with spikes and a long, thick haft that only barely counterbalances its weight. If your Strength is less than 19 (or 17 for a Small or smaller butchering axe), you take a -2 penalty on attacks with it, as you're unable to maneuver its daunting size and weight.</p>"
    },
    "tags": [],
    "weight": 25,
    "price": 65,
    "hardness": 10,
    "identifiedName": "Butchering Axe",
    "changes": [],
    "contextNotes": [],
    "links": {
      "children": []
    },
    "tag": "butcheringAxe",
    "flags": {
      "boolean": [],
      "dictionary": []
    },
    "scriptCalls": [],
    "weaponType": "exotic",
    "weaponSubtype": "2h",
    "weaponData": {
      "damageRoll": "3d6",
      "damageType": "S",
      "critMult": 3,
      "range": 0
    }
  },
  "effects": [],
  "folder": null,
  "sort": 0,
  "permission": {
    "default": 0
  },
  "flags": {}
}