{
  "_id": "gYFqEtGQkZFiPPmG",
  "name": "Dragoon Pistol",
  "type": "weapon",
  "img": "icons/weapons/guns/gun-red.webp",
  "data": {
    "description": {
      "value": "<p><strong>Source</strong> <em>Villain Codex pg. 57</em></p><h3 class=\"framing\">Statistics</h3><p><strong>Cost</strong> 1,500 gp <strong>Weight</strong> 5 lbs.</p><p><strong>Damage</strong> 1d6 (small), 1d8 (medium); <strong>Critical</strong> x3; <strong>Range</strong> 30 ft.; <strong>Type</strong> B and P; <strong>Special</strong> -</p><p><strong>Misfire</strong> 1 (5 ft.); <strong>Capacity</strong> 3</p><p><strong>Category</strong> One-Handed; <strong>Proficiency</strong> Exotic</p><h3 class=\"framing\">Description</h3><p>Like the dragoon musket, this long-barreled pistol is more precise than a typical pistol but slightly less deadly on a critical hit. It can fire only dragoon cartridges or specially modified <em>mage shot</em>.</p>"
    },
    "tags": [],
    "weight": 50,
    "price": 1500,
    "hardness": 10,
    "identifiedName": "Dragoon Pistol",
    "changes": [],
    "contextNotes": [],
    "links": {
      "children": []
    },
    "tag": "dragoonPistol",
    "flags": {
      "boolean": [],
      "dictionary": []
    },
    "scriptCalls": [],
    "weaponType": "exotic",
    "weaponSubtype": "1h",
    "weaponData": {
      "damageRoll": "1d8",
      "damageType": "B and P",
      "critRange": "NULL",
      "critMult": "3",
      "range": 30
    }
  },
  "effects": [],
  "folder": null,
  "sort": 0,
  "permission": {
    "default": 0
  },
  "flags": {}
}