{
  "_id": "DzMgrtqI8ECS74u6",
  "name": "Dueling Dagger",
  "type": "weapon",
  "img": "systems/pf1/icons/items/weapons/dagger-dueling.png",
  "data": {
    "description": {
      "value": "<p><strong>Source</strong> <em>Adventurer's Armory 2 pg. 8</em></p><h3 class=\"framing\"><img src=\"https://www.aonprd.com/images/PathfinderSocietySymbol.gif\" title=\"PFS Legal\" style=\"margin:3px 3px 0px 3px;\">Statistics</h3><p><strong>Cost</strong> 12 gp <strong>Weight</strong> 1 lb.</p><p><strong>Damage</strong> 1d3 (small), 1d4 (medium); <strong>Critical</strong> 19-20/x2; <strong>Range</strong> 10 ft.; <strong>Type</strong> P or S; <strong>Special</strong> see text</p><p><strong>Category</strong> Light; <strong>Proficiency</strong> Martial</p><p><strong>Weapon Groups</strong> Blades, Light; Thrown</p><h3 class=\"framing\">Description</h3><p>This dagger is used in the off hand to block attacks. When you fight defensively or use Combat Expertise while wielding a dueling dagger, your bonus to AC increases by 1. This benefit applies even if you did not attack with the dueling dagger. If you aren't proficient with a dueling dagger, you treat it as a dagger and gain no special benefits. Any effects that apply to daggers apply to dueling daggers.</p>"
    },
    "tags": [],
    "weight": 1,
    "price": 12,
    "hp": {
      "max": 2,
      "value": 2
    },
    "hardness": 10,
    "identifiedName": "Dueling Dagger",
    "changes": [],
    "contextNotes": [],
    "links": {
      "children": []
    },
    "tag": "duelingDagger",
    "flags": {
      "boolean": [],
      "dictionary": []
    },
    "scriptCalls": [],
    "weaponType": "martial",
    "weaponData": {
      "damageRoll": "1d4",
      "damageType": "P or S",
      "critRange": 19,
      "range": 10
    }
  },
  "effects": [],
  "folder": null,
  "sort": 0,
  "permission": {
    "default": 0
  },
  "flags": {}
}