{
  "_id": "aji2yHRoqFAHHfm6",
  "name": "Dwarven Urgrosh",
  "type": "weapon",
  "img": "systems/pf1/icons/items/weapons/dwarven-urgrosh.PNG",
  "data": {
    "description": {
      "value": "<p><strong>Source</strong> <em>Ultimate Equipment pg. 20</em>, <em>PRPG Core Rulebook pg. 143</em></p><h3 class=\"framing\"><img src=\"https://www.aonprd.com/images/PathfinderSocietySymbol.gif\" title=\"PFS Legal\" style=\"margin:3px 3px 0px 3px;\">Statistics</h3><p><strong>Cost</strong> 50 gp <strong>Weight</strong> 12 lbs.</p><p><strong>Damage</strong> 1d6/1d4 (small), 1d8/1d6 (medium); <strong>Critical</strong> x3; <strong>Range</strong> -; <strong>Type</strong> P or S; <strong>Special</strong> brace, double</p><p><strong>Category</strong> Two-Handed; <strong>Proficiency</strong> Exotic</p><p><strong>Weapon Groups</strong> Double</p><h3 class=\"framing\">Description</h3><p>A dwarven urgrosh is a double weapon- an axe head and a spear point on opposite ends of a long haft. The urgrosh's axe head is a slashing weapon that deals 1d8 points of damage. Its spear head is a piercing weapon that deals 1d6 points of damage. You can use either head as the primary weapon; the other becomes the off-hand weapon. If you use an urgrosh against a charging character, the spear head is the part of the weapon that deals damage. Dwarves treat dwarven urgroshes as martial weapons.</p>"
    },
    "tags": [],
    "weight": 12,
    "price": 50,
    "hardness": 10,
    "identifiedName": "Dwarven Urgrosh",
    "changes": [],
    "contextNotes": [],
    "links": {
      "children": []
    },
    "tag": "dwarvenUrgrosh",
    "flags": {
      "boolean": [],
      "dictionary": []
    },
    "scriptCalls": [],
    "weaponType": "exotic",
    "weaponSubtype": "2h",
    "weaponData": {
      "damageRoll": "1d8",
      "damageType": "P or S",
      "critMult": 3,
      "range": 0
    }
  },
  "effects": [],
  "folder": null,
  "sort": 0,
  "permission": {
    "default": 0
  },
  "flags": {}
}