{
  "_id": "TvXC404n2AjNH7Mc",
  "name": "Elven Leafblade",
  "type": "weapon",
  "img": "icons/weapons/swords/greatsword-crossguard-curved.webp",
  "data": {
    "description": {
      "value": "<p><strong>Source</strong> <em>Adventurer's Guide pg. 114</em></p><h3 class=\"framing\"><img src=\"https://www.aonprd.com/images/PathfinderSocietySymbol.gif\" title=\"PFS Legal\" style=\"margin:3px 3px 0px 3px;\">Statistics</h3><p><strong>Cost</strong> 40 gp <strong>Weight</strong> 3 lbs.</p><p><strong>Damage</strong> 1d3 (small), 1d4 (medium); <strong>Critical</strong> 18-20/x2; <strong>Range</strong> -; <strong>Type</strong> P or S; <strong>Special</strong> see text</p><p><strong>Category</strong> Light; <strong>Proficiency</strong> Exotic</p><h3 class=\"framing\">Description</h3><p>Elves have traditionally eschewed the use of larger weaponry, opting instead for lighter weapons that take advantage of their wielders' agility and poise. The elven curve blade is perhaps the bestknown weapon in this category, but the leafblade (often partnered with the substantially longer thornblade) embraces these fighting styles to an even greater extent. This short sword has a blade reminiscent of a long, narrow leaf and is suitable both for slashing swings and targeted thrusts. These weapons are designed to be wielded alongside elven thornblades. Attacks with an elven leafblade gain a +2 bonus on attack rolls made to confirm critical hits. </p>"
    },
    "tags": [],
    "weight": 3,
    "price": 40,
    "hp": {
      "max": 2,
      "value": 2
    },
    "hardness": 10,
    "identifiedName": "Elven Leafblade",
    "changes": [],
    "contextNotes": [],
    "links": {
      "children": []
    },
    "tag": "elvenLeafblade",
    "flags": {
      "boolean": [],
      "dictionary": []
    },
    "scriptCalls": [],
    "weaponType": "exotic",
    "weaponData": {
      "damageRoll": "1d4",
      "damageType": "P or S",
      "critRange": 18,
      "range": 0
    }
  },
  "effects": [],
  "folder": null,
  "sort": 0,
  "permission": {
    "default": 0
  },
  "flags": {}
}