{
  "_id": "zOgD72irWuvqTCUq",
  "name": "Elven Thornblade",
  "type": "weapon",
  "img": "icons/weapons/swords/greatsword-crossguard-curved.webp",
  "data": {
    "description": {
      "value": "<p><strong>Source</strong> <em>Adventurer's Guide pg. 114</em></p><h3 class=\"framing\"><img src=\"https://www.aonprd.com/images/PathfinderSocietySymbol.gif\" title=\"PFS Legal\" style=\"margin:3px 3px 0px 3px;\">Statistics</h3><p><strong>Cost</strong> 60 gp <strong>Weight</strong> 4 lbs.</p><p><strong>Damage</strong> 1d4 (small), 1d6 (medium); <strong>Critical</strong> 18-20/x2; <strong>Range</strong> -; <strong>Type</strong> P or S; <strong>Special</strong> see text</p><p><strong>Category</strong> One-Handed; <strong>Proficiency</strong> Exotic</p><h3 class=\"framing\">Description</h3><p>This blade is suited for thrusts and parries, making it especially capable of inflicting deep, penetrating wounds. A wielder with Weapon Finesse can apply her Dexterity modifier to attack rolls with an elven thornblade instead of her Strength modifier. An elven thornblade grants no additional benefit when wielded two-handed. In addition, attacks with an elven thornblade gain a +2 bonus on attack rolls made to confirm critical hits.</p>"
    },
    "tags": [],
    "weight": 4,
    "price": 60,
    "hp": {
      "max": 5,
      "value": 5
    },
    "hardness": 10,
    "identifiedName": "Elven Thornblade",
    "changes": [],
    "contextNotes": [],
    "links": {
      "children": []
    },
    "tag": "elvenThornblade",
    "flags": {
      "boolean": [],
      "dictionary": []
    },
    "scriptCalls": [],
    "weaponType": "exotic",
    "weaponSubtype": "1h",
    "weaponData": {
      "damageRoll": "1d6",
      "damageType": "P or S",
      "critRange": 18,
      "range": 0
    }
  },
  "effects": [],
  "folder": null,
  "sort": 0,
  "permission": {
    "default": 0
  },
  "flags": {}
}