{
  "_id": "uj2DDCSDd1vLgb5q",
  "name": "Fauchard",
  "type": "weapon",
  "img": "systems/pf1/icons/items/weapons/fauchard.PNG",
  "data": {
    "description": {
      "value": "<p><strong>Source</strong> <em>Adventurer's Armory 2 pg. 8</em>, <em>Classic Horrors Revisited pg. 8</em></p><h3 class=\"framing\"><img src=\"https://www.aonprd.com/images/PathfinderSocietySymbol.gif\" title=\"PFS Legal\" style=\"margin:3px 3px 0px 3px;\">Statistics</h3><p><strong>Cost</strong> 14 gp <strong>Weight</strong> 10 lbs.</p><p><strong>Damage</strong> 1d8 (small), 1d10 (medium); <strong>Critical</strong> 18-20/x2; <strong>Range</strong> -; <strong>Type</strong> S; <strong>Special</strong> reach,trip</p><p><strong>Category</strong> Two-Handed; <strong>Proficiency</strong> Exotic</p><p><strong>Weapon Groups</strong> Polearms</p><h3 class=\"framing\">Description</h3><p>Like a glaive, the fauchard is a curved blade at the end of a pole. However, the cutting edge of a fauchard is along the concave side, like that of a sickle or scythe.</p>"
    },
    "tags": [],
    "weight": 10,
    "price": 14,
    "hardness": 10,
    "identifiedName": "Fauchard",
    "changes": [],
    "contextNotes": [],
    "links": {
      "children": []
    },
    "tag": "fauchard",
    "flags": {
      "boolean": [],
      "dictionary": []
    },
    "scriptCalls": [],
    "weaponType": "exotic",
    "weaponSubtype": "2h",
    "weaponData": {
      "damageRoll": "1d10",
      "damageType": "S",
      "critRange": 18,
      "range": 0
    }
  },
  "effects": [],
  "folder": null,
  "sort": 0,
  "permission": {
    "default": 0
  },
  "flags": {}
}