{
  "_id": "w20dQkQPOe4sTiRT",
  "name": "Firearm Bullet (1)",
  "type": "loot",
  "img": "systems/pf1/icons/items/weapons/bullet.png",
  "data": {
    "description": {
      "value": "<p><strong>Source</strong> <em>Ultimate Equipment pg. 41</em>, <em>Pathfinder Campaign Setting pg. 211</em>, <em>Ultimate Combat pg. 141</em></p><h3 class=\"framing\"><img src=\"https://www.aonprd.com/images/PathfinderSocietySymbol.gif\" title=\"PFS Legal\" style=\"margin:3px 3px 0px 3px;\">Statistics</h3><p><strong>Cost</strong> 1 gp <strong>Weight</strong> -</p><p><strong>Category</strong> Ammunition; <strong>Proficiency</strong> Exotic</p><h3 class=\"framing\">Description</h3><p>The ammunition of most one-handed and two-handed firearms, firearm bullets typically take the form of small balls of lead or some other metal. Thirty bullets weigh half a pound.</p>"
    },
    "tags": [],
    "price": 1,
    "hp": {
      "max": 1,
      "value": 1
    },
    "hardness": 5,
    "identifiedName": "Firearm Bullet (1)",
    "changes": [],
    "contextNotes": [],
    "links": {
      "children": []
    },
    "tag": "firearmBullet1",
    "flags": {
      "boolean": [],
      "dictionary": []
    },
    "scriptCalls": [],
    "subType": "ammo",
    "equipped": false
  },
  "effects": [],
  "folder": null,
  "sort": 0,
  "permission": {
    "default": 0
  },
  "flags": {}
}