{
  "_id": "tJ6SgELD1EMxgwE6",
  "name": "Flambard",
  "type": "weapon",
  "img": "systems/pf1/icons/items/weapons/flambard.PNG",
  "data": {
    "description": {
      "value": "<p><strong>Source</strong> <em>Adventurer's Armory pg. 3</em></p><h3 class=\"framing\"><img src=\"https://www.aonprd.com/images/PathfinderSocietySymbol.gif\" title=\"PFS Legal\" style=\"margin:3px 3px 0px 3px;\">Statistics</h3><p><strong>Cost</strong> 50 gp <strong>Weight</strong> 6 lbs.</p><p><strong>Damage</strong> 1d8 (small), 1d10 (medium); <strong>Critical</strong> 19-20/x2; <strong>Range</strong> -; <strong>Type</strong> S; <strong>Special</strong> sunder</p><p><strong>Category</strong> Two-Handed; <strong>Proficiency</strong> Exotic</p><p><strong>Weapon Groups</strong> Blades, Heavy</p><h3 class=\"framing\">Description</h3><p>This two-handed sword has a wavy blade that is especially useful for cutting through wooden weapons. If you are proficient with this weapon, you gain a +4 bonus on any sunder attempts made against weapons with a wooden haft; otherwise you may use this sword as a bastard sword.</p>"
    },
    "tags": [],
    "weight": 6,
    "price": 50,
    "hardness": 10,
    "identifiedName": "Flambard",
    "changes": [],
    "contextNotes": [],
    "links": {
      "children": []
    },
    "tag": "flambard",
    "flags": {
      "boolean": [],
      "dictionary": []
    },
    "scriptCalls": [],
    "weaponType": "exotic",
    "weaponSubtype": "2h",
    "weaponData": {
      "damageRoll": "1d10",
      "damageType": "S",
      "critRange": 19,
      "range": 0
    }
  },
  "effects": [],
  "folder": null,
  "sort": 0,
  "permission": {
    "default": 0
  },
  "flags": {}
}