{
  "_id": "UnwY7pQwDKDjMGfA",
  "name": "Gargantuan Gallery",
  "type": "weapon",
  "img": "icons/sundries/misc/bird-house.webp",
  "data": {
    "description": {
      "value": "<p><strong>Source</strong> <em>Ultimate Combat pg. 166</em></p><h3 class=\"framing\">Statistics</h3><p><strong>Cost</strong> 1,000 gp <strong>Weight</strong> -</p><p><strong>Damage</strong> -; <strong>Critical</strong> -; <strong>Range</strong> -; <strong>Type</strong> -</p><p><strong>Crew</strong> 9; <strong>Aim</strong> 0; <strong>Load</strong> 0; <strong>Speed</strong> 15 ft.</p><p><strong>Category</strong> Close Assault; <strong>Proficiency</strong> Siege Engine</p><h3 class=\"framing\">Description</h3><p>A mobile temporary defense, a gallery is similar to a building made of hide or wood. Most are of flimsy construction, but rare examples are more stoutly built (use the rules for giving siege engines armor, and adjust AC, hardness, and hit points accordingly). Galleries are almost always a single section of movable \"wall\" plus another section that acts as the \"roof.\" (Galleries made to house battering rams are an exception, and typically have two joined wall sections and roof sections.) Because a gallery is partially open, it does not provide the same cover as a normal building: a creature inside a gallery gains cover if it is the same size as the gallery, improved cover if it is one size smaller, and total cover if it is two or more sizes smaller. Galleries are sized like creatures-a Larger gallery protects the same space as a Large creature, and so on.</p><p></p><p> Wooden galleries can be moved on rollers at a speed of 10 feet with their full crew, or 5 feet with at least half the required crew. Galleries have a base speed of 15 feet (or 10 feet if protected with medium or heavy armor).</p><p></p><p> Galleries have a hardness of 5, and hit points based on their size. A Large gallery has 30 hit points, a Huge one has 120 hit points, a Gargantuan one has 320 hit points, and a colossal one has 625 hit points.</p>"
    },
    "tags": [],
    "price": 1000,
    "hardness": 10,
    "changes": [],
    "contextNotes": [],
    "links": {
      "children": []
    },
    "tag": "gargantuanGallery",
    "flags": {
      "boolean": [],
      "dictionary": []
    },
    "scriptCalls": [],
    "weaponType": "misc",
    "weaponSubtype": "other",
    "weaponData": {
      "critRange": "NULL",
      "critMult": "2",
      "range": 0
    }
  },
  "effects": [],
  "folder": null,
  "sort": 0,
  "permission": {
    "default": 0
  },
  "flags": {}
}