{
  "_id": "t5h6nBc1BuN8Eh5d",
  "name": "Gastraphetes",
  "type": "weapon",
  "img": "systems/pf1/icons/items/weapons/crossbow-double.PNG",
  "data": {
    "description": {
      "value": "<p><strong>Source</strong> <em>Distant Shores pg. 12</em></p><h3 class=\"framing\">Statistics</h3><p><strong>Cost</strong> 65 gp <strong>Weight</strong> 12 lbs.</p><p><strong>Damage</strong> 1d10 (small), 1d12 (medium); <strong>Critical</strong> 19-20/x2; <strong>Range</strong> 120 ft.; <strong>Type</strong> P; <strong>Special</strong> -</p><p><strong>Category</strong> Ranged; <strong>Proficiency</strong> Martial</p><h3 class=\"framing\">Description</h3><p>The gastraphetes, sometimes called a \"belly bow,\" is an oversized crossbow reloaded by pressing one end against the ground, the other against one's abdomen, and locking the string in place through ratchet action. Reloading takes a full-round action, uses two hands, and requires that the wielder be standing. Wielding a gastraphetes requires two hands, and due to the weapon's bulk, firing it while standing without support (such as a wall, a window, or a stand) imposes a -4 penalty on attack rolls; you take no penalty for firing a gastraphetes while prone. A Large or larger creature can use a gastraphetes one size smaller than itself without any support, but takes the normal penalty for firing an inappropriately sized weapon.</p>"
    },
    "tags": [],
    "weight": 12,
    "price": 65,
    "hp": {
      "max": 5,
      "value": 5
    },
    "hardness": 5,
    "identifiedName": "Gastraphetes",
    "changes": [],
    "contextNotes": [],
    "links": {
      "children": []
    },
    "tag": "gastraphetes",
    "flags": {
      "boolean": [],
      "dictionary": []
    },
    "scriptCalls": [],
    "weaponType": "martial",
    "weaponSubtype": "ranged",
    "weaponData": {
      "damageRoll": "1d12",
      "damageType": "P",
      "critRange": 19,
      "range": 120
    }
  },
  "effects": [],
  "folder": null,
  "sort": 0,
  "permission": {
    "default": 0
  },
  "flags": {}
}