{
  "_id": "hBgclgYrnhecN3pX",
  "name": "Guisarme",
  "type": "weapon",
  "img": "systems/pf1/icons/items/weapons/guisarme.PNG",
  "data": {
    "description": {
      "value": "<p><strong>Source</strong> <em>Ultimate Equipment pg. 19</em>, <em>PRPG Core Rulebook pg. 143</em></p><h3 class=\"framing\"><img src=\"https://www.aonprd.com/images/PathfinderSocietySymbol.gif\" title=\"PFS Legal\" style=\"margin:3px 3px 0px 3px;\">Statistics</h3><p><strong>Cost</strong> 9 gp <strong>Weight</strong> 12 lbs.</p><p><strong>Damage</strong> 1d6 (small), 2d4 (medium); <strong>Critical</strong> x3; <strong>Range</strong> -; <strong>Type</strong> S; <strong>Special</strong> reach, trip</p><p><strong>Category</strong> Two-Handed; <strong>Proficiency</strong> Martial</p><p><strong>Weapon Groups</strong> Polearms</p><h3 class=\"framing\">Description</h3><p>A guisarme is an 8-foot-long shaft with a blade and a hook mounted at the tip.</p>"
    },
    "tags": [],
    "weight": 12,
    "price": 9,
    "hardness": 10,
    "identifiedName": "Guisarme",
    "changes": [],
    "contextNotes": [],
    "links": {
      "children": []
    },
    "tag": "guisarme",
    "flags": {
      "boolean": [],
      "dictionary": []
    },
    "scriptCalls": [],
    "weaponType": "martial",
    "weaponSubtype": "2h",
    "weaponData": {
      "damageRoll": "2d4",
      "damageType": "S",
      "critMult": 3,
      "range": 0
    }
  },
  "effects": [],
  "folder": null,
  "sort": 0,
  "permission": {
    "default": 0
  },
  "flags": {}
}