{
  "_id": "0MFbQaJ3MUWV2fGM",
  "name": "Heavy Crank Crossbow",
  "type": "weapon",
  "img": "systems/pf1/icons/items/weapons/crossbow-crank.PNG",
  "data": {
    "description": {
      "value": "<p><strong>Source</strong> <em>Ranged Tactics Toolbox pg. 18</em></p><h3 class=\"framing\"><img src=\"https://www.aonprd.com/images/PathfinderSocietySymbol.gif\" title=\"PFS Legal\" style=\"margin:3px 3px 0px 3px;\">Statistics</h3><p><strong>Cost</strong> 400 gp <strong>Weight</strong> 12 lbs.</p><p><strong>Damage</strong> 1d8 (small), 1d10 (medium); <strong>Critical</strong> 19-20/x2; <strong>Range</strong> 120 ft.; <strong>Type</strong> P; <strong>Special</strong> -</p><p><strong>Category</strong> Ranged; <strong>Proficiency</strong> Exotic</p><h3 class=\"framing\">Description</h3><p>This heavy crossbow has a winch mounted below the stock. Up to 50 feet of silk rope can be wound onto the winch as a full-round action that provokes attacks of opportunity. The wound rope can be attached to a barbed bolt (see New Ammunition on page 19) or grappling bolt<sup>UE</sup> as part of a loading action. After firing such a bolt, the wielder can use the winch to retract the rope or pull herself along the rope if the bolt is secure. When used with a barbed bolt, the winch provides a +2 bonus on grapple combat maneuver checks to pull the target toward you. When used with a grappling bolt<sup>UE</sup>, the winch provides a +2 bonus on Climb checks.</p>"
    },
    "tags": [],
    "weight": 12,
    "price": 400,
    "hp": {
      "max": 5,
      "value": 5
    },
    "hardness": 5,
    "identifiedName": "Heavy Crank Crossbow",
    "changes": [],
    "contextNotes": [],
    "links": {
      "children": []
    },
    "tag": "heavyCrankCrossbow",
    "flags": {
      "boolean": [],
      "dictionary": []
    },
    "scriptCalls": [],
    "weaponType": "exotic",
    "weaponSubtype": "ranged",
    "weaponData": {
      "damageRoll": "1d10",
      "damageType": "P",
      "critRange": 19,
      "range": 120
    }
  },
  "effects": [],
  "folder": null,
  "sort": 0,
  "permission": {
    "default": 0
  },
  "flags": {}
}