{
  "_id": "Dwk80eD0rB93lPnN",
  "name": "Light Hammer",
  "type": "weapon",
  "img": "systems/pf1/icons/items/weapons/hammer-light.PNG",
  "data": {
    "description": {
      "value": "<p><strong>Source</strong> <em>Ultimate Equipment pg. 18</em>, <em>PRPG Core Rulebook pg. 142</em></p><h3 class=\"framing\"><img src=\"https://www.aonprd.com/images/PathfinderSocietySymbol.gif\" title=\"PFS Legal\" style=\"margin:3px 3px 0px 3px;\">Statistics</h3><p><strong>Cost</strong> 1 gp <strong>Weight</strong> 2 lbs.</p><p><strong>Damage</strong> 1d3 (small), 1d4 (medium); <strong>Critical</strong> x2; <strong>Range</strong> 20 ft.; <strong>Type</strong> B; <strong>Special</strong> -</p><p><strong>Category</strong> Light; <strong>Proficiency</strong> Martial</p><p><strong>Weapon Groups</strong> Hammers; Thrown</p><h3 class=\"framing\">Description</h3><p>A lighter version of a warhammer, this weapon usually has a sleek metal head with one striking surface.</p>"
    },
    "tags": [],
    "weight": 2,
    "price": 1,
    "hp": {
      "max": 2,
      "value": 2
    },
    "hardness": 10,
    "identifiedName": "Light Hammer",
    "changes": [],
    "contextNotes": [],
    "links": {
      "children": []
    },
    "tag": "lightHammer",
    "flags": {
      "boolean": [],
      "dictionary": []
    },
    "scriptCalls": [],
    "weaponType": "martial",
    "weaponData": {
      "damageRoll": "1d4",
      "damageType": "B",
      "range": 20
    }
  },
  "effects": [],
  "folder": null,
  "sort": 0,
  "permission": {
    "default": 0
  },
  "flags": {}
}