{
  "_id": "fNnwtbOHb1pdqaBb",
  "name": "Mattock",
  "type": "weapon",
  "img": "icons/weapons/axes/pickaxe-stone-simple.webp",
  "data": {
    "description": {
      "value": "<p><strong>Source</strong> <em>Ultimate Equipment pg. 19</em></p><h3 class=\"framing\"><img src=\"https://www.aonprd.com/images/PathfinderSocietySymbol.gif\" title=\"PFS Legal\" style=\"margin:3px 3px 0px 3px;\">Statistics</h3><p><strong>Cost</strong> 12 gp <strong>Weight</strong> 12 lbs.</p><p><strong>Damage</strong> 1d6 (small), 2d4 (medium); <strong>Critical</strong> x4; <strong>Range</strong> -; <strong>Type</strong> P; <strong>Special</strong> fragile</p><p><strong>Category</strong> Two-Handed; <strong>Proficiency</strong> Martial</p><p><strong>Weapon Groups</strong> Axes</p><h3 class=\"framing\">Description</h3><p>A mattock resembles a two-handed pick, but with a chisel-like blade instead of a point.</p>"
    },
    "tags": [],
    "weight": 12,
    "price": 12,
    "hardness": 10,
    "identifiedName": "Mattock",
    "changes": [],
    "contextNotes": [],
    "links": {
      "children": []
    },
    "tag": "mattock",
    "flags": {
      "boolean": [],
      "dictionary": []
    },
    "scriptCalls": [],
    "weaponType": "martial",
    "weaponSubtype": "2h",
    "weaponData": {
      "damageRoll": "2d4",
      "damageType": "P",
      "critMult": 4,
      "range": 0
    }
  },
  "effects": [],
  "folder": null,
  "sort": 0,
  "permission": {
    "default": 0
  },
  "flags": {}
}