{
  "_id": "wUBozJUAb1DYim2w",
  "name": "Pepperbox Rifle",
  "type": "weapon",
  "img": "icons/weapons/guns/gun-topbarrel.webp",
  "data": {
    "description": {
      "value": "<p><strong>Source</strong> <em>Ultimate Equipment pg. 43</em>, <em>Ultimate Combat pg. 140</em></p>\n<h3 class=\"framing\">Statistics</h3>\n<p><strong>Cost</strong> 7,000 gp <strong>Weight</strong> 15 lbs.</p>\n<p><strong>Damage</strong> 1d8 (small), 1d10 (medium); <strong>Critical</strong> x4; <strong>Range</strong> 80 ft.; <strong>Type</strong> B and P; <strong>Special</strong> -</p>\n<p><strong>Misfire</strong> 1-2; <strong>Capacity</strong> 4</p>\n<p><strong>Category</strong> Two-Handed; <strong>Proficiency</strong> Exotic</p>\n<h3 class=\"framing\">Description</h3>\n<p>The four barrels of this rifle are set into a turnable housing that can be quickly rotated by hand (a free action) between shots. A pepperbox rifle uses metal cartridges as ammunition.</p>\n<p><strong>This is an advanced firearm.</strong></p>"
    },
    "tags": [],
    "weight": 150,
    "price": 7000,
    "hardness": 10,
    "identifiedName": "Pepperbox Rifle",
    "changes": [],
    "contextNotes": [],
    "links": {
      "children": []
    },
    "tag": "pepperboxRifle",
    "flags": {
      "boolean": [],
      "dictionary": []
    },
    "scriptCalls": [],
    "weaponType": "exotic",
    "weaponSubtype": "2h",
    "weaponData": {
      "damageRoll": "1d10",
      "damageType": "B and P",
      "critRange": "NULL",
      "critMult": "4",
      "range": 80
    }
  },
  "effects": [],
  "folder": null,
  "sort": 0,
  "permission": {
    "default": 0
  },
  "flags": {}
}