{
  "_id": "PDVR2OAcIJTtYT21",
  "name": "Pickaxe",
  "type": "weapon",
  "img": "systems/pf1/icons/items/weapons/pickaxe.png",
  "data": {
    "description": {
      "value": "<p><strong>Source</strong> <em>Pathfinder #14: Children of the Void pg. 30</em></p><h3 class=\"framing\"><img src=\"https://www.aonprd.com/images/ThreeFiveSymbol.gif\" title=\"3.5 Material\" style=\"margin: 3px 3px 0px 3px\">Statistics</h3><p><strong>Cost</strong> 14 gp <strong>Weight</strong> 12 lbs.</p><p><strong>Damage</strong> 1d6 (small), 1d8 (medium); <strong>Critical</strong> x4; <strong>Range</strong> -; <strong>Type</strong> P; <strong>Special</strong> -</p><p><strong>Category</strong> Two-Handed; <strong>Proficiency</strong> Martial</p><h3 class=\"framing\">Description</h3><p>A two-handed version of the heavy pick, the brutal pickaxe is equally effective at breaking up earth and stone as it is at sundering flesh and bone. Often a weapon of convenience for commoners, the pickaxe is also a favorite among brutes and thugs who value the intimidation factor afforded by the immense weapon.</p>"
    },
    "tags": [],
    "weight": 12,
    "price": 14,
    "hardness": 10,
    "identifiedName": "Pickaxe",
    "changes": [],
    "contextNotes": [],
    "links": {
      "children": []
    },
    "tag": "pickaxe",
    "flags": {
      "boolean": [],
      "dictionary": []
    },
    "scriptCalls": [],
    "weaponType": "martial",
    "weaponSubtype": "2h",
    "weaponData": {
      "damageRoll": "1d8",
      "damageType": "P",
      "critMult": 4,
      "range": 0
    }
  },
  "effects": [],
  "folder": null,
  "sort": 0,
  "permission": {
    "default": 0
  },
  "flags": {}
}