{
  "_id": "tSvbLpTfOIUnoGd0",
  "name": "Repeating Light Crossbow",
  "type": "weapon",
  "img": "systems/pf1/icons/items/weapons/crossbow-repeating.PNG",
  "data": {
    "description": {
      "value": "<p><strong>Source</strong> <em>Ranged Tactics Toolbox pg. 33</em>, <em>PRPG Core Rulebook pg. 143</em>, <em>Ultimate Equipment pg. 21</em></p><h3 class=\"framing\"><img src=\"https://www.aonprd.com/images/PathfinderSocietySymbol.gif\" title=\"PFS Legal\" style=\"margin:3px 3px 0px 3px;\">Statistics</h3><p><strong>Cost</strong> 250 gp <strong>Weight</strong> 6 lbs.</p><p><strong>Damage</strong> 1d6 (small), 1d8 (medium); <strong>Critical</strong> 19-20/x2; <strong>Range</strong> 80 ft.; <strong>Type</strong> P; <strong>Special</strong> -</p><p><strong>Category</strong> Ranged; <strong>Proficiency</strong> Exotic</p><p><strong>Weapon Groups</strong> Crossbows</p><h3 class=\"framing\">Description</h3><p>This weapon functions identically to a repeating heavy crossbow, except that its damage, critical, and range values are equivalent to those of a light crossbow instead of a heavy crossbow. Its significantly lighter construction and pull make it both more portable and more useful to those who rely on stealth or speed.</p>"
    },
    "tags": [],
    "weight": 6,
    "price": 250,
    "hp": {
      "max": 5,
      "value": 5
    },
    "hardness": 5,
    "identifiedName": "Repeating Light Crossbow",
    "changes": [],
    "contextNotes": [],
    "links": {
      "children": []
    },
    "tag": "repeatingLightCrossbow",
    "flags": {
      "boolean": [],
      "dictionary": []
    },
    "scriptCalls": [],
    "weaponType": "exotic",
    "weaponSubtype": "ranged",
    "weaponData": {
      "damageRoll": "1d8",
      "damageType": "P",
      "critRange": 19,
      "range": 80
    }
  },
  "effects": [],
  "folder": null,
  "sort": 0,
  "permission": {
    "default": 0
  },
  "flags": {}
}