{
  "_id": "8QsgzFOfZj9TLsqf",
  "name": "Spiked Armor",
  "type": "weapon",
  "img": "icons/weapons/fist/fist-knuckles-spiked-brown.webp",
  "data": {
    "description": {
      "value": "<p><strong>Source</strong> <em>Ultimate Equipment pg. 18</em>, <em>PRPG Core Rulebook pg. 142</em></p><h3 class=\"framing\"><img src=\"https://www.aonprd.com/images/PathfinderSocietySymbol.gif\" title=\"PFS Legal\" style=\"margin:3px 3px 0px 3px;\">Statistics</h3><p><strong>Cost</strong> +50 gp <strong>Weight</strong> special</p><p><strong>Damage</strong> 1d4 (small), 1d6 (medium); <strong>Critical</strong> x2; <strong>Range</strong> -; <strong>Type</strong> P; <strong>Special</strong> -</p><p><strong>Category</strong> Light; <strong>Proficiency</strong> Martial</p><p><strong>Weapon Groups</strong> Close</p><h3 class=\"framing\">Description</h3><p>You can outfit your armor with spikes, which can deal damage in a grapple or as a separate attack. See the armor spikes entry on page 10 for details. Armor spikes can't be disarmed.</p>"
    },
    "tags": [],
    "price": 50,
    "hp": {
      "max": 2,
      "value": 2
    },
    "hardness": 10,
    "identifiedName": "Spiked Armor",
    "changes": [],
    "contextNotes": [],
    "links": {
      "children": []
    },
    "tag": "spikedArmor",
    "flags": {
      "boolean": [],
      "dictionary": []
    },
    "scriptCalls": [],
    "weaponType": "martial",
    "weaponData": {
      "damageRoll": "1d6",
      "damageType": "P",
      "range": 0
    }
  },
  "effects": [],
  "folder": null,
  "sort": 0,
  "permission": {
    "default": 0
  },
  "flags": {}
}