{
  "_id": "4AigxbQi8bkvouCm",
  "name": "Stitched Sling",
  "type": "weapon",
  "img": "systems/pf1/icons/items/weapons/sling-stitched.png",
  "data": {
    "description": {
      "value": "<p><em>Technically not a unique kind of weapon, a stitched sling is a sling, staff sling, or double sling whose cup is sewn closed around the ammunition, creating a weak sort of light flail.</em></p>\n<p>The ammunition sewn into the sling is irrelevant to the type and amount of damage it causes. A stitched sling cannot be used to fire ammunition unless the thread or cord holding the cup closed is cut open (a&nbsp;<a href=\"https://www.d20pfsrd.com/gamemastering/combat#TOC-Full-Round-Actions\">full-round action</a>&nbsp;that provokes&nbsp;<a href=\"https://www.d20pfsrd.com/gamemastering/combat#TOC-Attacks-of-Opportunity\">attacks of opportunity</a>).</p>"
    },
    "tags": [],
    "weight": 1,
    "hp": {
      "max": 5,
      "value": 5
    },
    "hardness": 5,
    "changes": [],
    "contextNotes": [],
    "links": {
      "children": []
    },
    "flags": {
      "boolean": [],
      "dictionary": []
    },
    "scriptCalls": [],
    "weaponType": "exotic",
    "weaponSubtype": "ranged",
    "weaponData": {
      "damageRoll": "1d6",
      "damageType": "B",
      "critRange": "20",
      "critMult": "2",
      "maxRangeIncrements": 10
    }
  },
  "effects": [],
  "folder": null,
  "sort": 0,
  "permission": {
    "default": 0
  },
  "flags": {}
}