{
  "_id": "xQegVPdAOD8rq2Rl",
  "name": "Travelling Kettle",
  "type": "weapon",
  "img": "systems/pf1/icons/items/weapons/travelling-kettle.png",
  "data": {
    "description": {
      "value": "<p><strong>Source</strong> <em>Martial Arts Handbook pg. 30</em></p><h3 class=\"framing\"><img src=\"https://www.aonprd.com/images/PathfinderSocietySymbol.gif\" title=\"PFS Legal\" style=\"margin:3px 3px 0px 3px;\">Statistics</h3><p><strong>Cost</strong> 5 gp <strong>Weight</strong> 2 lbs.</p><p><strong>Damage</strong> 1d4 (small), 1d6 (medium); <strong>Critical</strong> x2; <strong>Range</strong> -; <strong>Type</strong> B; <strong>Special</strong> Monk, see text</p><p><strong>Category</strong> Light; <strong>Proficiency</strong> Simple</p><p><strong>Weapon Groups</strong> Monk</p><h3 class=\"framing\">Description</h3><p>These small tea kettles are made with clamping lids and heavily reinforced handles, allowing them to be swung like a club. A traveling kettle with boiling water inside deals an additional 1 point of fire damage on a hit. Boiling water cools to a nondamaging temperature after 5 minutes.</p>"
    },
    "tags": [],
    "weight": 2,
    "price": 5,
    "hp": {
      "max": 2,
      "value": 2
    },
    "hardness": 5,
    "changes": [],
    "contextNotes": [],
    "links": {
      "children": []
    },
    "flags": {
      "boolean": [],
      "dictionary": []
    },
    "scriptCalls": [],
    "weaponData": {
      "damageRoll": "1d6",
      "damageType": "B",
      "critRange": "20",
      "critMult": "2"
    }
  },
  "effects": [],
  "folder": null,
  "sort": 0,
  "permission": {
    "default": 0
  },
  "flags": {}
}