{
  "_id": "4nFjnETINUoBFWKX",
  "name": "Two-Bladed Sword",
  "type": "weapon",
  "img": "systems/pf1/icons/items/weapons/sword-two-bladed.png",
  "data": {
    "description": {
      "value": "<p><strong>Source</strong> <em>Ultimate Equipment pg. 21</em>, <em>PRPG Core Rulebook pg. 143</em></p><h3 class=\"framing\"><img src=\"https://www.aonprd.com/images/PathfinderSocietySymbol.gif\" title=\"PFS Legal\" style=\"margin:3px 3px 0px 3px;\">Statistics</h3><p><strong>Cost</strong> 100 gp <strong>Weight</strong> 10 lbs.</p><p><strong>Damage</strong> 1d6/1d6 (small), 1d8/1d8 (medium); <strong>Critical</strong> 19-20/x2; <strong>Range</strong> -; <strong>Type</strong> S; <strong>Special</strong> double</p><p><strong>Category</strong> Two-Handed; <strong>Proficiency</strong> Exotic</p><p><strong>Weapon Groups</strong> Blades, Heavy; Double</p><h3 class=\"framing\">Description</h3><p>A two-bladed sword is a double weapon-twin blades extend from either side of a central, short haft, allowing the wielder to attack with graceful but deadly flourishes.</p>"
    },
    "tags": [],
    "weight": 10,
    "price": 100,
    "hardness": 10,
    "identifiedName": "Two-Bladed Sword",
    "changes": [],
    "contextNotes": [],
    "links": {
      "children": []
    },
    "tag": "twobladedSword",
    "flags": {
      "boolean": [],
      "dictionary": []
    },
    "scriptCalls": [],
    "weaponType": "exotic",
    "weaponSubtype": "2h",
    "weaponData": {
      "damageRoll": "1d8",
      "damageType": "S",
      "critRange": 19,
      "range": 0
    }
  },
  "effects": [],
  "folder": null,
  "sort": 0,
  "permission": {
    "default": 0
  },
  "flags": {}
}