{
  "_id": "9KkspSc1gaif4kzP",
  "name": "Amulet of Natural Armor +5",
  "type": "equipment",
  "img": "systems/pf1/icons/items/jewelry/pendant-green.jpg",
  "data": {
    "description": {
      "value": "<p>This amulet, usually containing some type of magically preserved monster hide or other natural armor—such as bone, horn, carapace, or beast scales—toughens the wearer’s body and flesh, giving him an&nbsp;<a href=\"https://www.d20pfsrd.com/basics-ability-scores/glossary#TOC-Enhancement-Bonus\">enhancement bonus</a>&nbsp;to his&nbsp;<a href=\"https://www.d20pfsrd.com/basics-ability-scores/glossary#TOC-Natural-Armor-Bonus\">natural armor</a>&nbsp;from +1 to +5, depending on the kind of amulet.</p>"
    },
    "tags": [],
    "price": 50000,
    "unidentified": {
      "name": "Amulet"
    },
    "identifiedName": "Amulet of Natural Armor +5",
    "cl": 15,
    "aura": {
      "school": "trs"
    },
    "activation": {
      "cost": null
    },
    "changes": [
      {
        "_id": "wt5kjxm7",
        "formula": "5",
        "operator": "add",
        "subTarget": "nac",
        "modifier": "enh",
        "priority": 0,
        "value": 0,
        "target": "ac"
      }
    ],
    "contextNotes": [],
    "damage": {
      "parts": [],
      "critParts": [],
      "nonCritParts": []
    },
    "attackParts": [],
    "effectNotes": [],
    "attackNotes": [],
    "links": {
      "children": [],
      "charges": []
    },
    "flags": {
      "boolean": [],
      "dictionary": []
    },
    "scriptCalls": [],
    "equipmentType": "misc",
    "equipmentSubtype": "wondrous",
    "armor": {
      "dex": ""
    },
    "slot": "neck",
    "size": "fine"
  },
  "effects": [],
  "folder": null,
  "sort": 0,
  "permission": {
    "default": 0
  },
  "flags": {}
}