{
  "_id": "El24YaVufGrhydmQ",
  "name": "Absence of Form",
  "type": "feat",
  "img": "systems/pf1/icons/spells/light-royal-1.jpg",
  "data": {
    "description": {
      "value": "<p>You gain @Compendium[pf1.spells.68m9du7zw2di7ew6]{Feather Fall} as a spell-like ability, which you can use a number of rounds per day equal to your oracle level. The rounds do not need to be used consecutively. If you are in mid fall when this ability’s duration expires, you take falling damage as if you fell from the altitude you were at when the spell ended.</p>\n<p>At 10th level, you can also apply your daily rounds of this ability to use @Compendium[pf1.spells.e4v1uv8hexeu9sxj]{Air Walk}.</p>"
    },
    "tags": [],
    "activation": {
      "type": "immediate"
    },
    "unchainedAction": {
      "activation": {
        "type": "reaction"
      }
    },
    "duration": {
      "value": "1",
      "units": "round"
    },
    "target": {
      "value": "one medium or smaller freefalling object or creature/level"
    },
    "range": {
      "units": "close"
    },
    "uses": {
      "per": "day"
    },
    "actionType": "",
    "damage": {
      "parts": [],
      "critParts": [],
      "nonCritParts": []
    },
    "attackParts": [],
    "effectNotes": [],
    "attackNotes": [],
    "changes": [],
    "contextNotes": [],
    "links": {
      "children": [],
      "charges": []
    },
    "armorProf": {
      "value": []
    },
    "weaponProf": {
      "value": []
    },
    "flags": {
      "boolean": [],
      "dictionary": []
    },
    "scriptCalls": [],
    "featType": "classFeat",
    "associations": {
      "classes": [
        [
          "Oracle"
        ]
      ]
    },
    "abilityType": "sp"
  },
  "effects": [],
  "folder": null,
  "sort": 0,
  "permission": {
    "default": 0
  },
  "flags": {}
}