{
  "_id": "1JHcflqnSc3FhxHh",
  "name": "Advanced Psychic Magic (UC) (3 pts)",
  "type": "feat",
  "img": "systems/pf1/icons/skills/blue_26.jpg",
  "data": {
    "description": {
      "value": "<p><strong>Requirements: </strong>Aberrant subtype; intermediate psychic magic evolution; Charisma 12; summoner level 7th.</p>\n<p>The eidolon gains 5 points of psychic energy that it can spend each day. Select one spell from the following list:&nbsp;</p>\n<ul>\n<li>@Compendium[pf1.spells.tsndfcfijmgxs37p]{Darkness}</li>\n<li>@Compendium[pf1.spells.xllxylvvqr82o2d5]{Detect Thoughts}</li>\n<li>@Compendium[pf1.spells.13pilcgm2oydyogv]{Disfiguring Touch}</li>\n<li>@Compendium[pf1.spells.fa3oswb6t4drz74g]{Id Insinuation I}</li>\n<li>@Compendium[pf1.spells.it1fbobapvnp5swg]{Mind Thrust II}</li>\n<li>@Compendium[pf1.spells.648x72rflah0ggyz]{Touch of Idiocy}</li>\n</ul>\n<p>The eidolon can cast that spell as a psychic spell by spending 2 points of psychic energy. The caster level and save DC are the same as for basic psychic magic. This evolution can be selected more than once, selecting a different spell each time.</p>\n<p>The eidolon’s amount of psychic energy available to spend each day does not stack—it uses only the highest number of points granted by its most powerful psychic magic evolution.&nbsp;</p>"
    },
    "tags": [],
    "activation": {
      "type": "special"
    },
    "unchainedAction": {
      "activation": {
        "type": "special"
      }
    },
    "uses": {
      "per": "day"
    },
    "actionType": "",
    "damage": {
      "parts": [],
      "critParts": [],
      "nonCritParts": []
    },
    "attackParts": [],
    "effectNotes": [],
    "attackNotes": [],
    "changes": [],
    "contextNotes": [],
    "links": {
      "children": [],
      "charges": []
    },
    "armorProf": {
      "value": []
    },
    "weaponProf": {
      "value": []
    },
    "flags": {
      "boolean": [],
      "dictionary": []
    },
    "scriptCalls": [],
    "featType": "classFeat",
    "associations": {
      "classes": [
        [
          "Eidolon (Unchained)"
        ]
      ]
    }
  },
  "effects": [],
  "folder": null,
  "sort": 0,
  "permission": {
    "default": 0
  },
  "flags": {}
}