{
  "_id": "ZfCUTi1MiLgR4T7I",
  "name": "Bardic Performance",
  "type": "feat",
  "img": "systems/pf1/icons/items/inventory/flute.jpg",
  "data": {
    "description": {
      "value": "<p>A bard is trained to use the&nbsp;<a href=\"https://www.d20pfsrd.com/skills/perform\">Perform</a>&nbsp;skill to create magical effects on those around him, including himself if desired. He can use this ability for a number of rounds per day equal to 4 + his&nbsp;<a href=\"https://www.d20pfsrd.com/basics-ability-scores/ability-scores#TOC-Charisma-Cha-\">Charisma</a>&nbsp;modifier. At each level after 1st a bard can use bardic performance for 2 additional rounds per day. Each round, the bard can produce any one of the types of bardic performance that he has mastered, as indicated by his level.</p>\n<p>Starting a bardic performance is a&nbsp;<a href=\"https://www.d20pfsrd.com/gamemastering/combat#TOC-Standard-Actions\">standard action</a>, but it can be maintained each round as a&nbsp;<a href=\"https://www.d20pfsrd.com/gamemastering/combat#TOC-Free-Actions\">free action</a>. Changing a bardic performance from one effect to another requires the bard to stop the previous performance and start a new one as a&nbsp;<a href=\"https://www.d20pfsrd.com/gamemastering/combat#TOC-Standard-Actions\">standard action</a>. A bardic performance cannot be disrupted, but it ends immediately if the bard is killed,&nbsp;<a href=\"https://www.d20pfsrd.com/gamemastering/conditions#TOC-Paralyzed\">paralyzed</a>,&nbsp;<a href=\"https://www.d20pfsrd.com/gamemastering/conditions#TOC-Stunned\">stunned</a>, knocked&nbsp;<a href=\"https://www.d20pfsrd.com/gamemastering/conditions#TOC-Unconscious\">unconscious</a>, or otherwise prevented from taking a&nbsp;<a href=\"https://www.d20pfsrd.com/gamemastering/combat#TOC-Free-Actions\">free action</a>&nbsp;to maintain it each round. A bard cannot have more than one bardic performance in effect at one time.</p>\n<p>At 7th level, a bard can start a bardic performance as a&nbsp;<a href=\"https://www.d20pfsrd.com/gamemastering/combat#TOC-Move-Actions\">move action</a>&nbsp;instead of a&nbsp;<a href=\"https://www.d20pfsrd.com/gamemastering/combat#TOC-Standard-Actions\">standard action</a>. At 13th level, a bard can start a bardic performance as a&nbsp;<a href=\"https://www.d20pfsrd.com/gamemastering/combat#TOC-Swift-Actions\">swift action</a>.</p>\n<p>Each bardic performance has audible&nbsp;<a href=\"https://www.d20pfsrd.com/magic#TOC-Components\">components</a>, visual&nbsp;<a href=\"https://www.d20pfsrd.com/magic#TOC-Components\">components</a>, or both.</p>\n<p>If a bardic performance has audible components, the targets must be able to hear the bard for the performance to have any effect, and many such performances are language dependent (as noted in the description). A&nbsp;<a href=\"https://www.d20pfsrd.com/gamemastering/conditions#TOC-Deafened\">deaf</a>&nbsp;bard has a 20% chance to fail when attempting to use a bardic performance with an audible component. If he fails this check, the attempt still counts against his daily limit. Deaf creatures are immune to bardic performances with audible components.</p>\n<p>If a bardic performance has a visual component, the targets must have line of sight to the bard for the performance to have any effect. A&nbsp;<a href=\"https://www.d20pfsrd.com/gamemastering/conditions#TOC-Blinded\">blind</a>&nbsp;bard has a 50% chance to fail when attempting to use a bardic performance with a visual component. If he fails this check, the attempt still counts against his daily limit. Blind creatures are immune to bardic performances with visual components.</p>"
    },
    "tags": [],
    "activation": {
      "type": "standard"
    },
    "unchainedAction": {
      "activation": {
        "cost": 2,
        "type": "action"
      }
    },
    "duration": {
      "value": "",
      "units": "round"
    },
    "range": {
      "units": "seeText"
    },
    "uses": {
      "per": "day",
      "autoDeductCharges": false
    },
    "measureTemplate": {
      "size": "0"
    },
    "actionType": "",
    "damage": {
      "parts": [],
      "critParts": [],
      "nonCritParts": []
    },
    "attackParts": [],
    "effectNotes": [],
    "attackNotes": [],
    "changes": [],
    "contextNotes": [],
    "links": {
      "children": [],
      "charges": []
    },
    "armorProf": {
      "value": []
    },
    "weaponProf": {
      "value": []
    },
    "flags": {
      "boolean": [],
      "dictionary": []
    },
    "scriptCalls": [],
    "featType": "classFeat",
    "associations": {
      "classes": [
        [
          "Bard"
        ]
      ]
    }
  },
  "effects": [],
  "folder": null,
  "sort": 0,
  "permission": {
    "default": 0
  },
  "flags": {}
}