{
  "_id": "dav4npTr6UXGQUmH",
  "name": "Beast Speech",
  "type": "feat",
  "img": "systems/pf1/icons/feats/persuasive.jpg",
  "data": {
    "description": {
      "value": "<p>The vigilante can cast @Compendium[pf1.spells.ct9fhh8uawn8e4md]{Speak with Animals}&nbsp;once per day as a spell-like ability, with a caster level equal to his character level.</p>\n<p>The vigilante must have the songbird talent to select this talent.</p>"
    },
    "tags": [],
    "activation": {
      "type": "standard"
    },
    "unchainedAction": {
      "activation": {
        "cost": 2,
        "type": "action"
      }
    },
    "duration": {
      "value": "@classes.vigilante.level",
      "units": "minute"
    },
    "target": {
      "value": "self"
    },
    "range": {
      "units": "personal"
    },
    "uses": {
      "per": "day"
    },
    "actionType": "",
    "damage": {
      "parts": [],
      "critParts": [],
      "nonCritParts": []
    },
    "attackParts": [],
    "effectNotes": [],
    "attackNotes": [],
    "changes": [],
    "contextNotes": [],
    "links": {
      "children": [],
      "charges": []
    },
    "armorProf": {
      "value": []
    },
    "weaponProf": {
      "value": []
    },
    "flags": {
      "boolean": [],
      "dictionary": []
    },
    "scriptCalls": [],
    "featType": "classFeat",
    "associations": {
      "classes": [
        [
          "Vigilante"
        ]
      ]
    },
    "abilityType": "su"
  },
  "effects": [],
  "folder": null,
  "sort": 0,
  "permission": {
    "default": 0
  },
  "flags": {}
}