{
  "_id": "Id0kays3rfAKThaP",
  "name": "Bend the Grain",
  "type": "feat",
  "img": "systems/pf1/icons/spells/light-royal-1.jpg",
  "data": {
    "description": {
      "value": "<p>Once per day as a standard action, you can shape or warp wooden objects. This functions as either @Compendium[pf1.spells.10e3iwsr5jkq4q73]{Wood Shape} or @Compendium[pf1.spells.mt3gozaeg6qqy180]{Warp Wood}.</p>\n<p>At 11th level, you can use this ability to push wood away from you, as @Compendium[pf1.spells.ipc85wy0f0lmr0l4]{Repel Wood}.</p>\n<p>At 7th level, and again at 14th level, you can use this ability an additional time per day.</p>"
    },
    "tags": [],
    "activation": {
      "type": "standard"
    },
    "unchainedAction": {
      "activation": {
        "cost": 2,
        "type": "action"
      }
    },
    "uses": {
      "per": "day"
    },
    "actionType": "",
    "damage": {
      "parts": [],
      "critParts": [],
      "nonCritParts": []
    },
    "attackParts": [],
    "effectNotes": [],
    "attackNotes": [],
    "changes": [],
    "contextNotes": [],
    "links": {
      "children": [],
      "charges": []
    },
    "armorProf": {
      "value": []
    },
    "weaponProf": {
      "value": []
    },
    "flags": {
      "boolean": [],
      "dictionary": []
    },
    "scriptCalls": [],
    "featType": "classFeat",
    "associations": {
      "classes": [
        [
          "Oracle"
        ]
      ]
    },
    "abilityType": "sp"
  },
  "effects": [],
  "folder": null,
  "sort": 0,
  "permission": {
    "default": 0
  },
  "flags": {}
}