{
  "_id": "IeX7of9cT8M7c0xy",
  "name": "Binding Darkness",
  "type": "feat",
  "img": "systems/pf1/icons/spells/rip-water-2.jpg",
  "data": {
    "description": {
      "value": "<p>As a&nbsp;<a href=\"https://www.d20pfsrd.com/gamemastering/combat#TOC-Standard-Actions\">standard action</a>, you cast a weave of shadows at any foe within 30 feet as a ranged&nbsp;<a href=\"https://www.d20pfsrd.com/gamemastering/combat#TOC-Touch-Attacks\">touch attack</a>. The shadows&nbsp;<a href=\"https://www.d20pfsrd.com/magic/all-spells/e/entangle\">entangle</a>&nbsp;your foe for 1 round plus 1 additional round for every five wizard levels you possess. In conditions of bright light, this duration is halved (minimum 1 round). A creature&nbsp;<a href=\"https://www.d20pfsrd.com/gamemastering/conditions#TOC-Entangled\">entangled</a>&nbsp;by your shadows has&nbsp;<a href=\"https://www.d20pfsrd.com/gamemastering/combat#TOC-Concealment\">concealment</a>&nbsp;from those without&nbsp;<a href=\"https://www.d20pfsrd.com/gamemastering/special-abilities#TOC-Darkvision\">darkvision</a>&nbsp;or the ability to see in darkness, and other creatures likewise have&nbsp;<a href=\"https://www.d20pfsrd.com/gamemastering/combat#TOC-Concealment\">concealment</a>&nbsp;relative to it. You can use this ability a number of times per day equal to 3 + your&nbsp;<a href=\"https://www.d20pfsrd.com/basics-ability-scores/ability-scores#TOC-Intelligence-Int-\">Intelligence</a>&nbsp;modifier.</p>"
    },
    "tags": [],
    "activation": {
      "type": "standard"
    },
    "unchainedAction": {
      "activation": {
        "cost": 2,
        "type": "action"
      }
    },
    "duration": {
      "value": "1 + floor(@classes.wizard.level / 5)",
      "units": "round"
    },
    "range": {
      "units": "seeText"
    },
    "uses": {
      "per": "day"
    },
    "measureTemplate": {
      "size": "0"
    },
    "actionType": "",
    "damage": {
      "parts": [],
      "critParts": [],
      "nonCritParts": []
    },
    "attackParts": [],
    "effectNotes": [],
    "attackNotes": [],
    "changes": [],
    "contextNotes": [],
    "links": {
      "children": [],
      "charges": []
    },
    "armorProf": {
      "value": []
    },
    "weaponProf": {
      "value": []
    },
    "flags": {
      "boolean": [],
      "dictionary": []
    },
    "scriptCalls": [],
    "featType": "classFeat",
    "associations": {
      "classes": [
        [
          "Wizard"
        ]
      ]
    },
    "abilityType": "sp"
  },
  "effects": [],
  "folder": null,
  "sort": 0,
  "permission": {
    "default": 0
  },
  "flags": {}
}