{
  "_id": "A12owyXrgsSYpHGf",
  "name": "Blood of Heroes",
  "type": "feat",
  "img": "systems/pf1/icons/spells/light-royal-1.jpg",
  "data": {
    "description": {
      "value": "<p>As a move action, you can call upon your ancestors to grant you extra bravery in battle. You gain a +1 morale bonus on attack rolls, damage rolls, and Will saves against fear for a number of rounds equal to your Charisma bonus.</p>\n<p>At 7th level, this bonus increases to +2, and at 14th level this bonus increases to +3.</p>\n<p>You can use this ability once per day, plus one additional time per day at 5th level, and every five levels thereafter.</p>"
    },
    "tags": [],
    "activation": {
      "type": "move"
    },
    "duration": {
      "value": "@abilities.cha.moc",
      "units": "round"
    },
    "target": {
      "value": "self"
    },
    "range": {
      "units": "personal"
    },
    "uses": {
      "per": "day"
    },
    "actionType": "",
    "damage": {
      "parts": [],
      "critParts": [],
      "nonCritParts": []
    },
    "attackParts": [],
    "effectNotes": [],
    "attackNotes": [],
    "changes": [],
    "contextNotes": [],
    "links": {
      "children": [],
      "charges": []
    },
    "armorProf": {
      "value": []
    },
    "weaponProf": {
      "value": []
    },
    "flags": {
      "boolean": [],
      "dictionary": []
    },
    "scriptCalls": [],
    "featType": "classFeat",
    "associations": {
      "classes": [
        [
          "Oracle"
        ]
      ]
    },
    "abilityType": "su"
  },
  "effects": [],
  "folder": null,
  "sort": 0,
  "permission": {
    "default": 0
  },
  "flags": {}
}