{
  "_id": "xtSXGphDhzkMwbpW",
  "name": "Bonded Senses",
  "type": "feat",
  "img": "systems/pf1/icons/skills/blue_22.jpg",
  "data": {
    "description": {
      "value": "<p>At 2nd level, as a standard action, a spiritualist can share the senses of her manifested phantom, hearing, seeing, smelling, tasting, and feeling everything her phantom does.</p>\n<p>She can use this ability a number of rounds per day equal to her spiritualist level, but those rounds do not need to be consecutive.</p>\n<p>There is no maximum range for this effect, but the phantom and the spiritualist must be on the same plane. The spiritualist can end this effect as a free action.</p>"
    },
    "tags": [],
    "activation": {
      "type": "standard"
    },
    "unchainedAction": {
      "activation": {
        "cost": 2,
        "type": "action"
      }
    },
    "duration": {
      "value": "1",
      "units": "round"
    },
    "uses": {
      "per": "day"
    },
    "actionType": "",
    "damage": {
      "parts": [],
      "critParts": [],
      "nonCritParts": []
    },
    "attackParts": [],
    "effectNotes": [],
    "attackNotes": [],
    "changes": [],
    "contextNotes": [],
    "links": {
      "children": [],
      "charges": []
    },
    "armorProf": {
      "value": []
    },
    "weaponProf": {
      "value": []
    },
    "flags": {
      "boolean": [],
      "dictionary": []
    },
    "scriptCalls": [],
    "featType": "classFeat",
    "associations": {
      "classes": [
        [
          "Spiritualist"
        ]
      ]
    },
    "abilityType": "su"
  },
  "effects": [],
  "folder": null,
  "sort": 0,
  "permission": {
    "default": 0
  },
  "flags": {}
}