{
  "_id": "WNi2SBF6Z2zhBMCl",
  "name": "Challenge (CAV)",
  "type": "feat",
  "img": "systems/pf1/icons/skills/light_05.jpg",
  "data": {
    "description": {
      "value": "<p>Once per day, a cavalier can challenge a foe to combat. As a swift action, the cavalier chooses one target within sight to challenge. The cavalier&rsquo;s melee attacks deal extra damage whenever the attacks are made against the target of his challenge. This extra damage is equal to the cavalier&rsquo;s level.</p>\n<p>The cavalier can use this ability once per day at 1st level, plus one additional time per day for every three levels beyond 1st, to a maximum of seven times per day at 19th level.</p>"
    },
    "tags": [],
    "activation": {
      "type": "swift"
    },
    "unchainedAction": {
      "activation": {
        "type": "action"
      }
    },
    "target": {
      "value": "one creature"
    },
    "range": {
      "units": "seeText"
    },
    "uses": {
      "per": "day"
    },
    "measureTemplate": {
      "size": "0"
    },
    "actionType": "",
    "damage": {
      "parts": [],
      "critParts": [],
      "nonCritParts": []
    },
    "attackParts": [],
    "effectNotes": [],
    "attackNotes": [],
    "changes": [],
    "contextNotes": [],
    "links": {
      "children": [],
      "charges": []
    },
    "armorProf": {
      "value": []
    },
    "weaponProf": {
      "value": []
    },
    "flags": {
      "boolean": [],
      "dictionary": []
    },
    "scriptCalls": [],
    "featType": "classFeat",
    "associations": {
      "classes": [
        [
          "Cavalier"
        ]
      ]
    },
    "abilityType": "ex"
  },
  "effects": [],
  "folder": null,
  "sort": 0,
  "permission": {
    "default": 0
  },
  "flags": {}
}