{
  "_id": "DdEqBho3KmfNC5Fp",
  "name": "City Spirit",
  "type": "feat",
  "img": "systems/pf1/icons/skills/green_03.jpg",
  "data": {
    "description": {
      "value": "<p>As a swift action, the shaman channels the city’s spirit through herself, gaining a +4 bonus on all Dexterity- and Wisdom-based skill checks.</p>\n<p>She can use this ability for a number of rounds per day equal to 3 + her Charisma modifier. These rounds need not be consecutive.</p>"
    },
    "tags": [],
    "activation": {
      "type": "swift"
    },
    "unchainedAction": {
      "activation": {
        "type": "action"
      }
    },
    "duration": {
      "value": "1",
      "units": "round"
    },
    "target": {
      "value": "self"
    },
    "range": {
      "units": "personal"
    },
    "uses": {
      "per": "day"
    },
    "actionType": "",
    "damage": {
      "parts": [],
      "critParts": [],
      "nonCritParts": []
    },
    "attackParts": [],
    "effectNotes": [],
    "attackNotes": [],
    "changes": [],
    "contextNotes": [],
    "links": {
      "children": [],
      "charges": []
    },
    "armorProf": {
      "value": []
    },
    "weaponProf": {
      "value": []
    },
    "flags": {
      "boolean": [],
      "dictionary": []
    },
    "scriptCalls": [],
    "featType": "classFeat",
    "associations": {
      "classes": [
        [
          "Shaman"
        ]
      ]
    },
    "abilityType": "su"
  },
  "effects": [],
  "folder": null,
  "sort": 0,
  "permission": {
    "default": 0
  },
  "flags": {}
}