{
  "_id": "ZMTpED4Ox86Wqybg",
  "name": "Drain Vibrancy",
  "type": "feat",
  "img": "systems/pf1/icons/spells/slice-spirit-3.jpg",
  "data": {
    "description": {
      "value": "<p>At 13th level, you can drain the color and vitality from the world around you. Three times per day, as a standard action you can drain vibrancy within a 30-foot radius, causing the area and all creatures within it to become pale and sallow. Each living creature in the area must succeed at a Fortitude save (DC = 10 + half your psychic level + your Wisdom modifier) or take 1 temporary negative level as their life force drains away.</p>\n<p>If you’re at least 17th level, a creature that fails its saving throw takes 2 temporary negative levels instead.</p>"
    },
    "tags": [],
    "activation": {
      "type": "standard"
    },
    "unchainedAction": {
      "activation": {
        "cost": 2,
        "type": "action"
      }
    },
    "duration": {
      "units": "inst"
    },
    "target": {
      "value": "creatures within range"
    },
    "range": {
      "value": "30",
      "units": "ft"
    },
    "uses": {
      "per": "day"
    },
    "actionType": "save",
    "damage": {
      "parts": [],
      "critParts": [],
      "nonCritParts": []
    },
    "attackParts": [],
    "ability": {
      "damage": ""
    },
    "save": {
      "dc": "0",
      "type": "fort",
      "description": "Fortitude negates"
    },
    "effectNotes": [],
    "attackNotes": [],
    "changes": [],
    "contextNotes": [],
    "links": {
      "children": [],
      "charges": []
    },
    "armorProf": {
      "value": []
    },
    "weaponProf": {
      "value": []
    },
    "flags": {
      "boolean": [],
      "dictionary": []
    },
    "scriptCalls": [],
    "featType": "classFeat",
    "associations": {
      "classes": [
        [
          "Psychic"
        ]
      ]
    }
  },
  "effects": [],
  "folder": null,
  "sort": 0,
  "permission": {
    "default": 0
  },
  "flags": {}
}