{
  "_id": "VKjlYyKkb0WE14v6",
  "name": "Elemental Allies",
  "type": "feat",
  "img": "systems/pf1/icons/spells/light-royal-1.jpg",
  "data": {
    "description": {
      "value": "<p>The beings tied to the fundamental elements can hear your calls plainly when you seek aid from them. When casting&nbsp;summon monster&nbsp;spells to summon elementals with the air, earth, fire, or water subtype, you can cast the spell as a standard action instead of a casting time of 1 round.</p>\n<p>You can use this ability a number of times per day equal to your oracle level.</p>\n<p>You must be at least 7th level to select this revelation.</p>"
    },
    "tags": [],
    "activation": {
      "type": "free"
    },
    "unchainedAction": {
      "activation": {
        "type": "free"
      }
    },
    "duration": {
      "units": "inst"
    },
    "target": {
      "value": "creature summoned"
    },
    "uses": {
      "per": "day"
    },
    "actionType": "",
    "damage": {
      "parts": [],
      "critParts": [],
      "nonCritParts": []
    },
    "attackParts": [],
    "effectNotes": [],
    "attackNotes": [],
    "changes": [],
    "contextNotes": [],
    "links": {
      "children": [],
      "charges": []
    },
    "armorProf": {
      "value": []
    },
    "weaponProf": {
      "value": []
    },
    "flags": {
      "boolean": [],
      "dictionary": []
    },
    "scriptCalls": [],
    "featType": "classFeat",
    "associations": {
      "classes": [
        [
          "Oracle"
        ]
      ]
    },
    "abilityType": "su"
  },
  "effects": [],
  "folder": null,
  "sort": 0,
  "permission": {
    "default": 0
  },
  "flags": {}
}