{
  "_id": "gUIzLmnJVLDmhnvB",
  "name": "Energy Font",
  "type": "feat",
  "img": "systems/pf1/icons/skills/light_04.jpg",
  "data": {
    "description": {
      "value": "<p>You can channel energy a number of times per day equal to 1 + your Charisma modifier. Choose whether you channel positive or negative energy each time you contact a hierophant spirit; this choice must match the spirit’s faith.</p>\n<p>If you choose positive energy, add&nbsp;cure&nbsp;spells of each level you can cast from the cleric list to your medium spell list and spells known. Otherwise, add&nbsp;inflict&nbsp;spells in the same way. These spells count as divine, as in the divine surge spirit power.</p>"
    },
    "tags": [],
    "activation": {
      "type": "standard"
    },
    "unchainedAction": {
      "activation": {
        "cost": 2,
        "type": "action"
      }
    },
    "duration": {
      "units": "inst"
    },
    "target": {
      "value": "30-ft. radius burst"
    },
    "range": {
      "units": "personal"
    },
    "uses": {
      "per": "day"
    },
    "actionType": "heal",
    "damage": {
      "parts": [
        [
          "(ceil(@classes.medium.level / 2))d6",
          ""
        ]
      ],
      "critParts": [],
      "nonCritParts": []
    },
    "attackParts": [],
    "ability": {
      "damage": ""
    },
    "save": {
      "dc": "0"
    },
    "effectNotes": [],
    "attackNotes": [],
    "changes": [],
    "contextNotes": [],
    "links": {
      "children": [],
      "charges": []
    },
    "armorProf": {
      "value": []
    },
    "weaponProf": {
      "value": []
    },
    "flags": {
      "boolean": [],
      "dictionary": []
    },
    "scriptCalls": [],
    "featType": "classFeat",
    "associations": {
      "classes": [
        [
          "Medium"
        ]
      ]
    },
    "abilityType": "su"
  },
  "effects": [],
  "folder": null,
  "sort": 0,
  "permission": {
    "default": 0
  },
  "flags": {}
}