{
  "_id": "RfGBHBmFgrmyxlOJ",
  "name": "Eyes of the Streets",
  "type": "feat",
  "img": "systems/pf1/icons/spells/light-royal-1.jpg",
  "data": {
    "description": {
      "value": "<p>Once per day as a full-round action, you can summon a spirit rat, pigeon, or similar tiny creature to serve as your eyes on, above, and beneath the streets—this spirit serves as an @Compendium[pf1.spells.fmuea6pmgrylbux7]{Arcane Eye}.</p>\n<p>At 10th level, you can summon multiple such spirits; this ability functions as @Compendium[pf1.spells.68quvqg93a3da02z]{Prying Eyes}.</p>\n<p>At 15th level, this ability functions as @Compendium[pf1.spells.21ksduh3fm41vmjk]{Prying Eyes, Greater}.</p>"
    },
    "tags": [],
    "activation": {
      "type": "full"
    },
    "unchainedAction": {
      "activation": {
        "cost": 3,
        "type": "action"
      }
    },
    "uses": {
      "per": "day"
    },
    "actionType": "",
    "damage": {
      "parts": [],
      "critParts": [],
      "nonCritParts": []
    },
    "attackParts": [],
    "effectNotes": [],
    "attackNotes": [],
    "changes": [],
    "contextNotes": [],
    "links": {
      "children": [],
      "charges": []
    },
    "armorProf": {
      "value": []
    },
    "weaponProf": {
      "value": []
    },
    "flags": {
      "boolean": [],
      "dictionary": []
    },
    "scriptCalls": [],
    "featType": "classFeat",
    "associations": {
      "classes": [
        [
          "Oracle"
        ]
      ]
    },
    "abilityType": "su"
  },
  "effects": [],
  "folder": null,
  "sort": 0,
  "permission": {
    "default": 0
  },
  "flags": {}
}