{
  "_id": "XwAryoOw0A6WKTs5",
  "name": "Fleeting Glance",
  "type": "feat",
  "img": "systems/pf1/icons/feats/exhausting-critical.jpg",
  "data": {
    "description": {
      "value": "<p>At 9th level, you can turn&nbsp;<a href=\"https://www.d20pfsrd.com/basics-ability-scores/glossary#invisible\" rel=\"nofollow\">invisible</a>&nbsp;for a number of rounds per day equal to your sorcerer level. This ability functions as @Compendium[pf1.spells.cxgi0ub77t6aink1]{Invisibility, Greater}.&nbsp;These rounds need not be consecutive.</p>"
    },
    "tags": [],
    "activation": {
      "type": "swift"
    },
    "unchainedAction": {
      "activation": {
        "type": "action"
      }
    },
    "duration": {
      "value": "1",
      "units": "round"
    },
    "target": {
      "value": "Self"
    },
    "range": {
      "units": "personal"
    },
    "uses": {
      "per": "day"
    },
    "measureTemplate": {
      "size": "0"
    },
    "actionType": "",
    "damage": {
      "parts": [],
      "critParts": [],
      "nonCritParts": []
    },
    "attackParts": [],
    "effectNotes": [],
    "attackNotes": [],
    "changes": [],
    "contextNotes": [],
    "links": {
      "children": [],
      "charges": []
    },
    "armorProf": {
      "value": []
    },
    "weaponProf": {
      "value": []
    },
    "flags": {
      "boolean": [],
      "dictionary": []
    },
    "scriptCalls": [],
    "featType": "classFeat",
    "associations": {
      "classes": [
        [
          "Sorcerer"
        ]
      ]
    },
    "abilityType": "sp"
  },
  "effects": [],
  "folder": null,
  "sort": 0,
  "permission": {
    "default": 0
  },
  "flags": {}
}