{
  "_id": "Z2zeMoT94hK5jkCx",
  "name": "Heavenly Fire",
  "type": "feat",
  "img": "systems/pf1/icons/spells/beam-red-2.jpg",
  "data": {
    "description": {
      "value": "<p>Starting at 1st level, you can unleash a ray of heavenly fire as a standard action, targeting any foe within 30 feet as a ranged touch attack. Against evil creatures, this ray deals 1d4 points of damage + 1 for every two sorcerer levels you possess. This damage is divine and not subject to energy resistance or immunity. This ray heals good creatures of 1d4 points of damage + 1 for every two sorcerer levels you possess. A good creature cannot benefit from your heavenly fire more than once per day. Neutral creatures are neither harmed nor healed by this effect. You can use this ability a number of times per day equal to 3 + your&nbsp;<a href=\"https://www.d20pfsrd.com/basics-ability-scores/ability-scores#TOC-Charisma-Cha-\" rel=\"nofollow\">Charisma</a>&nbsp;modifier.</p>"
    },
    "tags": [],
    "activation": {
      "type": "standard"
    },
    "unchainedAction": {
      "activation": {
        "cost": 2,
        "type": "action"
      }
    },
    "duration": {
      "units": "inst"
    },
    "range": {
      "value": "30",
      "units": "spec"
    },
    "uses": {
      "per": "day"
    },
    "measureTemplate": {
      "size": "0"
    },
    "actionType": "rsak",
    "damage": {
      "parts": [
        [
          "1d4 + (floor(@classes.sorcerer.level / 2)",
          ""
        ]
      ],
      "critParts": [],
      "nonCritParts": []
    },
    "attackParts": [],
    "ability": {
      "attack": "",
      "damage": ""
    },
    "save": {
      "dc": "0"
    },
    "effectNotes": [],
    "attackNotes": [],
    "changes": [],
    "contextNotes": [],
    "links": {
      "children": [],
      "charges": []
    },
    "armorProf": {
      "value": []
    },
    "weaponProf": {
      "value": []
    },
    "flags": {
      "boolean": [],
      "dictionary": []
    },
    "scriptCalls": [],
    "featType": "classFeat",
    "associations": {
      "classes": [
        [
          "Sorcerer"
        ]
      ]
    },
    "abilityType": "sp"
  },
  "effects": [],
  "folder": null,
  "sort": 0,
  "permission": {
    "default": 0
  },
  "flags": {}
}