{
  "_id": "t3eiENbbesGZBnc2",
  "name": "Holy Lance",
  "type": "feat",
  "img": "systems/pf1/icons/skills/light_05.jpg",
  "data": {
    "description": {
      "value": "<p>At 8th level, you can give a weapon you touch the holy special weapon quality for a number of rounds equal to 1/2 your cleric level. You can use this ability once per day at 8th level, and an additional time per day for every four levels beyond 8th.</p>"
    },
    "tags": [],
    "activation": {
      "type": "swift"
    },
    "unchainedAction": {
      "activation": {
        "type": "action"
      }
    },
    "duration": {
      "value": "floor(@classes.cleric.level / 2)",
      "units": "round"
    },
    "target": {
      "value": "weapon touched"
    },
    "range": {
      "units": "touch"
    },
    "uses": {
      "per": "day"
    },
    "measureTemplate": {
      "size": "0"
    },
    "actionType": "",
    "damage": {
      "parts": [],
      "critParts": [],
      "nonCritParts": []
    },
    "attackParts": [],
    "effectNotes": [],
    "attackNotes": [],
    "changes": [],
    "contextNotes": [],
    "links": {
      "children": [],
      "charges": []
    },
    "armorProf": {
      "value": []
    },
    "weaponProf": {
      "value": []
    },
    "flags": {
      "boolean": [],
      "dictionary": []
    },
    "scriptCalls": [],
    "featType": "classFeat",
    "associations": {
      "classes": [
        [
          "Cleric"
        ]
      ]
    },
    "abilityType": "su"
  },
  "effects": [],
  "folder": null,
  "sort": 0,
  "permission": {
    "default": 0
  },
  "flags": {}
}