{
  "_id": "ZqKkIuGMhEoUPu2t",
  "name": "Horrific Visage",
  "type": "feat",
  "img": "systems/pf1/icons/skills/affliction_03.jpg",
  "data": {
    "description": {
      "value": "<p>At 1st level, you can draw upon your hag ancestor to cause one target to perceive you as having a horrifying appearance. As a&nbsp;<a href=\"https://www.d20pfsrd.com/gamemastering/combat#TOC-Standard-Actions\">standard action</a>, you can force one target within 30 feet to make a&nbsp;<a href=\"https://www.d20pfsrd.com/gamemastering/combat#TOC-Will\">Will</a>&nbsp;save (DC 10 + 1/2 your sorcerer level + your&nbsp;<a href=\"https://www.d20pfsrd.com/basics-ability-scores/ability-scores#TOC-Charisma-Cha-\">Charisma</a>&nbsp;modifier) or be&nbsp;<a href=\"https://www.d20pfsrd.com/gamemastering/conditions#TOC-Shaken\">shaken</a>&nbsp;for 1 round for every 2 sorcerer levels you possess (minimum 1 round). This is a mind-affecting, fear-based ability. This fear does not stack with other fear effects. You may use this ability a number of times per day equal to 3 + your&nbsp;<a href=\"https://www.d20pfsrd.com/basics-ability-scores/ability-scores#TOC-Charisma-Cha-\">Charisma</a>&nbsp;modifier.</p>"
    },
    "tags": [],
    "activation": {
      "type": "standard"
    },
    "unchainedAction": {
      "activation": {
        "cost": 2,
        "type": "action"
      }
    },
    "duration": {
      "value": "@classes.sorcerer.level < 4 ? 1 : (floor(@classes.sorcerer.level / 2))",
      "units": "round"
    },
    "target": {
      "value": "One creature"
    },
    "range": {
      "value": "30",
      "units": "spec"
    },
    "uses": {
      "per": "day"
    },
    "measureTemplate": {
      "size": "0"
    },
    "actionType": "",
    "damage": {
      "parts": [],
      "critParts": [],
      "nonCritParts": []
    },
    "attackParts": [],
    "effectNotes": [],
    "attackNotes": [],
    "changes": [],
    "contextNotes": [],
    "links": {
      "children": [],
      "charges": []
    },
    "armorProf": {
      "value": []
    },
    "weaponProf": {
      "value": []
    },
    "flags": {
      "boolean": [],
      "dictionary": []
    },
    "scriptCalls": [],
    "featType": "classFeat",
    "associations": {
      "classes": [
        [
          "Sorcerer"
        ]
      ]
    },
    "abilityType": "su"
  },
  "effects": [],
  "folder": null,
  "sort": 0,
  "permission": {
    "default": 0
  },
  "flags": {}
}