{
  "_id": "T8it0pfx9oikGEDX",
  "name": "Liberty's Blessing",
  "type": "feat",
  "img": "systems/pf1/icons/skills/blue_35.jpg",
  "data": {
    "description": {
      "value": "<p>You touch a willing creature as a standard action, granting it a boon. A creature with this boon can, as a swift action, make a saving throw against a single spell or effect it is suffering from that grants a save. The DC of the saving throw is equal to the original DC of the spell or effect. If the saving throw is successful, the effect ends. This boon lasts for 1 minute or until successfully used to remove a spell or effect, whichever duration is shorter. You can use this ability for a number of times equal to 3 + your Wisdom modifier.</p>\n<p>This power replaces the Liberation power of the Liberation Domain.</p>"
    },
    "tags": [],
    "activation": {
      "type": "standard"
    },
    "unchainedAction": {
      "activation": {
        "cost": 2,
        "type": "action"
      }
    },
    "duration": {
      "value": "1",
      "units": "minute"
    },
    "target": {
      "value": "creature touched"
    },
    "range": {
      "units": "touch"
    },
    "uses": {
      "per": "day"
    },
    "measureTemplate": {
      "size": "0"
    },
    "actionType": "",
    "damage": {
      "parts": [],
      "critParts": [],
      "nonCritParts": []
    },
    "attackParts": [],
    "effectNotes": [],
    "attackNotes": [],
    "changes": [],
    "contextNotes": [],
    "links": {
      "children": [],
      "charges": []
    },
    "armorProf": {
      "value": []
    },
    "weaponProf": {
      "value": []
    },
    "flags": {
      "boolean": [],
      "dictionary": []
    },
    "scriptCalls": [],
    "featType": "classFeat",
    "associations": {
      "classes": [
        [
          "Cleric"
        ]
      ]
    },
    "abilityType": "sp"
  },
  "effects": [],
  "folder": null,
  "sort": 0,
  "permission": {
    "default": 0
  },
  "flags": {}
}