{
  "_id": "3zggJMxuipE68IkT",
  "name": "Perfected Form",
  "type": "feat",
  "img": "systems/pf1/icons/skills/yellow_14.jpg",
  "data": {
    "description": {
      "value": "<p>You maintain an unshakable sense of who you are, and no force can compel you to be anything else. You gain a +1 sacred (if your patron is good or neutral) or profane (if your patron is evil) bonus on saving throws against polymorph, petrification, and transmutation effects. This bonus increases by 1 for every 5 cleric levels you have (maximum +5). Once per day when you succeed at a saving throw against such an effect, you can gain a surge of self-confidence as an immediate action that grants you a number of temporary hit points equal to your cleric level and a +2 morale bonus on attack rolls, skill checks, and saving throws; both effects last for 1 minute.</p>\n<p>This power replaces the Liberation power of the Liberation Domain or the Strength Surge power of the Strength Domain.</p>"
    },
    "tags": [],
    "activation": {
      "type": "immediate"
    },
    "unchainedAction": {
      "activation": {
        "type": "reaction"
      }
    },
    "duration": {
      "value": "1",
      "units": "minute"
    },
    "target": {
      "value": "self"
    },
    "range": {
      "units": "personal"
    },
    "uses": {
      "per": "day"
    },
    "measureTemplate": {
      "size": "0"
    },
    "actionType": "",
    "damage": {
      "parts": [],
      "critParts": [],
      "nonCritParts": []
    },
    "attackParts": [],
    "effectNotes": [],
    "attackNotes": [],
    "changes": [],
    "contextNotes": [],
    "links": {
      "children": [],
      "charges": []
    },
    "armorProf": {
      "value": []
    },
    "weaponProf": {
      "value": []
    },
    "flags": {
      "boolean": [],
      "dictionary": []
    },
    "scriptCalls": [],
    "featType": "classFeat",
    "associations": {
      "classes": [
        [
          "Cleric"
        ]
      ]
    },
    "abilityType": "su"
  },
  "effects": [],
  "folder": null,
  "sort": 0,
  "permission": {
    "default": 0
  },
  "flags": {}
}