{
  "_id": "tftOjAXkFFrCuBeg",
  "name": "Reveal Form",
  "type": "feat",
  "img": "systems/pf1/icons/items/inventory/badge-cross.jpg",
  "data": {
    "description": {
      "value": "<p>At 8th level, once per day as a standard action, you can invoke the name of your deity and order one shapechanged target within 30 feet to reveal its true form. The target must succeed at a Will save (DC 10 + 1/2 your inquisitor level + your Wisdom modifier) or be forced on its next turn to dispel any ongoing polymorph effects or innate shapechanging abilities to assume its natural form. If a creature affected by this ability fails its save and is for some reason unable to dispel any ongoing polymorph effects or innate shapechanging abilities, it is instead staggered for 1 round. This is a mind-affecting compulsion effect.</p>"
    },
    "tags": [],
    "activation": {
      "type": "standard"
    },
    "unchainedAction": {
      "activation": {
        "cost": 2,
        "type": "action"
      }
    },
    "duration": {
      "units": "inst"
    },
    "target": {
      "value": "one shapeshifter"
    },
    "range": {
      "value": "30",
      "units": "ft"
    },
    "uses": {
      "per": "day"
    },
    "actionType": "",
    "damage": {
      "parts": [],
      "critParts": [],
      "nonCritParts": []
    },
    "attackParts": [],
    "effectNotes": [],
    "attackNotes": [],
    "changes": [],
    "contextNotes": [],
    "links": {
      "children": [],
      "charges": []
    },
    "armorProf": {
      "value": []
    },
    "weaponProf": {
      "value": []
    },
    "flags": {
      "boolean": [],
      "dictionary": []
    },
    "scriptCalls": [],
    "featType": "classFeat",
    "associations": {
      "classes": [
        [
          "Inquisitor"
        ]
      ]
    },
    "abilityType": "su"
  },
  "effects": [],
  "folder": null,
  "sort": 0,
  "permission": {
    "default": 0
  },
  "flags": {}
}