{
  "_id": "FQiwHjr9khaqLNSU",
  "name": "Superior Psychic Magic (UC) (4 pts)",
  "type": "feat",
  "img": "systems/pf1/icons/skills/blue_26.jpg",
  "data": {
    "description": {
      "value": "<p><strong>Requirements: </strong>Aberrant subtype; advanced psychic magic evolution; summoner level 11th; Charisma 13.</p>\n<p>The eidolon has 7 points of psychic magic to spend each day. Select one spell from the following list:&nbsp;</p>\n<ul>\n<li>confusion,&nbsp;</li>\n<li>deeper darkness,&nbsp;</li>\n<li>displacement,&nbsp;</li>\n<li>jester’s jauntAPG,&nbsp;</li>\n<li>id insinuation IIOA, or&nbsp;</li>\n<li>mind thrust IIIOA.</li>\n</ul>\n<p>The eidolon can cast that spell as a psychic spell by spending 3 points of psychic energy. The caster level and save DC are the same as for basic psychic magic.</p>\n<p>This evolution can be selected more than once, selecting a different spell each time.</p>\n<p>The eidolon’s amount of psychic energy available to spend each day does not stack; it uses only the highest number of points granted by its most powerful psychic magic evolution.&nbsp;</p>\n<p>&nbsp;</p>"
    },
    "tags": [],
    "activation": {
      "type": "special"
    },
    "unchainedAction": {
      "activation": {
        "type": "special"
      }
    },
    "uses": {
      "per": "day"
    },
    "actionType": "",
    "damage": {
      "parts": [],
      "critParts": [],
      "nonCritParts": []
    },
    "attackParts": [],
    "effectNotes": [],
    "attackNotes": [],
    "changes": [],
    "contextNotes": [],
    "links": {
      "children": [],
      "charges": []
    },
    "armorProf": {
      "value": []
    },
    "weaponProf": {
      "value": []
    },
    "flags": {
      "boolean": [],
      "dictionary": []
    },
    "scriptCalls": [],
    "featType": "classFeat",
    "associations": {
      "classes": [
        [
          "Eidolon (Unchained)"
        ]
      ]
    }
  },
  "effects": [],
  "folder": null,
  "sort": 0,
  "permission": {
    "default": 0
  },
  "flags": {}
}