{
  "_id": "r8wPs0bB3WhOLxbX",
  "name": "Track",
  "type": "feat",
  "img": "systems/pf1/icons/skills/beast_01.jpg",
  "data": {
    "description": {
      "value": "<p>A ranger adds half his level (minimum 1) to&nbsp;<a href=\"https://www.d20pfsrd.com/skills/survival\">Survival</a>&nbsp;<a href=\"https://www.d20pfsrd.com/skills#TOC-Skill-Checks\">skill checks</a>&nbsp;made to follow tracks.</p>"
    },
    "tags": [],
    "activation": {
      "type": "passive"
    },
    "unchainedAction": {
      "activation": {
        "type": "passive"
      }
    },
    "uses": {
      "per": ""
    },
    "measureTemplate": {
      "size": "0"
    },
    "actionType": "",
    "damage": {
      "parts": [],
      "critParts": [],
      "nonCritParts": []
    },
    "attackParts": [],
    "effectNotes": [],
    "attackNotes": [],
    "changes": [],
    "contextNotes": [],
    "links": {
      "children": [],
      "charges": []
    },
    "armorProf": {
      "value": []
    },
    "weaponProf": {
      "value": []
    },
    "flags": {
      "boolean": [],
      "dictionary": []
    },
    "scriptCalls": [],
    "featType": "classFeat",
    "associations": {
      "classes": [
        [
          "Ranger"
        ]
      ]
    },
    "abilityType": "ex"
  },
  "effects": [],
  "folder": null,
  "sort": 0,
  "permission": {
    "default": 0
  },
  "flags": {}
}