{
  "_id": "Ezz1e4XZYlsD4KIZ",
  "name": "Nuno",
  "type": "npc",
  "img": "systems/pf1/icons/races/creature-types/fey.png",
  "data": {
    "abilities": {
      "str": {
        "value": 6
      },
      "dex": {
        "value": 15
      },
      "int": {
        "value": 13
      },
      "wis": {
        "value": 14
      },
      "cha": {
        "value": 15
      }
    },
    "attributes": {
      "hp": {
        "value": 9
      },
      "speed": {
        "land": {
          "base": 20
        },
        "burrow": {
          "base": 10
        }
      },
      "spells": {
        "usedSpellbooks": []
      }
    },
    "details": {
      "alignment": "ne",
      "cr": {
        "base": 0.5
      }
    },
    "skills": {
      "blf": {
        "rank": 1
      },
      "kdu": {
        "rank": 5
      },
      "kna": {
        "rank": 1
      },
      "per": {
        "rank": 1
      },
      "sen": {
        "rank": 1
      },
      "ste": {
        "rank": 1
      },
      "sur": {
        "rank": 1
      }
    },
    "traits": {
      "size": "tiny",
      "senses": "tremorsense 30 ft.; Perception +6",
      "dr": "2/cold iron",
      "languages": {
        "value": [
          "aklo",
          "sylvan",
          "terran"
        ]
      },
      "di": {
        "value": []
      },
      "dv": {
        "value": []
      },
      "ci": {
        "value": []
      },
      "stature": ""
    }
  },
  "token": {
    "name": "Nuno",
    "displayName": 20,
    "actorLink": false,
    "width": 1,
    "height": 1,
    "scale": 0.75,
    "mirrorX": false,
    "mirrorY": false,
    "lockRotation": false,
    "rotation": 0,
    "alpha": 1,
    "vision": false,
    "dimSight": 0,
    "brightSight": 0,
    "dimLight": 0,
    "brightLight": 0,
    "sightAngle": 0,
    "lightAngle": 0,
    "lightAlpha": 0.25,
    "lightAnimation": {
      "speed": 5,
      "intensity": 5
    },
    "disposition": -1,
    "displayBars": 20,
    "bar1": {
      "attribute": null
    },
    "bar2": {
      "attribute": null
    },
    "flags": {},
    "randomImg": false,
    "img": "systems/pf1/icons/races/creature-types/fey.png"
  },
  "items": [
    {
      "_id": "0jjH2XJVd6dzlaSm",
      "name": "Fey (Aquatic)",
      "type": "class",
      "img": "systems/pf1/icons/skills/green_10.jpg",
      "data": {
        "description": {
          "value": "<p>A fey is a creature with supernatural abilities and connections to nature or to some other force or place. Fey are usually human-shaped.</p>\n<h2><span id=\"Features\">Features</span></h2>\n<p>A fey has the following features.</p>\n<ul>\n<li>d6 Hit Die.</li>\n<li>Base attack bonus equal to 1/2 total Hit Dice (slow progression).</li>\n<li>Good&nbsp;<a href=\"https://www.d20pfsrd.com/gamemastering/combat#TOC-Reflex\">Reflex</a>&nbsp;and&nbsp;<a href=\"https://www.d20pfsrd.com/gamemastering/combat#TOC-Will\">Will</a>&nbsp;Saves.</li>\n<li>Skill points equal to 6 + Int modifier (minimum 1) per Hit Die. The following are class skills for fey: <a href=\"https://www.d20pfsrd.com/skills/acrobatics\">Acrobatics</a>, <a href=\"https://www.d20pfsrd.com/skills/bluff\">Bluff</a>, <a href=\"https://www.d20pfsrd.com/skills/climb\">Climb</a>, <a href=\"https://www.d20pfsrd.com/skills/craft\">Craft</a>, <a href=\"https://www.d20pfsrd.com/skills/diplomacy\">Diplomacy</a>, <a href=\"https://www.d20pfsrd.com/skills/disguise\">Disguise</a>, <a href=\"https://www.d20pfsrd.com/skills/escape-artist\">Escape Artist</a>, <a href=\"https://www.d20pfsrd.com/skills/fly\">Fly</a>, <a href=\"https://www.d20pfsrd.com/skills/knowledge\">Knowledge</a>&nbsp;(geography), <a href=\"https://www.d20pfsrd.com/skills/knowledge\">Knowledge</a>&nbsp;(local), <a href=\"https://www.d20pfsrd.com/skills/knowledge\">Knowledge</a>&nbsp;(nature), <a href=\"https://www.d20pfsrd.com/skills/perception\">Perception</a>, <a href=\"https://www.d20pfsrd.com/skills/perform\">Perform</a>, <a href=\"https://www.d20pfsrd.com/skills/sense-motive\">Sense Motive</a>, <a href=\"https://www.d20pfsrd.com/skills/sleight-of-hand\">Sleight of Hand</a>, <a href=\"https://www.d20pfsrd.com/skills/stealth\">Stealth</a>, <a href=\"https://www.d20pfsrd.com/skills/swim\">Swim</a>, <a href=\"https://www.d20pfsrd.com/skills/use-magic-device\">Use Magic Device</a>.</li>\n</ul>\n<h2>Traits</h2>\n<p>A fey possesses the following traits (unless otherwise noted in a creature’s entry).</p>\n<ul>\n<li><a href=\"https://www.d20pfsrd.com/gamemastering/special-abilities#TOC-Low-Light-Vision\">Low-light vision</a>.</li>\n<li>Proficient with all simple weapons and any weapons mentioned in its entry.</li>\n<li>Proficient with whatever type of armor (light, medium, or heavy) it is described as wearing, as well as all lighter types. Fey not indicated as wearing armor are not proficient with armor. Fey are proficient with shields if they are proficient with any form of armor.</li>\n<li>Fey breathe, eat, and sleep.</li>\n</ul>"
        },
        "tags": [],
        "changes": [],
        "links": "",
        "tag": "fey",
        "useCustomTag": true,
        "armorProf": {
          "value": []
        },
        "weaponProf": {
          "value": []
        },
        "flags": {
          "boolean": [],
          "dictionary": []
        },
        "scriptCalls": [],
        "classType": "racial",
        "hd": 6,
        "hp": 9,
        "skillsPerLevel": 6,
        "savingThrows": {
          "ref": {
            "value": "high"
          },
          "will": {
            "value": "high"
          }
        },
        "classSkills": {
          "acr": true,
          "apr": false,
          "art": false,
          "blf": true,
          "clm": true,
          "crf": true,
          "dip": true,
          "dev": false,
          "dis": true,
          "esc": true,
          "fly": true,
          "han": false,
          "hea": false,
          "int": false,
          "kar": false,
          "kdu": false,
          "ken": false,
          "kge": true,
          "khi": false,
          "klo": true,
          "kna": true,
          "kno": false,
          "kpl": false,
          "kre": false,
          "lin": false,
          "lor": false,
          "per": true,
          "prf": true,
          "pro": false,
          "rid": false,
          "sen": true,
          "slt": true,
          "spl": false,
          "ste": true,
          "sur": false,
          "swm": true,
          "umd": true
        }
      },
      "effects": [],
      "folder": null,
      "sort": 0,
      "permission": {
        "default": 0
      },
      "flags": {}
    },
    {
      "_id": "52ovs883uatj7wln",
      "name": "Race: Fey",
      "type": "race",
      "img": "systems/pf1/icons/skills/green_10.jpg",
      "data": {
        "description": {
          "value": "sbc | As no playable race was found a placeholder was generated."
        },
        "tags": [],
        "changes": [],
        "contextNotes": [],
        "links": {
          "children": []
        },
        "armorProf": {
          "value": []
        },
        "weaponProf": {
          "value": []
        },
        "flags": {
          "boolean": [],
          "dictionary": []
        },
        "scriptCalls": [],
        "creatureType": "fey",
        "subTypes": [
          [
            ""
          ]
        ]
      },
      "effects": [],
      "folder": null,
      "sort": 0,
      "permission": {
        "default": 0
      },
      "flags": {}
    },
    {
      "_id": "00xxpnr4o8ejplhw",
      "name": "Sense: Tremorsense",
      "type": "feat",
      "img": "systems/pf1/icons/skills/violet_14.jpg",
      "data": {
        "description": {
          "value": "A creature with tremorsense is sensitive to vibrations in the ground and can automatically pinpoint the location of anything that is in contact with the ground.\n                Aquatic creatures with tremorsense can also sense the location of creatures moving through water. The ability’s range is specified in the creature’s descriptive text."
        },
        "tags": [],
        "damage": {
          "parts": [],
          "critParts": [],
          "nonCritParts": []
        },
        "attackParts": [],
        "effectNotes": [],
        "attackNotes": [],
        "changes": [],
        "contextNotes": [],
        "links": {
          "children": [],
          "charges": []
        },
        "tag": "senseTremorsense",
        "armorProf": {
          "value": []
        },
        "weaponProf": {
          "value": []
        },
        "flags": {
          "boolean": [],
          "dictionary": []
        },
        "scriptCalls": [],
        "featType": "racial",
        "associations": {
          "classes": []
        },
        "abilityType": "ex"
      },
      "effects": [],
      "folder": null,
      "sort": 0,
      "permission": {
        "default": 0
      },
      "flags": {}
    },
    {
      "_id": "7jkaackxjz3lc5bo",
      "name": "Ability Focus",
      "type": "feat",
      "img": "systems/pf1/icons/skills/yellow_36.jpg",
      "data": {
        "description": {
          "value": "sbc | As Ability Focus could not be found in any compendium, a placeholder was generated."
        },
        "tags": [],
        "damage": {
          "parts": [],
          "critParts": [],
          "nonCritParts": []
        },
        "attackParts": [],
        "effectNotes": [],
        "attackNotes": [],
        "changes": [],
        "contextNotes": [],
        "links": {
          "children": [],
          "charges": []
        },
        "armorProf": {
          "value": []
        },
        "weaponProf": {
          "value": []
        },
        "flags": {
          "boolean": [],
          "dictionary": []
        },
        "scriptCalls": [],
        "associations": {
          "classes": []
        }
      },
      "effects": [],
      "folder": null,
      "sort": 0,
      "permission": {
        "default": 0
      },
      "flags": {}
    },
    {
      "_id": "wj53y1fk4igq6zt5",
      "name": "Special Quality: Wax Locator",
      "type": "feat",
      "img": "systems/pf1/icons/skills/yellow_36.jpg",
      "data": {
        "description": {
          "value": "sbc | Placeholder for Special Qualities, which in most statblocks are listed under SQ in the statistics block, but described in the Special Abilities. Remove duplicates as needed!"
        },
        "tags": [],
        "damage": {
          "parts": [],
          "critParts": [],
          "nonCritParts": []
        },
        "attackParts": [],
        "effectNotes": [],
        "attackNotes": [],
        "changes": [],
        "contextNotes": [],
        "links": {
          "children": [],
          "charges": []
        },
        "armorProf": {
          "value": []
        },
        "weaponProf": {
          "value": []
        },
        "flags": {
          "boolean": [],
          "dictionary": []
        },
        "scriptCalls": [],
        "featType": "misc",
        "associations": {
          "classes": []
        }
      },
      "effects": [],
      "folder": null,
      "sort": 0,
      "permission": {
        "default": 0
      },
      "flags": {}
    },
    {
      "_id": "g5zicd38w3vjpfbq",
      "name": "Ant Affinity",
      "type": "feat",
      "img": "systems/pf1/icons/skills/yellow_36.jpg",
      "data": {
        "description": {
          "value": "sbc | Placeholder"
        },
        "tags": [],
        "damage": {
          "parts": [],
          "critParts": [],
          "nonCritParts": []
        },
        "attackParts": [],
        "effectNotes": [],
        "attackNotes": [],
        "changes": [],
        "contextNotes": [],
        "links": {
          "children": [],
          "charges": []
        },
        "armorProf": {
          "value": []
        },
        "weaponProf": {
          "value": []
        },
        "flags": {
          "boolean": [],
          "dictionary": []
        },
        "scriptCalls": [],
        "featType": "classFeat",
        "associations": {
          "classes": []
        },
        "abilityType": ""
      },
      "effects": [],
      "folder": null,
      "sort": 0,
      "permission": {
        "default": 0
      },
      "flags": {}
    },
    {
      "_id": "a4e8m3pv3h5tdfrs",
      "name": "Slam",
      "type": "attack",
      "img": "systems/pf1/icons/items/inventory/monster-forearm.jpg",
      "data": {
        "tags": [],
        "activation": {
          "type": "attack"
        },
        "unchainedAction": {
          "activation": {
            "type": "attack"
          }
        },
        "duration": {
          "units": "inst"
        },
        "range": {
          "value": "",
          "units": "melee"
        },
        "attackName": "Slam",
        "actionType": "mwak",
        "attackBonus": "0",
        "damage": {
          "parts": [
            [
              "1d2+0",
              "B"
            ]
          ],
          "critParts": [],
          "nonCritParts": []
        },
        "attackParts": [],
        "ability": {
          "attack": "str",
          "damage": "str"
        },
        "effectNotes": [],
        "attackNotes": [
          "slam +0 (1d2-2 )"
        ],
        "links": {
          "children": [],
          "charges": [],
          "ammunition": []
        },
        "flags": {
          "boolean": [],
          "dictionary": []
        },
        "scriptCalls": [],
        "attackType": "natural",
        "conditionals": []
      },
      "effects": [],
      "folder": null,
      "sort": 0,
      "permission": {
        "default": 0
      },
      "flags": {}
    },
    {
      "_id": "iivvmdllpvfn9om2",
      "name": "Special Attack: Nuno’s Curse",
      "type": "attack",
      "img": "systems/pf1/icons/skills/yellow_36.jpg",
      "data": {
        "description": {
          "value": "sbc | Placeholder for Special Attacks, which in most statblocks are listed under 'Special Attacks' in the statistics block, but are described in the 'Special Abilities' block. Remove duplicates as needed!"
        },
        "tags": [],
        "damage": {
          "parts": [],
          "critParts": [],
          "nonCritParts": []
        },
        "attackParts": [],
        "effectNotes": [],
        "attackNotes": [],
        "links": {
          "children": [],
          "charges": [],
          "ammunition": []
        },
        "flags": {
          "boolean": [],
          "dictionary": []
        },
        "scriptCalls": [],
        "attackType": "misc",
        "conditionals": []
      },
      "effects": [],
      "folder": null,
      "sort": 0,
      "permission": {
        "default": 0
      },
      "flags": {}
    },
    {
      "_id": "e14o0l3p9v8tu7u8",
      "name": "Ecology",
      "type": "feat",
      "img": "icons/environment/wilderness/tree-oak.webp",
      "data": {
        "description": {
          "value": "<div><strong>Environment</strong>:  any warm land or underground</div><div><strong>Organization</strong>:  solitary</div><div><strong>Treasure</strong>:  standard</div>"
        },
        "tags": [],
        "damage": {
          "parts": [],
          "critParts": [],
          "nonCritParts": []
        },
        "attackParts": [],
        "effectNotes": [],
        "attackNotes": [],
        "changes": [],
        "contextNotes": [],
        "links": {
          "children": [],
          "charges": []
        },
        "armorProf": {
          "value": []
        },
        "weaponProf": {
          "value": []
        },
        "flags": {
          "boolean": [],
          "dictionary": []
        },
        "scriptCalls": [],
        "featType": "misc",
        "associations": {
          "classes": []
        }
      },
      "effects": [],
      "folder": null,
      "sort": 0,
      "permission": {
        "default": 0
      },
      "flags": {}
    },
    {
      "_id": "80ghcwywazg69ts1",
      "name": "Ant Affinity",
      "type": "feat",
      "img": "systems/pf1/icons/skills/yellow_36.jpg",
      "data": {
        "description": {
          "value": "Ants will never attack a nuno. A nuno can control ants and ant swarms as a druid’s wild empathy, with a +4 racial bonus on their checks. While ants are normally mindless, the nuno imparts to them a modicum of implanted intelligence, allowing nunos to train ants to perform tasks as necessary to suit the nunos’ fancies."
        },
        "tags": [],
        "damage": {
          "parts": [],
          "critParts": [],
          "nonCritParts": []
        },
        "attackParts": [],
        "effectNotes": [],
        "attackNotes": [],
        "changes": [],
        "contextNotes": [],
        "links": {
          "children": [],
          "charges": []
        },
        "armorProf": {
          "value": []
        },
        "weaponProf": {
          "value": []
        },
        "flags": {
          "boolean": [],
          "dictionary": []
        },
        "scriptCalls": [],
        "featType": "classFeat",
        "associations": {
          "classes": []
        },
        "abilityType": "su"
      },
      "effects": [],
      "folder": null,
      "sort": 0,
      "permission": {
        "default": 0
      },
      "flags": {}
    },
    {
      "_id": "19bko4e10en7ey7f",
      "name": "Nuno’s Curse",
      "type": "feat",
      "img": "systems/pf1/icons/skills/yellow_36.jpg",
      "data": {
        "description": {
          "value": "A nuno can curse any creature it touches unless the creature succeeds at a DC 14 Will save. A creature that harms the nuno, damages the nuno’s home, or steals the nuno’s belongings must also save against the curse with a -2 penalty. A creature that succeeds at its save is immune to that nuno’s curse for 24 hours. A creature under the effects of the nuno’s curse experiences horrific swelling and hair growth in a location the nuno touched or that was associated with harming the nuno (for instance, a creature’s foot if that creature kicked over the nuno’s anthill). This swelling imparts a -2 penalty to Dexterity and causes the affected area to occasionally ooze or expel black pus. The DC to remove a nuno’s curse with spells and abilities like remove curse is 10 higher than normal (24 for a typical nuno). A nuno can remove its curse as a standard action, and when a nuno dies, all its active curses end immediately. The effects of multiple nuno’s curses don’t stack. The save DC is Charisma-based."
        },
        "tags": [],
        "damage": {
          "parts": [],
          "critParts": [],
          "nonCritParts": []
        },
        "attackParts": [],
        "effectNotes": [],
        "attackNotes": [],
        "changes": [],
        "contextNotes": [],
        "links": {
          "children": [],
          "charges": []
        },
        "armorProf": {
          "value": []
        },
        "weaponProf": {
          "value": []
        },
        "flags": {
          "boolean": [],
          "dictionary": []
        },
        "scriptCalls": [],
        "featType": "classFeat",
        "associations": {
          "classes": []
        },
        "abilityType": "su"
      },
      "effects": [],
      "folder": null,
      "sort": 0,
      "permission": {
        "default": 0
      },
      "flags": {}
    },
    {
      "_id": "a0aec9ptds5choyy",
      "name": "Wax Locator",
      "type": "feat",
      "img": "systems/pf1/icons/skills/yellow_36.jpg",
      "data": {
        "description": {
          "value": "Any creature cursed by a nuno can spend 1 minute pouring molten wax into a spoon and then into a container of water, causing the wax to run in the direction of the nuno. This allows the accursed creature to find the nuno no matter where it hides and attempt to put an end to the curse."
        },
        "tags": [],
        "damage": {
          "parts": [],
          "critParts": [],
          "nonCritParts": []
        },
        "attackParts": [],
        "effectNotes": [],
        "attackNotes": [],
        "changes": [],
        "contextNotes": [],
        "links": {
          "children": [],
          "charges": []
        },
        "armorProf": {
          "value": []
        },
        "weaponProf": {
          "value": []
        },
        "flags": {
          "boolean": [],
          "dictionary": []
        },
        "scriptCalls": [],
        "featType": "classFeat",
        "associations": {
          "classes": []
        },
        "abilityType": "su"
      },
      "effects": [],
      "folder": null,
      "sort": 0,
      "permission": {
        "default": 0
      },
      "flags": {}
    },
    {
      "_id": "VLHSzXRw0JQ2jQfE",
      "name": "sbc | Conversion Buff",
      "type": "buff",
      "img": "systems/pf1/icons/skills/yellow_36.jpg",
      "data": {
        "description": {
          "value": "<h2>sbc | Conversion Buff</h2>\n                        This Buff was created by <strong>sbc</strong> to compensate for differences between the input and the values FoundryVTT calculates automatically.\n                        <br><br>\n                        Especially when the pathfinder system gets upgraded, entries in compendiums get updated or foundry changes in some way, this buff may become outdated.\n                        <br><br>\n                        For most mooks the conversion should more or less work, but for important NPCs or creatures it is adviced to double check the conversion manually."
        },
        "tags": [],
        "changes": [
          {
            "formula": "4",
            "modifier": "untypedPerm",
            "operator": "add",
            "priority": 0,
            "subTarget": "cmb",
            "target": "misc",
            "value": 4,
            "id": "kkwepru8"
          },
          {
            "formula": "-6",
            "modifier": "untypedPerm",
            "operator": "add",
            "priority": 0,
            "subTarget": "mhp",
            "target": "misc",
            "value": -6,
            "id": "en4mpr7n"
          }
        ],
        "contextNotes": [],
        "links": {
          "children": []
        },
        "tag": "sbcConversionBuff",
        "useCustomTag": true,
        "flags": {
          "boolean": [],
          "dictionary": []
        },
        "scriptCalls": [],
        "buffType": "perm",
        "active": true,
        "hideFromToken": true
      },
      "effects": [],
      "folder": null,
      "sort": 0,
      "permission": {
        "default": 0,
        "iM1ACTqH0Ml6HJtd": 3
      },
      "flags": {}
    }
  ],
  "effects": [],
  "folder": null,
  "sort": 0,
  "permission": {
    "default": 0
  },
  "flags": {}
}