{
  "_id": "VRlQCop5JRhAdKg5",
  "name": "Kin Seeker",
  "type": "npc",
  "img": "systems/pf1/icons/races/orc.png",
  "data": {
    "attributes": {
      "naturalAC": "+7",
      "hp": {
        "value": 30
      },
      "speed": {
        "land": {
          "base": 40
        }
      },
      "spells": {
        "usedSpellbooks": []
      }
    },
    "details": {
      "alignment": "ne",
      "cr": {
        "base": 6
      }
    },
    "traits": {
      "senses": "darkvision 60 ft., low-light vision; Perception +6",
      "languages": {
        "value": []
      },
      "di": {
        "value": []
      },
      "dv": {
        "value": []
      },
      "ci": {
        "value": []
      },
      "stature": ""
    }
  },
  "token": {
    "name": "Kin Seeker",
    "displayName": 20,
    "actorLink": false,
    "width": 1,
    "height": 1,
    "scale": 1,
    "mirrorX": false,
    "mirrorY": false,
    "lockRotation": false,
    "rotation": 0,
    "alpha": 1,
    "vision": false,
    "dimSight": 0,
    "brightSight": "60",
    "dimLight": 0,
    "brightLight": 0,
    "sightAngle": 0,
    "lightAngle": 0,
    "lightAlpha": 0.25,
    "lightAnimation": {
      "speed": 5,
      "intensity": 5
    },
    "disposition": -1,
    "displayBars": 20,
    "bar1": {
      "attribute": null
    },
    "bar2": {
      "attribute": null
    },
    "flags": {
      "pf1": {
        "lowLightVision": true
      }
    },
    "randomImg": false,
    "img": "systems/pf1/icons/races/orc.png"
  },
  "items": [
    {
      "_id": "JOuAdPAOTat7d5v6",
      "name": "Orc",
      "type": "race",
      "img": "systems/pf1/icons/races/orc.png",
      "data": {
        "description": {
          "value": "<h2>Starting Age</h2>\n<table style=\"border-spacing: 0px; background-color: #ffffff; margin: 10px; table-layout: fixed; border-color: #888888; min-width: 200px; color: #333333; font-family: Varela, sans-serif;\" border=\"1\" cellpadding=\"5\">\n<thead style=\"box-sizing: border-box; background-color: #cfe2f3;\">\n<tr style=\"box-sizing: border-box;\">\n<th class=\"text\" style=\"box-sizing: border-box; padding: 2px; text-align: left; border: 1px solid #888888;\">Adulthood</th>\n<th class=\"text\" style=\"box-sizing: border-box; padding: 2px; text-align: left; border: 1px solid #888888;\">Intuitive<span style=\"box-sizing: border-box; position: relative; font-size: 10px; line-height: 0; vertical-align: baseline; top: -0.5em;\">1</span></th>\n<th class=\"text\" style=\"box-sizing: border-box; padding: 2px; text-align: left; border: 1px solid #888888;\">Self-Taught<span style=\"box-sizing: border-box; position: relative; font-size: 10px; line-height: 0; vertical-align: baseline; top: -0.5em;\">2</span></th>\n<th class=\"text\" style=\"box-sizing: border-box; padding: 2px; text-align: left; border: 1px solid #888888;\">Trained<span style=\"box-sizing: border-box; position: relative; font-size: 10px; line-height: 0; vertical-align: baseline; top: -0.5em;\">3</span></th>\n</tr>\n</thead>\n<tbody style=\"box-sizing: border-box;\">\n<tr style=\"box-sizing: border-box;\">\n<td class=\"text\" style=\"box-sizing: border-box; padding: 2px; vertical-align: top; border: 1px solid #888888;\">12 years</td>\n<td class=\"text\" style=\"box-sizing: border-box; padding: 2px; vertical-align: top; border: 1px solid #888888;\">+1d4 years<br style=\"box-sizing: border-box;\" />(13 &ndash; 16 years)</td>\n<td class=\"text\" style=\"box-sizing: border-box; padding: 2px; vertical-align: top; border: 1px solid #888888;\">+1d6 years<br style=\"box-sizing: border-box;\" />(13 &ndash; 18 years)</td>\n<td class=\"text\" style=\"box-sizing: border-box; padding: 2px; vertical-align: top; border: 1px solid #888888;\">+2d6 years<br style=\"box-sizing: border-box;\" />(14 &ndash; 24 years)</td>\n</tr>\n</tbody>\n</table>\n<p><sup style=\"box-sizing: border-box; user-select: text; color: #191813;\">1</sup><span style=\"color: #191813; font-size: 13px;\">&nbsp;This category includes barbarians, oracles, rogues, and sorcerers.</span><br style=\"box-sizing: border-box; user-select: text; color: #191813; font-size: 13px;\" /><sup style=\"box-sizing: border-box; user-select: text; color: #191813;\">2</sup><span style=\"color: #191813; font-size: 13px;\">&nbsp;This category includes bards, cavaliers, fighters, gunslingers, paladins, rangers, summoners, and witches.</span><br style=\"box-sizing: border-box; user-select: text; color: #191813; font-size: 13px;\" /><sup style=\"box-sizing: border-box; user-select: text; color: #191813;\">3</sup><span style=\"color: #191813; font-size: 13px;\"> This category includes alchemists, clerics, druids, inquisitors, magi, monks, and wizards.</span></p>\n<h2>Height and Weight</h2>\n<table style=\"border-spacing: 0px; background-color: #ffffff; margin: 10px; table-layout: fixed; border-color: #888888; min-width: 200px; color: #333333; font-family: Varela, sans-serif;\" border=\"1\" cellpadding=\"5\">\n<thead style=\"box-sizing: border-box; background-color: #cfe2f3;\">\n<tr style=\"box-sizing: border-box;\">\n<th class=\"text\" style=\"box-sizing: border-box; padding: 2px; text-align: left; border: 1px solid #888888;\">Gender</th>\n<th class=\"text\" style=\"box-sizing: border-box; padding: 2px; text-align: left; border: 1px solid #888888;\">Base Height</th>\n<th class=\"text\" style=\"box-sizing: border-box; padding: 2px; text-align: left; border: 1px solid #888888;\">Height Modifier</th>\n<th class=\"text\" style=\"box-sizing: border-box; padding: 2px; text-align: left; border: 1px solid #888888;\">Base Weight</th>\n<th class=\"text\" style=\"box-sizing: border-box; padding: 2px; text-align: left; border: 1px solid #888888;\">Weight Modifier</th>\n</tr>\n</thead>\n<tbody style=\"box-sizing: border-box;\">\n<tr style=\"box-sizing: border-box;\">\n<td class=\"text\" style=\"box-sizing: border-box; padding: 2px; vertical-align: top; border: 1px solid #888888;\">Male</td>\n<td class=\"text\" style=\"box-sizing: border-box; padding: 2px; vertical-align: top; border: 1px solid #888888;\">5 ft. 1 in.</td>\n<td class=\"text\" style=\"box-sizing: border-box; padding: 2px; vertical-align: top; border: 1px solid #888888;\">+2d12 in.<br style=\"box-sizing: border-box;\" />(5 ft. 3 in. &ndash; 7 ft. 1 in.)</td>\n<td class=\"text\" style=\"box-sizing: border-box; padding: 2px; vertical-align: top; border: 1px solid #888888;\">160 lbs.</td>\n<td class=\"text\" style=\"box-sizing: border-box; padding: 2px; vertical-align: top; border: 1px solid #888888;\">+(2d12&times;7 lbs.)<br style=\"box-sizing: border-box;\" />(174 &ndash; 328 lbs.)</td>\n</tr>\n<tr style=\"box-sizing: border-box; background-color: #f3f3f3;\">\n<td class=\"text\" style=\"box-sizing: border-box; padding: 2px; vertical-align: top; border: 1px solid #888888;\">Female</td>\n<td class=\"text\" style=\"box-sizing: border-box; padding: 2px; vertical-align: top; border: 1px solid #888888;\">4 ft. 9 in.</td>\n<td class=\"text\" style=\"box-sizing: border-box; padding: 2px; vertical-align: top; border: 1px solid #888888;\">+2d12 in.<br style=\"box-sizing: border-box;\" />(4 ft. 11 in. &ndash; 6 ft. 9 in.)</td>\n<td class=\"text\" style=\"box-sizing: border-box; padding: 2px; vertical-align: top; border: 1px solid #888888;\">120 lbs.</td>\n<td class=\"text\" style=\"box-sizing: border-box; padding: 2px; vertical-align: top; border: 1px solid #888888;\">+(2d12x7 lbs.)<br style=\"box-sizing: border-box;\" />(134 &ndash; 288 lbs.)</td>\n</tr>\n</tbody>\n</table>\n<h2>Standard Racial Traits</h2>\n<ul>\n<li><strong>Ability Score Modifiers</strong>: Orcs are brutal and savage. They gain +4&nbsp;<a href=\"https://www.d20pfsrd.com/classes/core-classes/cleric/domains/paizo-domains/strength-domain\">Strength</a>, &ndash;2&nbsp;<a href=\"https://www.d20pfsrd.com/basics-ability-scores/ability-scores#TOC-Intelligence-Int-\">Intelligence</a>, &ndash;2&nbsp;<a href=\"https://www.d20pfsrd.com/basics-ability-scores/ability-scores#TOC-Wisdom-Wis-\">Wisdom</a>, and &ndash;2&nbsp;<a href=\"https://www.d20pfsrd.com/basics-ability-scores/ability-scores#TOC-Charisma-Cha-\">Charisma</a>.</li>\n<li><strong>Type:</strong> Orcs are&nbsp;<a href=\"https://www.d20pfsrd.com/bestiary/rules-for-monsters/creature-types#TOC-Humanoid\">humanoids</a>&nbsp;with the&nbsp;<a href=\"https://www.d20pfsrd.com/bestiary/rules-for-monsters/creature-types#subtype-orc\">orc</a>&nbsp;subtype.</li>\n<li><strong>Size:</strong> Orcs are Medium creatures and thus have no bonuses or penalties due to their size.</li>\n<li><strong>Base Speed</strong>: Orcs have a base speed of 30 feet.</li>\n<li><strong>Languages:</strong> Orcs begin play speaking Common and Orc. Orcs with high&nbsp;<a href=\"https://www.d20pfsrd.com/basics-ability-scores/ability-scores#TOC-Intelligence-Int-\">Intelligence</a>&nbsp;scores can chose from the following: Dwarven, Giant, Gnoll, Goblin, Undercommon. See the&nbsp;<a href=\"https://www.d20pfsrd.com/skills/linguistics\">Linguistics skill page</a>&nbsp;for more information about these languages.</li>\n</ul>\n<h3>Offense Racial Traits</h3>\n<ul>\n<li><strong>Ferocity:</strong> Orcs possess the&nbsp;<a href=\"https://www.d20pfsrd.com/bestiary/rules-for-monsters/universal-monster-rules#TOC-Ferocity-Ex-\">ferocity</a> ability which allows them to remain conscious and continue fighting even if their hit point totals fall below 0. Orcs are still @Compendium[pf1.conditions.6LpiJdKskDFD4zLC]{staggered} at 0 <a href=\"https://www.d20pfsrd.com/gamemastering/combat#TOC-Hit-Points\">hit points</a>&nbsp;or lower and lose 1 hit point each round as normal.</li>\n<li><strong>Weapon Familiarity</strong>: Orcs are always proficient with @Compendium[pf1.weapons-and-ammo.Wx22UaMqWgCrYi7r]{greataxes} and @Compendium[pf1.weapons-and-ammo.v8Ee5Iagp62xsUQZ]{falchions}, and treat any weapon with the word &ldquo;orc&rdquo; in its name as a martial weapon.</li>\n</ul>\n<h3>Senses Racial Traits</h3>\n<ul>\n<li><strong>Darkvision:</strong> Orcs can see perfectly in the dark up to 60 feet.</li>\n</ul>\n<h3>Weakness Racial Traits</h3>\n<ul>\n<li><strong>Light Sensitivity</strong>: Orcs are @Compendium[pf1.conditions.2pICNUG3g7O4obyu]{dazzled} in areas of bright sunlight or within the radius of a @Compendium[pf1.spells.7x2z0i8rcx7s81fk]{Daylight}&nbsp;spell.</li>\n</ul>"
        },
        "tags": [],
        "changes": [
          {
            "_id": "ga5x8r0y",
            "formula": "4",
            "operator": "add",
            "subTarget": "str",
            "modifier": "racial",
            "priority": 0,
            "value": 0,
            "target": "ability"
          },
          {
            "_id": "2h1sr66x",
            "formula": "-2",
            "operator": "add",
            "subTarget": "int",
            "modifier": "racial",
            "priority": 0,
            "value": 0,
            "target": "ability"
          },
          {
            "_id": "ii3itwey",
            "formula": "-2",
            "operator": "add",
            "subTarget": "wis",
            "modifier": "racial",
            "priority": 0,
            "value": 0,
            "target": "ability"
          },
          {
            "_id": "xwbo25hj",
            "formula": "-2",
            "operator": "add",
            "subTarget": "cha",
            "modifier": "racial",
            "priority": 0,
            "value": 0,
            "target": "ability"
          }
        ],
        "contextNotes": [],
        "links": {
          "children": []
        },
        "armorProf": {
          "value": []
        },
        "weaponProf": {
          "value": []
        },
        "flags": {
          "boolean": [],
          "dictionary": []
        },
        "scriptCalls": [],
        "subTypes": [
          [
            "Orc"
          ]
        ]
      },
      "effects": [],
      "folder": null,
      "sort": 0,
      "permission": {
        "default": 0
      },
      "flags": {}
    },
    {
      "_id": "Immo2BuSe5WGdRW9",
      "name": "Hunter (Pathfinder Rpg Bestiary , Pathfinder Rpg Bestiary  , Pathfinder Rpg Advanced Class Guide)",
      "type": "class",
      "img": "systems/pf1/icons/skills/blue_29.jpg",
      "data": {
        "description": {
          "value": "<p>Hunters are warriors of the wilds that have forged close bonds with trusted animal companions. They focus their tactics on fighting alongside their companion animals as a formidable team of two. Able to cast a wide variety of nature spells and take on the abilities and attributes of beasts, hunters magically improve both themselves and their animal companions.</p>\n<p><strong>Role</strong>: Hunters can adapt their tactics to many kinds of opponents, and cherish their highly trained animal companions. As a team, the hunter and her companion can react to danger with incredible speed, making them excellent scouts, explorers, and saboteurs.</p>\n<p><strong>Alignment</strong>: Any neutral.</p>\n<p><strong>Hit Die</strong>: d8.</p>\n<p><strong>Parent Classes</strong>:&nbsp;<a href=\"https://www.d20pfsrd.com/classes/core-classes/druid\">Druid</a>&nbsp;and&nbsp;<a href=\"https://www.d20pfsrd.com/classes/core-classes/ranger\">ranger</a>.</p>\n<p><strong>Starting Wealth</strong>: 4d6 × 10 gp (average 140 gp.) In addition, each character begins play with an outfit worth 10 gp or less.</p>\n<h2><span id=\"Class_Skills\">Class Skills</span></h2>\n<p>The hunter’s class skills are <a href=\"https://www.d20pfsrd.com/skills/climb\">Climb</a>&nbsp;(<a href=\"https://www.d20pfsrd.com/basics-ability-scores/ability-scores#TOC-Strength-Str-\">Str</a>), <a href=\"https://www.d20pfsrd.com/skills/craft\">Craft</a>&nbsp;(<a href=\"https://www.d20pfsrd.com/basics-ability-scores/ability-scores#TOC-Intelligence-Int-\">Int</a>), <a href=\"https://www.d20pfsrd.com/skills/handle-animal\">Handle Animal</a>&nbsp;(<a href=\"https://www.d20pfsrd.com/basics-ability-scores/ability-scores#TOC-Charisma-Cha-\">Cha</a>), <a href=\"https://www.d20pfsrd.com/skills/heal\">Heal</a>&nbsp;(<a href=\"https://www.d20pfsrd.com/basics-ability-scores/ability-scores#TOC-Wisdom-Wis-\">Wis</a>), <a href=\"https://www.d20pfsrd.com/skills/intimidate\">Intimidate</a>&nbsp;(<a href=\"https://www.d20pfsrd.com/basics-ability-scores/ability-scores#TOC-Charisma-Cha-\">Cha</a>), <a href=\"https://www.d20pfsrd.com/skills/knowledge\">Knowledge</a>&nbsp;(dungeoneering) (<a href=\"https://www.d20pfsrd.com/basics-ability-scores/ability-scores#TOC-Intelligence-Int-\">Int</a>), <a href=\"https://www.d20pfsrd.com/skills/knowledge\">Knowledge</a>&nbsp;(geography) (<a href=\"https://www.d20pfsrd.com/basics-ability-scores/ability-scores#TOC-Intelligence-Int-\">Int</a>), <a href=\"https://www.d20pfsrd.com/skills/knowledge\">Knowledge</a>&nbsp;(nature) (<a href=\"https://www.d20pfsrd.com/basics-ability-scores/ability-scores#TOC-Intelligence-Int-\">Int</a>), <a href=\"https://www.d20pfsrd.com/skills/perception\">Perception</a>&nbsp;(<a href=\"https://www.d20pfsrd.com/basics-ability-scores/ability-scores#TOC-Wisdom-Wis-\">Wis</a>), <a href=\"https://www.d20pfsrd.com/skills/profession\">Profession</a>&nbsp;(<a href=\"https://www.d20pfsrd.com/basics-ability-scores/ability-scores#TOC-Wisdom-Wis-\">Wis</a>), <a href=\"https://www.d20pfsrd.com/skills/ride\">Ride</a>&nbsp;(<a href=\"https://www.d20pfsrd.com/basics-ability-scores/ability-scores#TOC-Dexterity-Dex-\">Dex</a>), <a href=\"https://www.d20pfsrd.com/skills/spellcraft\">Spellcraft</a>&nbsp;(<a href=\"https://www.d20pfsrd.com/basics-ability-scores/ability-scores#TOC-Intelligence-Int-\">Int</a>), <a href=\"https://www.d20pfsrd.com/skills/stealth\">Stealth</a>&nbsp;(<a href=\"https://www.d20pfsrd.com/basics-ability-scores/ability-scores#TOC-Dexterity-Dex-\">Dex</a>), <a href=\"https://www.d20pfsrd.com/skills/survival\">Survival</a>&nbsp;(<a href=\"https://www.d20pfsrd.com/basics-ability-scores/ability-scores#TOC-Wisdom-Wis-\">Wis</a>), and <a href=\"https://www.d20pfsrd.com/skills/swim\">Swim</a>&nbsp;(<a href=\"https://www.d20pfsrd.com/basics-ability-scores/ability-scores#TOC-Strength-Str-\">Str</a>).</p>\n<p><strong>Skill Ranks per Level</strong>: 6 +&nbsp;<a href=\"https://www.d20pfsrd.com/basics-ability-scores/ability-scores#TOC-Intelligence-Int-\">Int</a> modifier.</p>"
        },
        "tags": [],
        "changes": [],
        "links": {
          "children": [],
          "classAssociations": [
            {
              "id": "pf1.class-abilities.V7cGG7vKN0BY2Bhb",
              "dataType": "compendium",
              "name": "Animal Companion (HUN)",
              "img": "systems/pf1/icons/skills/blue_29.jpg",
              "hiddenLinks": {},
              "level": 1,
              "_index": 0
            },
            {
              "id": "pf1.class-abilities.4r83TfLHXrRmXtIn",
              "dataType": "compendium",
              "name": "Animal Focus",
              "img": "systems/pf1/icons/skills/blue_26.jpg",
              "hiddenLinks": {},
              "level": 1,
              "_index": 1
            },
            {
              "id": "pf1.class-abilities.qqfc9I2awuSdfCxf",
              "dataType": "compendium",
              "name": "Nature Training",
              "img": "systems/pf1/icons/skills/green_20.jpg",
              "hiddenLinks": {},
              "level": 1,
              "_index": 2
            },
            {
              "id": "pf1.class-abilities.Yr8dfM2d8JEWoYkr",
              "dataType": "compendium",
              "name": "Wild Empathy",
              "img": "systems/pf1/icons/skills/green_13.jpg",
              "hiddenLinks": {},
              "level": 1,
              "_index": 3
            },
            {
              "id": "pf1.class-abilities.sxpGOVklEiwzkRjM",
              "dataType": "compendium",
              "name": "Precise Companion",
              "img": "systems/pf1/icons/skills/arrow_07.jpg",
              "hiddenLinks": {},
              "level": 2,
              "_index": 4
            },
            {
              "id": "pf1.class-abilities.r8wPs0bB3WhOLxbX",
              "dataType": "compendium",
              "name": "Track",
              "img": "systems/pf1/icons/skills/beast_01.jpg",
              "hiddenLinks": {},
              "level": 2,
              "_index": 5
            },
            {
              "id": "pf1.class-abilities.nE79k9XBL67xrLCT",
              "dataType": "compendium",
              "name": "Hunter Tactics",
              "img": "systems/pf1/icons/skills/beast_01.jpg",
              "hiddenLinks": {},
              "level": 3,
              "_index": 6
            },
            {
              "id": "pf1.class-abilities.Rh0LztkmetWVC6jk",
              "dataType": "compendium",
              "name": "Teamwork Feat (HUN)",
              "img": "systems/pf1/icons/skills/violet_03.jpg",
              "hiddenLinks": {},
              "level": 3,
              "_index": 7
            },
            {
              "id": "pf1.class-abilities.pGDnMUhjGfphXiJB",
              "dataType": "compendium",
              "name": "Improved Empathic Link",
              "img": "systems/pf1/icons/spells/link-spirit-2.jpg",
              "hiddenLinks": {},
              "level": 4,
              "_index": 8
            },
            {
              "id": "pf1.class-abilities.fkZVfqo0SOHAfJhh",
              "dataType": "compendium",
              "name": "Greater Empathic Link",
              "img": "systems/pf1/icons/spells/link-spirit-3.jpg",
              "hiddenLinks": {},
              "level": 14,
              "_index": 9
            },
            {
              "id": "pf1.class-abilities.5iXq1igb1Cq0qobT",
              "dataType": "compendium",
              "name": "Woodland Stride",
              "img": "systems/pf1/icons/skills/green_16.jpg",
              "hiddenLinks": {},
              "level": 5,
              "_index": 10
            },
            {
              "id": "pf1.class-abilities.VNAsksfmUCMQsoZE",
              "dataType": "compendium",
              "name": "Bonus Tricks",
              "img": "systems/pf1/icons/spells/wild-eerie-2.jpg",
              "hiddenLinks": {},
              "level": 7,
              "_index": 11
            },
            {
              "id": "pf1.class-abilities.sk0HNTe9lKBpHQpN",
              "dataType": "compendium",
              "name": "Swift Tracker",
              "img": "systems/pf1/icons/skills/green_20.jpg",
              "hiddenLinks": {},
              "level": 8,
              "_index": 12
            },
            {
              "id": "pf1.class-abilities.h0hqYiLG7hkjPCin",
              "dataType": "compendium",
              "name": "Raise Animal Companion",
              "img": "systems/pf1/icons/spells/heal-jade-2.jpg",
              "hiddenLinks": {},
              "level": 10,
              "_index": 13
            },
            {
              "id": "pf1.class-abilities.DnQK1UZ09ufe1Jmn",
              "dataType": "compendium",
              "name": "Speak with Master",
              "img": "systems/pf1/icons/spells/wild-orange-1.jpg",
              "hiddenLinks": {},
              "level": 11,
              "_index": 14
            },
            {
              "id": "pf1.class-abilities.A56OUZnIsE8ZMda2",
              "dataType": "compendium",
              "name": "One with the Wild",
              "img": "systems/pf1/icons/feats/deceitful.jpg",
              "hiddenLinks": {},
              "level": 17,
              "_index": 15
            },
            {
              "id": "pf1.class-abilities.GAHaeOGTBeR6LJ3K",
              "dataType": "compendium",
              "name": "Master Hunter",
              "img": "systems/pf1/icons/skills/arrow_06.jpg",
              "hiddenLinks": {},
              "level": 20,
              "_index": 16
            }
          ]
        },
        "tag": "hunter",
        "useCustomTag": true,
        "armorProf": {
          "value": [
            "lgt",
            "med",
            "shl"
          ]
        },
        "weaponProf": {
          "value": [
            "sim",
            "mar"
          ]
        },
        "flags": {
          "boolean": [],
          "dictionary": []
        },
        "scriptCalls": [],
        "level": 6,
        "hp": 30,
        "bab": "med",
        "skillsPerLevel": 6,
        "savingThrows": {
          "fort": {
            "value": "high"
          },
          "ref": {
            "value": "high"
          }
        },
        "classSkills": {
          "acr": false,
          "apr": false,
          "art": false,
          "blf": false,
          "clm": true,
          "crf": true,
          "dip": false,
          "dev": false,
          "dis": false,
          "esc": false,
          "fly": false,
          "han": true,
          "hea": true,
          "int": true,
          "kar": false,
          "kdu": true,
          "ken": false,
          "kge": true,
          "khi": false,
          "klo": false,
          "kna": true,
          "kno": false,
          "kpl": false,
          "kre": false,
          "lin": false,
          "lor": false,
          "per": true,
          "prf": false,
          "pro": true,
          "rid": true,
          "sen": false,
          "slt": false,
          "spl": true,
          "ste": true,
          "sur": true,
          "swm": true,
          "umd": false
        }
      },
      "effects": [],
      "folder": null,
      "sort": 0,
      "permission": {
        "default": 0
      },
      "flags": {}
    },
    {
      "_id": "S38eYYsK7pRhPbwg",
      "name": "Humanoid (Giant, Orc)",
      "type": "class",
      "img": "systems/pf1/icons/skills/blue_35.jpg",
      "data": {
        "description": {
          "value": "<p>A humanoid usually has two arms, two legs, and one head, or a human-like torso, arms, and a head. Humanoids have few or no supernatural or extraordinary abilities, but most can speak and usually have well-developed societies. They are usually Small or Medium (with the exception of giants). Every humanoid creature also has a specific subtype to match its race, such as human, giant, goblinoid, reptilian, or tengu.</p>\n<p>Humanoids with 1 Hit Die exchange the features of their humanoid Hit Die for the class features of a PC or NPC class. Humanoids of this sort are typically presented as 1st-level warriors, which means they have average combat ability and poor saving throws. Humanoids with more than 1 Hit Die are the only humanoids who make use of the features of the humanoid type.</p>\n<h2><span id=\"Features\">Features</span></h2>\n<p>A humanoid has the following features (unless otherwise noted in a creature’s entry).</p>\n<ul>\n<li>d8 Hit Die, or by character class.</li>\n<li>Base attack bonus equal to 3/4 total Hit Dice (medium progression).</li>\n<li>One good save, usually&nbsp;<a href=\"https://www.d20pfsrd.com/gamemastering/combat#TOC-Reflex\" rel=\"nofollow\">Reflex</a>.</li>\n<li>Skill points equal to 2 + Int modifier (minimum 1) per Hit Die or by character class. The following are class skills for humanoids without a character class: <a href=\"https://www.d20pfsrd.com/skills/climb\" rel=\"nofollow\">Climb</a>, <a href=\"https://www.d20pfsrd.com/skills/craft\" rel=\"nofollow\">Craft</a>, <a href=\"https://www.d20pfsrd.com/skills/handle-animal\" rel=\"nofollow\">Handle Animal</a>, <a href=\"https://www.d20pfsrd.com/skills/heal\" rel=\"nofollow\">Heal</a>, <a href=\"https://www.d20pfsrd.com/skills/profession\" rel=\"nofollow\">Profession</a>, <a href=\"https://www.d20pfsrd.com/skills/ride\" rel=\"nofollow\">Ride</a>, and <a href=\"https://www.d20pfsrd.com/skills/survival\" rel=\"nofollow\">Survival</a>. Humanoids with a character class use their class’s skill list instead.</li>\n</ul>\n<h2><span id=\"Traits\"><a name=\"TOC-Traits\"></a>Traits</span></h2>\n<p>A humanoid possesses the following traits (unless otherwise noted in a creature’s entry).</p>\n<ul>\n<li>Proficient with all simple weapons, or by character class.</li>\n<li>Proficient with whatever type of armor (light, medium, or heavy) it is described as wearing, or by character class. If a humanoid does not have a class and wears&nbsp;<a href=\"https://www.d20pfsrd.com/basics-ability-scores/glossary#TOC-Armor-Bonus\">armor</a>, it is proficient with that type of armor and all lighter types. Humanoids not indicated as wearing armor are not proficient with armor. Humanoids are proficient with shields if they are proficient with any form of armor.</li>\n<li>Humanoids breathe, eat, and sleep.</li>\n</ul>"
        },
        "tags": [],
        "changes": [],
        "links": "",
        "tag": "humanoid",
        "useCustomTag": true,
        "armorProf": {
          "value": []
        },
        "weaponProf": {
          "value": []
        },
        "flags": {
          "boolean": [],
          "dictionary": []
        },
        "scriptCalls": [],
        "classType": "racial",
        "level": 0,
        "hp": 0,
        "bab": "med",
        "skillsPerLevel": 2,
        "savingThrows": {
          "ref": {
            "value": "high"
          }
        },
        "classSkills": {
          "acr": false,
          "apr": false,
          "art": false,
          "blf": false,
          "clm": true,
          "crf": true,
          "dip": false,
          "dev": false,
          "dis": false,
          "esc": false,
          "fly": false,
          "han": true,
          "hea": true,
          "int": false,
          "kar": false,
          "kdu": false,
          "ken": false,
          "kge": false,
          "khi": false,
          "klo": false,
          "kna": false,
          "kno": false,
          "kpl": false,
          "kre": false,
          "lin": false,
          "lor": false,
          "per": false,
          "prf": false,
          "pro": true,
          "rid": true,
          "sen": false,
          "slt": false,
          "spl": false,
          "ste": false,
          "sur": true,
          "swm": false,
          "umd": false
        }
      },
      "effects": [],
      "folder": null,
      "sort": 0,
      "permission": {
        "default": 0
      },
      "flags": {}
    },
    {
      "_id": "26aqodau3gs6zqbp",
      "name": "Sense: Darkvision 60ft.",
      "type": "feat",
      "img": "systems/pf1/icons/skills/shadow_12.jpg",
      "data": {
        "description": {
          "value": "Darkvision is the extraordinary ability to see with no light source at all, out to a range specified for the creature. Darkvision is black-and-white only (colors cannot be discerned). It does not allow characters to see anything that they could not see otherwise—invisible objects are still invisible, and illusions are still visible as what they seem to be. Likewise, darkvision subjects a creature to gaze attacks normally. The presence of light does not spoil darkvision."
        },
        "tags": [],
        "damage": {
          "parts": [],
          "critParts": [],
          "nonCritParts": []
        },
        "attackParts": [],
        "effectNotes": [],
        "attackNotes": [],
        "changes": [],
        "contextNotes": [],
        "links": {
          "children": [],
          "charges": []
        },
        "tag": "senseDarkvision60ft",
        "armorProf": {
          "value": []
        },
        "weaponProf": {
          "value": []
        },
        "flags": {
          "boolean": [],
          "dictionary": []
        },
        "scriptCalls": [],
        "featType": "racial",
        "associations": {
          "classes": []
        },
        "abilityType": "ex"
      },
      "effects": [],
      "folder": null,
      "sort": 0,
      "permission": {
        "default": 0
      },
      "flags": {}
    },
    {
      "_id": "yv3okq8ytoo6zmms",
      "name": "Sense: Low-light Vision",
      "type": "feat",
      "img": "systems/pf1/icons/skills/shadow_11.jpg",
      "data": {
        "description": {
          "value": "A creature with low-light vision can see twice as far as a human in starlight, moonlight, torchlight, and similar conditions of dim light. It retains the ability to distinguish color and detail under these conditions."
        },
        "tags": [],
        "damage": {
          "parts": [],
          "critParts": [],
          "nonCritParts": []
        },
        "attackParts": [],
        "effectNotes": [],
        "attackNotes": [],
        "changes": [],
        "contextNotes": [],
        "links": {
          "children": [],
          "charges": []
        },
        "tag": "senseLowlightVision",
        "armorProf": {
          "value": []
        },
        "weaponProf": {
          "value": []
        },
        "flags": {
          "boolean": [],
          "dictionary": []
        },
        "scriptCalls": [],
        "featType": "racial",
        "associations": {
          "classes": []
        },
        "abilityType": "ex"
      },
      "effects": [],
      "folder": null,
      "sort": 0,
      "permission": {
        "default": 0
      },
      "flags": {}
    },
    {
      "_id": "KQYCRLEdD4bGA5ak",
      "name": "Evasion",
      "type": "feat",
      "img": "systems/pf1/icons/skills/blue_06.jpg",
      "data": {
        "description": {
          "value": "<p>This character can avoid damage from many area-effect attacks. If she makes a successful <a href=\"https://www.d20pfsrd.com/gamemastering/combat#TOC-Reflex\">Reflex</a>&nbsp;<a href=\"https://www.d20pfsrd.com/gamemastering/combat#TOC-Saving-Throws\">saving throw</a> against an attack that normally deals half damage on a successful save, she instead takes no damage. Evasion can be used only if the character is wearing light armor or no armor. A <a href=\"https://www.d20pfsrd.com/gamemastering/conditions#TOC-Helpless\">helpless</a> character does not gain the benefit of <a href=\"https://www.d20pfsrd.com/classes/core-classes/rogue#TOC-Evasion-Ex-\">evasion</a>.</p>"
        },
        "tags": [],
        "activation": {
          "type": "passive"
        },
        "unchainedAction": {
          "activation": {
            "type": "passive"
          }
        },
        "uses": {
          "per": ""
        },
        "measureTemplate": {
          "size": "0"
        },
        "actionType": "",
        "damage": {
          "parts": [],
          "critParts": [],
          "nonCritParts": []
        },
        "attackParts": [],
        "effectNotes": [],
        "attackNotes": [],
        "changes": [],
        "contextNotes": [
          {
            "subTarget": "ref",
            "target": "savingThrows",
            "text": "Evasion"
          }
        ],
        "links": {
          "children": [],
          "charges": []
        },
        "tag": "evasion",
        "armorProf": {
          "value": []
        },
        "weaponProf": {
          "value": []
        },
        "flags": {
          "boolean": [],
          "dictionary": []
        },
        "scriptCalls": [],
        "featType": "classFeat",
        "associations": {
          "classes": [
            [
              "Monk"
            ],
            [
              "Rogue"
            ]
          ]
        },
        "abilityType": "ex"
      },
      "effects": [],
      "folder": null,
      "sort": 0,
      "permission": {
        "default": 0
      },
      "flags": {}
    },
    {
      "_id": "pEKFb20e45CCqkz2",
      "name": "Ferocity",
      "type": "feat",
      "img": "systems/pf1/icons/spells/slice-spirit-3.jpg",
      "data": {
        "description": {
          "value": "<p>At 5th level, you cling to life with increasing ferocity. You gain ferocity as per the universal monster rule. Whenever you have 0 hit points or negative hit points, you gain a +4 morale bonus to your Strength and Dexterity, as well as a +2 morale bonus on Fortitude saves.</p>\n<p>At 8th level, you are not staggered when you have 0 hit points or negative hit points, and you automatically stabilize when you have negative hit points.</p>"
        },
        "tags": [],
        "actionType": "",
        "damage": {
          "parts": [],
          "critParts": [],
          "nonCritParts": []
        },
        "attackParts": [],
        "effectNotes": [],
        "attackNotes": [],
        "changes": [],
        "contextNotes": [],
        "links": {
          "children": [],
          "charges": []
        },
        "tag": "ferocity",
        "armorProf": {
          "value": []
        },
        "weaponProf": {
          "value": []
        },
        "flags": {
          "boolean": [],
          "dictionary": []
        },
        "scriptCalls": [],
        "featType": "classFeat",
        "associations": {
          "classes": [
            [
              "Psychic"
            ]
          ]
        },
        "abilityType": "ex"
      },
      "effects": [],
      "folder": null,
      "sort": 0,
      "permission": {
        "default": 0
      },
      "flags": {}
    },
    {
      "_id": "b3dym2d0hw5k3bc6",
      "name": "Gore",
      "type": "attack",
      "img": "systems/pf1/icons/items/inventory/monster-tusk-bloody.jpg",
      "data": {
        "tags": [],
        "activation": {
          "type": "attack"
        },
        "unchainedAction": {
          "activation": {
            "type": "attack"
          }
        },
        "duration": {
          "units": "inst"
        },
        "range": {
          "value": "",
          "units": "melee"
        },
        "attackName": "Gore",
        "actionType": "mwak",
        "attackBonus": "NaN",
        "damage": {
          "parts": [
            [
              "2d6+NaN",
              "P"
            ]
          ],
          "critParts": [],
          "nonCritParts": []
        },
        "attackParts": [],
        "ability": {
          "attack": "str",
          "damage": "str"
        },
        "effectNotes": [],
        "attackNotes": [
          "gore +9 (2d6+7 )"
        ],
        "links": {
          "children": [],
          "charges": [],
          "ammunition": []
        },
        "flags": {
          "boolean": [],
          "dictionary": []
        },
        "scriptCalls": [],
        "attackType": "natural",
        "conditionals": []
      },
      "effects": [],
      "folder": null,
      "sort": 0,
      "permission": {
        "default": 0
      },
      "flags": {}
    },
    {
      "_id": "eddult4efhv050xq",
      "name": "Ecology",
      "type": "feat",
      "img": "icons/environment/wilderness/tree-oak.webp",
      "data": {
        "description": {
          "value": "<div><strong>Environment</strong>:  any</div>"
        },
        "tags": [],
        "damage": {
          "parts": [],
          "critParts": [],
          "nonCritParts": []
        },
        "attackParts": [],
        "effectNotes": [],
        "attackNotes": [],
        "changes": [],
        "contextNotes": [],
        "links": {
          "children": [],
          "charges": []
        },
        "armorProf": {
          "value": []
        },
        "weaponProf": {
          "value": []
        },
        "flags": {
          "boolean": [],
          "dictionary": []
        },
        "scriptCalls": [],
        "featType": "misc",
        "associations": {
          "classes": []
        }
      },
      "effects": [],
      "folder": null,
      "sort": 0,
      "permission": {
        "default": 0
      },
      "flags": {}
    },
    {
      "_id": "IYos8WA5LeHQsbW9",
      "name": "sbc | Conversion Buff",
      "type": "buff",
      "img": "systems/pf1/icons/skills/yellow_36.jpg",
      "data": {
        "description": {
          "value": "<h2>sbc | Conversion Buff</h2>\n                        This Buff was created by <strong>sbc</strong> to compensate for differences between the input and the values FoundryVTT calculates automatically.\n                        <br><br>\n                        Especially when the pathfinder system gets upgraded, entries in compendiums get updated or foundry changes in some way, this buff may become outdated.\n                        <br><br>\n                        For most mooks the conversion should more or less work, but for important NPCs or creatures it is adviced to double check the conversion manually."
        },
        "tags": [],
        "changes": [
          {
            "formula": "3",
            "modifier": "untypedPerm",
            "operator": "add",
            "priority": 0,
            "subTarget": "init",
            "target": "misc",
            "value": 3,
            "id": "2u72sypq"
          },
          {
            "formula": "21",
            "modifier": "untypedPerm",
            "operator": "add",
            "priority": 0,
            "subTarget": "mhp",
            "target": "misc",
            "value": 21,
            "id": "2ctceqnj"
          },
          {
            "formula": "3",
            "modifier": "untypedPerm",
            "operator": "add",
            "priority": 0,
            "subTarget": "fort",
            "target": "savingThrows",
            "value": 3,
            "id": "px0si9qu"
          },
          {
            "formula": "-1",
            "modifier": "untypedPerm",
            "operator": "add",
            "priority": 0,
            "subTarget": "ref",
            "target": "savingThrows",
            "value": -1,
            "id": "0hunmll2"
          },
          {
            "formula": "2",
            "modifier": "untypedPerm",
            "operator": "add",
            "priority": 0,
            "subTarget": "will",
            "target": "savingThrows",
            "value": 2,
            "id": "80cpsogn"
          },
          {
            "formula": "1",
            "modifier": "untypedPerm",
            "operator": "add",
            "priority": 0,
            "subTarget": "aac",
            "target": "ac",
            "value": 1,
            "id": "vt9c0zzl"
          }
        ],
        "contextNotes": [],
        "links": {
          "children": []
        },
        "tag": "sbcConversionBuff",
        "useCustomTag": true,
        "flags": {
          "boolean": [],
          "dictionary": []
        },
        "scriptCalls": [],
        "buffType": "perm",
        "active": true,
        "hideFromToken": true
      },
      "effects": [],
      "folder": null,
      "sort": 0,
      "permission": {
        "default": 0,
        "iM1ACTqH0Ml6HJtd": 3
      },
      "flags": {}
    }
  ],
  "effects": [],
  "folder": null,
  "sort": 0,
  "permission": {
    "default": 0
  },
  "flags": {}
}