{
  "_id": "tw13vH0KL8Yj7XAQ",
  "name": "Melfesh Monster",
  "type": "npc",
  "img": "systems/pf1/icons/races/creature-types/plant.png",
  "data": {
    "abilities": {
      "str": {
        "value": 18
      },
      "dex": {
        "value": 15
      },
      "con": {
        "value": 16
      },
      "int": {
        "value": 13
      },
      "wis": {
        "value": 14
      },
      "cha": {
        "value": 17
      }
    },
    "attributes": {
      "naturalAC": "+9",
      "hp": {
        "value": 75
      },
      "speed": {
        "fly": {
          "base": 60,
          "maneuverability": "perfect"
        }
      },
      "spells": {
        "usedSpellbooks": [
          "spelllike"
        ],
        "spellbooks": {
          "spelllike": {
            "altName": "Spell-like Abilities",
            "cl": {
              "formula": "-1"
            },
            "concentrationFormula": "6",
            "concentrationNotes": "sbc | Total in statblock was +11, adjust as needed.",
            "clNotes": "sbc | Total in statblock was CL 8, adjust as needed.",
            "autoSpellLevelCalculation": false,
            "autoSpellLevels": false,
            "arcaneSpellFailure": false,
            "domainSlotValue": 0
          }
        }
      }
    },
    "details": {
      "alignment": "ne",
      "cr": {
        "base": 6
      }
    },
    "skills": {
      "fly": {
        "rank": 12
      },
      "kpl": {
        "rank": 2
      },
      "per": {
        "rank": 11
      },
      "sen": {
        "rank": 8
      },
      "ste": {
        "rank": 9
      }
    },
    "traits": {
      "senses": "all-around vision, low-light vision, see invisibility; Perception +16",
      "eres": "Electricity 10;Fire 10;",
      "regen": "regeneration 5 (acid)",
      "languages": {
        "value": [
          "infernal",
          "sylvan"
        ],
        "custom": "telepathy 100 ft."
      },
      "di": {
        "value": []
      },
      "dv": {
        "value": []
      },
      "ci": {
        "value": [
          "poison"
        ],
        "custom": "Plant Traits;"
      },
      "stature": ""
    }
  },
  "token": {
    "name": "Melfesh Monster",
    "displayName": 20,
    "actorLink": false,
    "width": 1,
    "height": 1,
    "scale": 1,
    "mirrorX": false,
    "mirrorY": false,
    "lockRotation": false,
    "rotation": 0,
    "alpha": 1,
    "vision": false,
    "dimSight": 0,
    "brightSight": 0,
    "dimLight": 0,
    "brightLight": 0,
    "sightAngle": 0,
    "lightAngle": 0,
    "lightAlpha": 0.25,
    "lightAnimation": {
      "speed": 5,
      "intensity": 5
    },
    "disposition": -1,
    "displayBars": 20,
    "bar1": {
      "attribute": null
    },
    "bar2": {
      "attribute": null
    },
    "flags": {
      "pf1": {
        "lowLightVision": true
      }
    },
    "randomImg": false,
    "img": "systems/pf1/icons/races/creature-types/plant.png"
  },
  "items": [
    {
      "_id": "AbOSfjvKMqpNihdM",
      "name": "Plant (Extraplanar)",
      "type": "class",
      "img": "systems/pf1/icons/skills/nature_06.jpg",
      "data": {
        "description": {
          "value": "<p>This type comprises vegetable creatures. Note that regular plants, such as one finds growing in gardens and fields, lack Wisdom and&nbsp;<a href=\"https://www.d20pfsrd.com/basics-ability-scores/ability-scores/#Charisma_Cha\">Charisma</a>&nbsp;scores and are not creatures, but objects, even though they are alive.</p>\n<h2><span id=\"Features\">Features</span></h2>\n<p>A plant creature has the following features.</p>\n<ul>\n<li>d8 Hit Die.</li>\n<li>Base attack bonus equal to 3/4 total Hit Dice (medium progression).</li>\n<li>Good&nbsp;<a href=\"https://www.d20pfsrd.com/gamemastering/combat#TOC-Fortitude\">Fortitude</a>&nbsp;saves.</li>\n<li>Skill points equal to 2 + Int modifier (minimum 1) per Hit Die. Some plant creatures, however, are mindless and gain no skill points or feats. The following are class skills for plants: <a href=\"https://www.d20pfsrd.com/skills/perception\">Perception</a> and <a href=\"https://www.d20pfsrd.com/skills/stealth\">Stealth</a>.</li>\n</ul>\n<h2><span id=\"Traits\">Traits</span></h2>\n<p>A plant creature possesses the following traits (unless otherwise noted in a creature’s entry).</p>\n<ul>\n<li>Low-light vision.</li>\n<li>Immunity to all mind-affecting effects (charms, compulsions, morale effects, patterns, and phantasms).</li>\n<li>Immunity to paralysis, poison, polymorph, sleep effects, and stunning.</li>\n<li>Proficient with its natural weapons only.</li>\n<li>Not proficient with armor.</li>\n<li>Plants breathe and eat, but do not sleep.</li>\n</ul>"
        },
        "tags": [],
        "changes": [],
        "links": "",
        "tag": "plant",
        "useCustomTag": true,
        "armorProf": {
          "value": []
        },
        "weaponProf": {
          "value": []
        },
        "flags": {
          "boolean": [],
          "dictionary": []
        },
        "scriptCalls": [],
        "classType": "racial",
        "level": 9,
        "hp": 48,
        "bab": "med",
        "skillsPerLevel": 2,
        "savingThrows": {
          "fort": {
            "value": "high"
          }
        },
        "classSkills": {
          "acr": false,
          "apr": false,
          "art": false,
          "blf": false,
          "clm": false,
          "crf": false,
          "dip": false,
          "dev": false,
          "dis": false,
          "esc": false,
          "fly": false,
          "han": false,
          "hea": false,
          "int": false,
          "kar": false,
          "kdu": false,
          "ken": false,
          "kge": false,
          "khi": false,
          "klo": false,
          "kna": false,
          "kno": false,
          "kpl": false,
          "kre": false,
          "lin": false,
          "lor": false,
          "per": true,
          "prf": false,
          "pro": false,
          "rid": false,
          "sen": false,
          "slt": false,
          "spl": false,
          "ste": true,
          "sur": false,
          "swm": false,
          "umd": false
        }
      },
      "effects": [],
      "folder": null,
      "sort": 0,
      "permission": {
        "default": 0
      },
      "flags": {}
    },
    {
      "_id": "5lo74kaejuh8v8s2",
      "name": "Race: Plant",
      "type": "race",
      "img": "systems/pf1/icons/skills/nature_06.jpg",
      "data": {
        "description": {
          "value": "sbc | As no playable race was found a placeholder was generated."
        },
        "tags": [],
        "changes": [],
        "contextNotes": [],
        "links": {
          "children": []
        },
        "armorProf": {
          "value": []
        },
        "weaponProf": {
          "value": []
        },
        "flags": {
          "boolean": [],
          "dictionary": []
        },
        "scriptCalls": [],
        "creatureType": "plant",
        "subTypes": [
          [
            "extraplanar"
          ]
        ]
      },
      "effects": [],
      "folder": null,
      "sort": 0,
      "permission": {
        "default": 0
      },
      "flags": {}
    },
    {
      "_id": "stza0favfjbe2jyr",
      "name": "Sense: Low-light Vision",
      "type": "feat",
      "img": "systems/pf1/icons/skills/shadow_11.jpg",
      "data": {
        "description": {
          "value": "A creature with low-light vision can see twice as far as a human in starlight, moonlight, torchlight, and similar conditions of dim light. It retains the ability to distinguish color and detail under these conditions."
        },
        "tags": [],
        "damage": {
          "parts": [],
          "critParts": [],
          "nonCritParts": []
        },
        "attackParts": [],
        "effectNotes": [],
        "attackNotes": [],
        "changes": [],
        "contextNotes": [],
        "links": {
          "children": [],
          "charges": []
        },
        "tag": "senseLowlightVision",
        "armorProf": {
          "value": []
        },
        "weaponProf": {
          "value": []
        },
        "flags": {
          "boolean": [],
          "dictionary": []
        },
        "scriptCalls": [],
        "featType": "racial",
        "associations": {
          "classes": []
        },
        "abilityType": "ex"
      },
      "effects": [],
      "folder": null,
      "sort": 0,
      "permission": {
        "default": 0
      },
      "flags": {}
    },
    {
      "_id": "wluy4is534wmmcv0",
      "name": "Sense: All-around Vision",
      "type": "feat",
      "img": "systems/pf1/icons/items/inventory/monster-eyes.jpg",
      "data": {
        "description": {
          "value": "Members of this race have some way of seeing all around them, granting them a +4 racial bonus on Perception checks and making them immune to flanking."
        },
        "tags": [],
        "damage": {
          "parts": [],
          "critParts": [],
          "nonCritParts": []
        },
        "attackParts": [],
        "effectNotes": [],
        "attackNotes": [],
        "changes": [],
        "contextNotes": [],
        "links": {
          "children": [],
          "charges": []
        },
        "tag": "senseAllaroundVision",
        "armorProf": {
          "value": []
        },
        "weaponProf": {
          "value": []
        },
        "flags": {
          "boolean": [],
          "dictionary": []
        },
        "scriptCalls": [],
        "featType": "racial",
        "associations": {
          "classes": []
        },
        "abilityType": "ex"
      },
      "effects": [],
      "folder": null,
      "sort": 0,
      "permission": {
        "default": 0
      },
      "flags": {}
    },
    {
      "_id": "Q1cY8r0Pvb66pMG0",
      "name": "Alertness",
      "type": "feat",
      "img": "systems/pf1/icons/feats/alertness.jpg",
      "data": {
        "description": {
          "value": "\n                <i>You often notice things that others might miss.</i>\n                <br />\n                <br />\n                \n                <p><b>Benefits</b></p>\n                <p><p class=\"stat-block-1\"> You get a +2 bonus on Perception and Sense Motive skill checks. If you have 10 or more ranks in one of these skills, the bonus increases to +4 for that skill.</p></p>\n                \n            \n            "
        },
        "tags": [
          [
            "General"
          ],
          [
            "Skill"
          ]
        ],
        "measureTemplate": {
          "size": "0"
        },
        "actionType": "",
        "damage": {
          "parts": [],
          "critParts": [],
          "nonCritParts": []
        },
        "attackParts": [],
        "effectNotes": [],
        "attackNotes": [],
        "changes": [
          {
            "_id": "4lwdra12",
            "formula": "@skills.sen.rank>=10?4:2",
            "operator": "add",
            "subTarget": "skill.sen",
            "modifier": "untyped",
            "priority": 0,
            "value": 0,
            "target": "skill"
          },
          {
            "_id": "3f1srila",
            "formula": "@skills.per.rank>=10?4:2",
            "operator": "add",
            "subTarget": "skill.per",
            "modifier": "untyped",
            "priority": 0,
            "value": 0,
            "target": "skill"
          }
        ],
        "contextNotes": [],
        "links": {
          "children": [],
          "charges": []
        },
        "tag": "alertness",
        "armorProf": {
          "value": []
        },
        "weaponProf": {
          "value": []
        },
        "flags": {
          "boolean": [],
          "dictionary": []
        },
        "scriptCalls": [],
        "associations": {
          "classes": []
        }
      },
      "effects": [],
      "folder": null,
      "sort": 0,
      "permission": {
        "default": 0
      },
      "flags": {}
    },
    {
      "_id": "p28rlbaq6ejbv3kx",
      "name": "Flyby Attack",
      "type": "feat",
      "img": "systems/pf1/icons/skills/yellow_36.jpg",
      "data": {
        "description": {
          "value": "sbc | As Flyby Attack could not be found in any compendium, a placeholder was generated."
        },
        "tags": [],
        "damage": {
          "parts": [],
          "critParts": [],
          "nonCritParts": []
        },
        "attackParts": [],
        "effectNotes": [],
        "attackNotes": [],
        "changes": [],
        "contextNotes": [],
        "links": {
          "children": [],
          "charges": []
        },
        "armorProf": {
          "value": []
        },
        "weaponProf": {
          "value": []
        },
        "flags": {
          "boolean": [],
          "dictionary": []
        },
        "scriptCalls": [],
        "associations": {
          "classes": []
        }
      },
      "effects": [],
      "folder": null,
      "sort": 0,
      "permission": {
        "default": 0
      },
      "flags": {}
    },
    {
      "_id": "Uuiu3p982omhMEPj",
      "name": "Improved Initiative",
      "type": "feat",
      "img": "systems/pf1/icons/feats/improved-initiative.jpg",
      "data": {
        "description": {
          "value": "\n                <i>Your quick reflexes allow you to react rapidly to danger.</i>\n                <br />\n                <br />\n                \n                <p><b>Benefits</b></p>\n                <p><p class=\"stat-block-1\"> You get a +4 bonus on initiative checks.</p></p>\n                \n            \n            "
        },
        "tags": [
          [
            "Combat"
          ]
        ],
        "measureTemplate": {
          "size": "0"
        },
        "actionType": "",
        "damage": {
          "parts": [],
          "critParts": [],
          "nonCritParts": []
        },
        "attackParts": [],
        "effectNotes": [],
        "attackNotes": [],
        "changes": [
          {
            "_id": "ign7okhi",
            "formula": "4",
            "operator": "add",
            "subTarget": "init",
            "modifier": "untyped",
            "priority": 0,
            "value": 0,
            "target": "misc"
          }
        ],
        "contextNotes": [],
        "links": {
          "children": [],
          "charges": []
        },
        "tag": "improvedInitiative",
        "armorProf": {
          "value": []
        },
        "weaponProf": {
          "value": []
        },
        "flags": {
          "boolean": [],
          "dictionary": []
        },
        "scriptCalls": [],
        "associations": {
          "classes": []
        }
      },
      "effects": [],
      "folder": null,
      "sort": 0,
      "permission": {
        "default": 0
      },
      "flags": {}
    },
    {
      "_id": "0bZf3SDkvVOe2ujH",
      "name": "Lightning Reflexes",
      "type": "feat",
      "img": "systems/pf1/icons/feats/lighting-reflexes.jpg",
      "data": {
        "description": {
          "value": "\n                <i>You have faster reflexes than normal.</i>\n                <br />\n                <br />\n                \n                <p><b>Benefits</b></p>\n                <p><p class=\"stat-block-1\"> You get a +2 bonus on all Reflex saving throws.</p></p>\n                \n            \n            "
        },
        "tags": [
          [
            "General"
          ],
          [
            "Saving Throw"
          ]
        ],
        "measureTemplate": {
          "size": "0"
        },
        "actionType": "",
        "damage": {
          "parts": [],
          "critParts": [],
          "nonCritParts": []
        },
        "attackParts": [],
        "effectNotes": [],
        "attackNotes": [],
        "changes": [
          {
            "_id": "ni86uxwa",
            "formula": "2",
            "operator": "add",
            "subTarget": "ref",
            "modifier": "untyped",
            "priority": 0,
            "value": 0,
            "target": "savingThrows"
          }
        ],
        "contextNotes": [],
        "links": {
          "children": [],
          "charges": []
        },
        "tag": "lightningReflexes",
        "armorProf": {
          "value": []
        },
        "weaponProf": {
          "value": []
        },
        "flags": {
          "boolean": [],
          "dictionary": []
        },
        "scriptCalls": [],
        "associations": {
          "classes": []
        }
      },
      "effects": [],
      "folder": null,
      "sort": 0,
      "permission": {
        "default": 0
      },
      "flags": {}
    },
    {
      "_id": "8rsFtye3PwM6CKli",
      "name": "Point-Blank Shot",
      "type": "feat",
      "img": "systems/pf1/icons/feats/point-blank-shot.jpg",
      "data": {
        "description": {
          "value": "\n                <i>You are especially accurate when making ranged attacks against close targets.</i>\n                <br />\n                <br />\n                \n                <p><b>Benefits</b></p>\n                <p><p class=\"stat-block-1\"> You get a +1 bonus on attack and damage rolls with ranged weapons at ranges of up to 30 feet.</p></p>\n                \n            \n            "
        },
        "tags": [
          [
            "Combat"
          ],
          [
            "Ranged"
          ],
          [
            "Offensive"
          ],
          [
            "Weapon"
          ]
        ],
        "measureTemplate": {
          "size": "0"
        },
        "actionType": "",
        "damage": {
          "parts": [],
          "critParts": [],
          "nonCritParts": []
        },
        "attackParts": [],
        "effectNotes": [],
        "attackNotes": [],
        "changes": [],
        "contextNotes": [],
        "links": {
          "children": [],
          "charges": []
        },
        "tag": "pointblankShot",
        "armorProf": {
          "value": []
        },
        "weaponProf": {
          "value": []
        },
        "flags": {
          "boolean": [],
          "dictionary": []
        },
        "scriptCalls": [],
        "associations": {
          "classes": []
        }
      },
      "effects": [],
      "folder": null,
      "sort": 0,
      "permission": {
        "default": 0
      },
      "flags": {}
    },
    {
      "_id": "3a74qw9jzit13qyg",
      "name": "Slam",
      "type": "attack",
      "img": "systems/pf1/icons/items/inventory/monster-forearm.jpg",
      "data": {
        "tags": [],
        "activation": {
          "type": "attack"
        },
        "unchainedAction": {
          "activation": {
            "type": "attack"
          }
        },
        "duration": {
          "units": "inst"
        },
        "range": {
          "value": "",
          "units": "melee"
        },
        "attackName": "Slam",
        "actionType": "mwak",
        "attackBonus": "0",
        "damage": {
          "parts": [
            [
              "1d6+0",
              "B"
            ]
          ],
          "critParts": [],
          "nonCritParts": []
        },
        "attackParts": [
          [
            "0",
            "Slam: 1"
          ]
        ],
        "ability": {
          "attack": "str",
          "damage": "str"
        },
        "effectNotes": [],
        "attackNotes": [
          "2 slam +10 (1d6+4 )"
        ],
        "links": {
          "children": [],
          "charges": [],
          "ammunition": []
        },
        "flags": {
          "boolean": [],
          "dictionary": []
        },
        "scriptCalls": [],
        "attackType": "natural",
        "conditionals": []
      },
      "effects": [],
      "folder": null,
      "sort": 0,
      "permission": {
        "default": 0
      },
      "flags": {}
    },
    {
      "_id": "4ga23hg58e7gtg1h",
      "name": "Special Attack: Envelop",
      "type": "attack",
      "img": "systems/pf1/icons/skills/yellow_36.jpg",
      "data": {
        "description": {
          "value": "sbc | Placeholder for Special Attacks, which in most statblocks are listed under 'Special Attacks' in the statistics block, but are described in the 'Special Abilities' block. Remove duplicates as needed!"
        },
        "tags": [],
        "damage": {
          "parts": [],
          "critParts": [],
          "nonCritParts": []
        },
        "attackParts": [],
        "effectNotes": [],
        "attackNotes": [],
        "links": {
          "children": [],
          "charges": [],
          "ammunition": []
        },
        "flags": {
          "boolean": [],
          "dictionary": []
        },
        "scriptCalls": [],
        "attackType": "misc",
        "conditionals": []
      },
      "effects": [],
      "folder": null,
      "sort": 0,
      "permission": {
        "default": 0
      },
      "flags": {}
    },
    {
      "_id": "spbp4hn7vl9xlw07",
      "name": "Special Attack:  Poison Cloud",
      "type": "attack",
      "img": "systems/pf1/icons/skills/yellow_36.jpg",
      "data": {
        "description": {
          "value": "sbc | Placeholder for Special Attacks, which in most statblocks are listed under 'Special Attacks' in the statistics block, but are described in the 'Special Abilities' block. Remove duplicates as needed!"
        },
        "tags": [],
        "damage": {
          "parts": [],
          "critParts": [],
          "nonCritParts": []
        },
        "attackParts": [],
        "effectNotes": [],
        "attackNotes": [],
        "links": {
          "children": [],
          "charges": [],
          "ammunition": []
        },
        "flags": {
          "boolean": [],
          "dictionary": []
        },
        "scriptCalls": [],
        "attackType": "misc",
        "conditionals": []
      },
      "effects": [],
      "folder": null,
      "sort": 0,
      "permission": {
        "default": 0
      },
      "flags": {}
    },
    {
      "_id": "nokru6mxk9p3r513",
      "name": "Constant: See Invisibility",
      "type": "spell",
      "img": "systems/pf1/icons/misc/magic-swirl.png",
      "data": {
        "description": {
          "value": "<div class=\"spell-description\">\n  <p>\n    <strong>School</strong>&nbsp;divination;\n    <strong>Level</strong>&nbsp;adept 2, alchemist 2, bard 3, bloodrager 2, inquisitor 2, mesmerist 3, occultist 2, psychic 2, sorcerer/wizard 2, spiritualist 2, summoner 2, unchained Summoner 2, witch 2;\n    \n    <strong>Subdomain</strong>&nbsp;Revelation 2;\n    \n    <strong>Bloodline</strong>&nbsp;Marid 2;\n  </p>\n  <p>\n    <strong>Casting Time</strong>&nbsp;1 standard action<br>\n    <strong>Components</strong>&nbsp;V, S, M (talc and powdered silver)<br>\n  </p>\n  <p>\n    <strong>Range</strong>&nbsp;personal<br>\n    \n    <strong>Targets</strong>&nbsp;you<br>\n    \n    <strong>Duration</strong>&nbsp;10 min./level<br>\n    \n  </p>\n  <h2>Description</h2>\n  <p>You can see any objects or beings that are invisible within your range of vision, as well as any that are ethereal, as if they were normally visible. Such creatures are visible to you as translucent shapes, allowing you easily to discern the difference between visible, invisible, and ethereal creatures.</p><p>The spell does not reveal the method used to obtain <i>invisibility</i>.</p><p>It does not reveal illusions or enable you to see through opaque objects. It does not reveal creatures who are simply hiding, concealed, or otherwise hard to see.</p><p>See <i>invisibility</i> can be made permanent with a <i>permanency</i> spell.</p>\n</div>\n"
        },
        "tags": [],
        "activation": {
          "type": "standard"
        },
        "unchainedAction": {
          "activation": {
            "cost": 2,
            "type": "action"
          }
        },
        "target": {
          "value": "you"
        },
        "range": {
          "units": "personal"
        },
        "uses": {
          "value": 3,
          "per": "day"
        },
        "measureTemplate": {
          "size": "0"
        },
        "actionType": "",
        "damage": {
          "parts": [],
          "critParts": [],
          "nonCritParts": []
        },
        "attackParts": [],
        "ability": {
          "attack": "",
          "damage": ""
        },
        "save": {
          "dc": "0"
        },
        "effectNotes": [],
        "attackNotes": [],
        "links": {
          "children": []
        },
        "flags": {
          "boolean": [],
          "dictionary": []
        },
        "scriptCalls": [],
        "learnedAt": {
          "class": [
            [
              "sorcerer/wizard",
              2
            ],
            [
              "bard",
              3
            ],
            [
              "alchemist",
              2
            ],
            [
              "summoner",
              2
            ],
            [
              "witch",
              2
            ],
            [
              "inquisitor",
              2
            ],
            [
              "adept",
              2
            ],
            [
              "bloodrager",
              2
            ],
            [
              "psychic",
              2
            ],
            [
              "mesmerist",
              3
            ],
            [
              "occultist",
              2
            ],
            [
              "spiritualist",
              2
            ],
            [
              "unchained Summoner",
              2
            ]
          ],
          "domain": [],
          "subDomain": [
            [
              "Revelation",
              2
            ]
          ],
          "elementalSchool": [],
          "bloodline": [
            [
              "Marid",
              2
            ]
          ]
        },
        "level": 2,
        "school": "div",
        "conditionals": [],
        "components": {
          "verbal": true,
          "somatic": true,
          "material": true
        },
        "materials": {
          "value": "talc and powdered silver"
        },
        "spellbook": "spelllike",
        "preparation": {
          "preparedAmount": 3,
          "maxAmount": 3
        },
        "atWill": true,
        "sr": false,
        "shortDescription": "<p>You can see any objects or beings that are invisible within your range of vision, as well as any that are ethereal, as if they were normally visible. Such creatures are visible to you as translucent shapes, allowing you easily to discern the difference between visible, invisible, and ethereal creatures.</p><p>The spell does not reveal the method used to obtain <i>invisibility</i>.</p><p>It does not reveal illusions or enable you to see through opaque objects. It does not reveal creatures who are simply hiding, concealed, or otherwise hard to see.</p><p>See <i>invisibility</i> can be made permanent with a <i>permanency</i> spell.</p>",
        "spellDuration": "10 min./level"
      },
      "effects": [],
      "folder": null,
      "sort": 0,
      "permission": {
        "default": 0
      },
      "flags": {}
    },
    {
      "_id": "j71cjhkj0697faj3",
      "name": "Scare",
      "type": "spell",
      "img": "systems/pf1/icons/misc/magic-swirl.png",
      "data": {
        "description": {
          "value": "<div class=\"spell-description\">\n  <p>\n    <strong>School</strong>&nbsp;necromancy&nbsp;[fear, mind-affecting, emotion];\n    <strong>Level</strong>&nbsp;antipaladin 2, bard 2, medium 2, mesmerist 2, occultist 2, psychic 2, shaman 2, sorcerer/wizard 2, spiritualist 2, witch 2;\n    \n    <strong>Subdomain</strong>&nbsp;Fear 3;\n    \n    \n  </p>\n  <p>\n    <strong>Casting Time</strong>&nbsp;1 standard action<br>\n    <strong>Components</strong>&nbsp;V, S, M (a bone from an undead creature)<br>\n  </p>\n  <p>\n    <strong>Range</strong>&nbsp;medium (100 ft. + 10 ft./level)<br>\n    \n    <strong>Targets</strong>&nbsp;one living creature per three levels, no two of which can be more than 30 ft. apart<br>\n    \n    <strong>Duration</strong>&nbsp;1 round/level or 1 round; see text for cause fear<br>\n    <strong>Saving Throw</strong>&nbsp;Will partial;&nbsp;<strong>Spell Resistance</strong>&nbsp;yes<br>\n  </p>\n  <h2>Description</h2>\n  <p>This spell functions like <i>cause fear</i>, except that it causes all targeted creatures of less than 6 HD to become frightened.</p>\n</div>\n"
        },
        "tags": [],
        "activation": {
          "type": "standard"
        },
        "unchainedAction": {
          "activation": {
            "cost": 2,
            "type": "action"
          }
        },
        "target": {
          "value": "one living creature per three levels, no two of which can be more than 30 ft. apart"
        },
        "range": {
          "units": "medium"
        },
        "uses": {
          "value": 1,
          "per": "day"
        },
        "measureTemplate": {
          "size": "0"
        },
        "actionType": "spellsave",
        "damage": {
          "parts": [],
          "critParts": [],
          "nonCritParts": []
        },
        "attackParts": [],
        "ability": {
          "attack": "",
          "damage": ""
        },
        "save": {
          "dc": "0",
          "type": "will",
          "description": "Will partial"
        },
        "effectNotes": [],
        "attackNotes": [],
        "links": {
          "children": []
        },
        "flags": {
          "boolean": [],
          "dictionary": []
        },
        "scriptCalls": [],
        "learnedAt": {
          "class": [
            [
              "sorcerer/wizard",
              2
            ],
            [
              "bard",
              2
            ],
            [
              "witch",
              2
            ],
            [
              "antipaladin",
              2
            ],
            [
              "shaman",
              2
            ],
            [
              "psychic",
              2
            ],
            [
              "medium",
              2
            ],
            [
              "mesmerist",
              2
            ],
            [
              "occultist",
              2
            ],
            [
              "spiritualist",
              2
            ]
          ],
          "domain": [],
          "subDomain": [
            [
              "Fear",
              3
            ]
          ],
          "elementalSchool": [],
          "bloodline": []
        },
        "level": 2,
        "school": "nec",
        "types": "fear, mind-affecting, emotion",
        "conditionals": [],
        "components": {
          "verbal": true,
          "somatic": true,
          "material": true
        },
        "materials": {
          "value": "a bone from an undead creature"
        },
        "spellbook": "spelllike",
        "preparation": {
          "preparedAmount": 1,
          "maxAmount": 1
        },
        "atWill": true,
        "shortDescription": "<p>This spell functions like <i>cause fear</i>, except that it causes all targeted creatures of less than 6 HD to become frightened.</p>",
        "spellDuration": "1 round/level or 1 round; see text for cause fear"
      },
      "effects": [],
      "folder": null,
      "sort": 0,
      "permission": {
        "default": 0
      },
      "flags": {}
    },
    {
      "_id": "q4ixxjb4v281g2xv",
      "name": "Scorching Ray",
      "type": "spell",
      "img": "systems/pf1/icons/spells/beam-red-2.jpg",
      "data": {
        "description": {
          "value": "<div class=\"spell-description\">\n  <p>\n    <strong>School</strong>&nbsp;evocation&nbsp;[fire];\n    <strong>Level</strong>&nbsp;adept 2, bloodrager 2, magus 2, sorcerer/wizard 2;\n    \n    \n    \n    <strong>Bloodline</strong>&nbsp;Efreeti 2, Elemental 2, Infernal 2;\n  </p>\n  <p>\n    <strong>Casting Time</strong>&nbsp;1 standard<br>\n    <strong>Components</strong>&nbsp;V, S<br>\n  </p>\n  <p>\n    <strong>Range</strong>&nbsp;close (25 ft. + 5 ft./2 levels)<br>\n    \n    \n    <strong>Effect</strong>&nbsp;one or more rays<br>\n    <strong>Duration</strong>&nbsp;instantaneous<br>\n      <strong>Saving Throw</strong>&nbsp;none;&nbsp;\n      <strong>Spell Resistance</strong>&nbsp;yes<br>\n  </p>\n  <h2>Description</h2>\n  <p>You blast your enemies with a searing beam of fire. You may fire one ray, plus one additional ray for every four levels beyond 3rd (to a maximum of three rays at 11th level). Each ray requires a ranged touch attack to hit and deals 4d6 points of fire damage. The rays may be fired at the same or different targets, but all rays must be aimed at targets within 30 feet of each other and fired simultaneously.</p>\n</div>\n"
        },
        "tags": [],
        "activation": {
          "type": "standard"
        },
        "unchainedAction": {
          "activation": {
            "cost": 2,
            "type": "action"
          }
        },
        "range": {
          "units": "close"
        },
        "uses": {
          "value": 1,
          "per": "day"
        },
        "measureTemplate": {
          "size": "0"
        },
        "attackName": "Ray",
        "actionType": "rsak",
        "damage": {
          "parts": [
            [
              "4d6",
              "fire"
            ]
          ],
          "critParts": [],
          "nonCritParts": []
        },
        "attackParts": [],
        "formulaicAttacks": {
          "count": {
            "formula": "min(3, floor((@cl + 1) / 4)) - 1"
          },
          "label": "Ray #{0}"
        },
        "ability": {
          "attack": "",
          "damage": ""
        },
        "save": {
          "dc": "0"
        },
        "effectNotes": [],
        "attackNotes": [],
        "links": {
          "children": []
        },
        "flags": {
          "boolean": [],
          "dictionary": []
        },
        "scriptCalls": [],
        "learnedAt": {
          "class": [
            [
              "sorcerer/wizard",
              2
            ],
            [
              "magus",
              2
            ],
            [
              "adept",
              2
            ],
            [
              "bloodrager",
              2
            ]
          ],
          "domain": [],
          "subDomain": [],
          "elementalSchool": [],
          "bloodline": [
            [
              "Efreeti",
              2
            ],
            [
              "Elemental",
              2
            ],
            [
              "Infernal",
              2
            ]
          ]
        },
        "level": 2,
        "school": "evo",
        "types": "fire",
        "conditionals": [],
        "components": {
          "verbal": true,
          "somatic": true
        },
        "spellbook": "spelllike",
        "preparation": {
          "preparedAmount": 1,
          "maxAmount": 1
        },
        "atWill": true,
        "shortDescription": "<p>You blast your enemies with a searing beam of fire. You may fire one ray, plus one additional ray for every four levels beyond 3rd (to a maximum of three rays at 11th level). Each ray requires a ranged touch attack to hit and deals 4d6 points of fire damage. The rays may be fired at the same or different targets, but all rays must be aimed at targets within 30 feet of each other and fired simultaneously.</p>",
        "spellDuration": "instantaneous",
        "spellEffect": "one or more rays"
      },
      "effects": [],
      "folder": null,
      "sort": 0,
      "permission": {
        "default": 0
      },
      "flags": {}
    },
    {
      "_id": "18kryvj2dfuymk9d",
      "name": "Constant: Blur",
      "type": "spell",
      "img": "systems/pf1/icons/misc/magic-swirl.png",
      "data": {
        "description": {
          "value": "<div class=\"spell-description\">\n  <p>\n    <strong>School</strong>&nbsp;illusion&nbsp;(glamer);\n    <strong>Level</strong>&nbsp;alchemist 2, bard 2, magus 2, medium 2, mesmerist 2, occultist 2, psychic 2, sorcerer/wizard 2, spiritualist 2, summoner 2, unchained Summoner 2;\n    \n    \n    \n    <strong>Bloodline</strong>&nbsp;Destined 2, Protean 2;\n  </p>\n  <p>\n    <strong>Casting Time</strong>&nbsp;1 standard action<br>\n    <strong>Components</strong>&nbsp;V<br>\n  </p>\n  <p>\n    <strong>Range</strong>&nbsp;touch<br>\n    \n    <strong>Targets</strong>&nbsp;creature touched<br>\n    \n    <strong>Duration</strong>&nbsp;1 min./level<br>\n    <strong>Saving Throw</strong>&nbsp;Will negates (harmless);&nbsp;<strong>Spell Resistance</strong>&nbsp;yes<br>\n  </p>\n  <h2>Description</h2>\n  <p>The subject's outline appears blurred, shifting, and wavering. This distortion grants the subject concealment (20% miss chance).</p><p>A <i>see invisibility</i> spell does not counteract the <i>blur</i> effect, but a <i>true seeing</i> spell does.</p><p>Opponents that cannot see the subject ignore the spell's effect (though fighting an unseen opponent carries penalties of its own).</p>\n</div>\n"
        },
        "tags": [],
        "activation": {
          "type": "standard"
        },
        "unchainedAction": {
          "activation": {
            "cost": 2,
            "type": "action"
          }
        },
        "target": {
          "value": "creature touched"
        },
        "range": {
          "units": "touch"
        },
        "uses": {
          "value": 3,
          "per": "day"
        },
        "measureTemplate": {
          "size": "0"
        },
        "actionType": "spellsave",
        "damage": {
          "parts": [],
          "critParts": [],
          "nonCritParts": []
        },
        "attackParts": [],
        "ability": {
          "attack": "",
          "damage": ""
        },
        "save": {
          "dc": "0",
          "type": "will",
          "description": "Will negates (harmless)"
        },
        "effectNotes": [],
        "attackNotes": [],
        "links": {
          "children": []
        },
        "flags": {
          "boolean": [],
          "dictionary": []
        },
        "scriptCalls": [],
        "learnedAt": {
          "class": [
            [
              "sorcerer/wizard",
              2
            ],
            [
              "bard",
              2
            ],
            [
              "alchemist",
              2
            ],
            [
              "summoner",
              2
            ],
            [
              "magus",
              2
            ],
            [
              "psychic",
              2
            ],
            [
              "medium",
              2
            ],
            [
              "mesmerist",
              2
            ],
            [
              "occultist",
              2
            ],
            [
              "spiritualist",
              2
            ],
            [
              "unchained Summoner",
              2
            ]
          ],
          "domain": [],
          "subDomain": [],
          "elementalSchool": [],
          "bloodline": [
            [
              "Destined",
              2
            ],
            [
              "Protean",
              2
            ]
          ]
        },
        "level": 2,
        "school": "ill",
        "subschool": "glamer",
        "conditionals": [],
        "components": {
          "verbal": true
        },
        "spellbook": "spelllike",
        "preparation": {
          "preparedAmount": 3,
          "maxAmount": 3
        },
        "atWill": true,
        "shortDescription": "<p>The subject's outline appears blurred, shifting, and wavering. This distortion grants the subject concealment (20% miss chance).</p><p>A <i>see invisibility</i> spell does not counteract the <i>blur</i> effect, but a <i>true seeing</i> spell does.</p><p>Opponents that cannot see the subject ignore the spell's effect (though fighting an unseen opponent carries penalties of its own).</p>",
        "spellDuration": "1 min./level"
      },
      "effects": [],
      "folder": null,
      "sort": 0,
      "permission": {
        "default": 0
      },
      "flags": {}
    },
    {
      "_id": "awia42zci8nufpfl",
      "name": "Nondetection",
      "type": "spell",
      "img": "systems/pf1/icons/misc/magic-swirl.png",
      "data": {
        "description": {
          "value": "<div class=\"spell-description\">\n  <p>\n    <strong>School</strong>&nbsp;abjuration;\n    <strong>Level</strong>&nbsp;alchemist 3, antipaladin 3, hunter 4, inquisitor 3, medium 2, mesmerist 3, occultist 3, psychic 3, ranger 4, sorcerer/wizard 3, spiritualist 3, summoner 3, unchained Summoner 3;\n    <strong>Domain</strong>&nbsp;Trickery 3;\n    \n    \n    \n  </p>\n  <p>\n    <strong>Casting Time</strong>&nbsp;1 standard action<br>\n    <strong>Components</strong>&nbsp;V, S, M (diamond dust worth 50 gp)<br>\n  </p>\n  <p>\n    <strong>Range</strong>&nbsp;touch<br>\n    \n    <strong>Targets</strong>&nbsp;creature or object touched<br>\n    \n    <strong>Duration</strong>&nbsp;1 hour/level<br>\n      <strong>Saving Throw</strong>&nbsp;Will negates (harmless, object);&nbsp;\n      <strong>Spell Resistance</strong>&nbsp;yes<br>\n  </p>\n  <h2>Description</h2>\n  <p>The warded creature or object becomes difficult to <i>detect</i> by divination spells such as <i>clairaudience/clairvoyance, locate object,</i> and <i>detect</i> spells. <i>Nondetection</i> also prevents location by such magic items as <i>crystal ball</i>s. If a divination is attempted against the warded creature or item, the caster of the divination must succeed on a caster level check (1d20 + caster level) against a DC of 11 + the caster level of the spellcaster who cast <i>nondetection</i>. If you cast <i>nondetection</i> on yourself or on an item currently in your possession, the DC is 15 + your caster level.</p><p>If cast on a creature, <i>nondetection</i> wards the creature's gear as well as the creature itself.</p>\n</div>\n"
        },
        "tags": [],
        "activation": {
          "type": "standard"
        },
        "unchainedAction": {
          "activation": {
            "cost": 2,
            "type": "action"
          }
        },
        "target": {
          "value": "creature or object touched"
        },
        "range": {
          "units": "touch"
        },
        "uses": {
          "value": 3,
          "per": "day"
        },
        "measureTemplate": {
          "size": "0"
        },
        "actionType": "spellsave",
        "damage": {
          "parts": [],
          "critParts": [],
          "nonCritParts": []
        },
        "attackParts": [],
        "ability": {
          "attack": "",
          "damage": ""
        },
        "save": {
          "dc": "0",
          "type": "will",
          "description": "Will negates (harmless, object)"
        },
        "effectNotes": [],
        "attackNotes": [],
        "links": {
          "children": []
        },
        "flags": {
          "boolean": [],
          "dictionary": []
        },
        "scriptCalls": [],
        "learnedAt": {
          "class": [
            [
              "sorcerer/wizard",
              3
            ],
            [
              "ranger",
              4
            ],
            [
              "alchemist",
              3
            ],
            [
              "summoner",
              3
            ],
            [
              "inquisitor",
              3
            ],
            [
              "antipaladin",
              3
            ],
            [
              "psychic",
              3
            ],
            [
              "medium",
              2
            ],
            [
              "mesmerist",
              3
            ],
            [
              "occultist",
              3
            ],
            [
              "spiritualist",
              3
            ],
            [
              "hunter",
              4
            ],
            [
              "unchained Summoner",
              3
            ]
          ],
          "domain": [
            [
              "Trickery",
              3
            ]
          ],
          "subDomain": [],
          "elementalSchool": [],
          "bloodline": []
        },
        "level": 3,
        "school": "abj",
        "conditionals": [],
        "components": {
          "verbal": true,
          "somatic": true,
          "material": true
        },
        "materials": {
          "value": "diamond dust worth 50 gp",
          "gpValue": 50
        },
        "spellbook": "spelllike",
        "preparation": {
          "preparedAmount": 3,
          "maxAmount": 3,
          "autoDeductCharges": false,
          "spontaneousPrepared": false
        },
        "shortDescription": "<p>The warded creature or object becomes difficult to <i>detect</i> by divination spells such as <i>clairaudience/clairvoyance, locate object,</i> and <i>detect</i> spells. <i>Nondetection</i> also prevents location by such magic items as <i>crystal ball</i>s. If a divination is attempted against the warded creature or item, the caster of the divination must succeed on a caster level check (1d20 + caster level) against a DC of 11 + the caster level of the spellcaster who cast <i>nondetection</i>. If you cast <i>nondetection</i> on yourself or on an item currently in your possession, the DC is 15 + your caster level.</p><p>If cast on a creature, <i>nondetection</i> wards the creature's gear as well as the creature itself.</p>",
        "spellDuration": "1 hour/level",
        "spellPoints": {
          "cost": ""
        }
      },
      "effects": [],
      "folder": null,
      "sort": 0,
      "permission": {
        "default": 0
      },
      "flags": {}
    },
    {
      "_id": "fu3zt84x55psz3p7",
      "name": "Ecology",
      "type": "feat",
      "img": "icons/environment/wilderness/tree-oak.webp",
      "data": {
        "description": {
          "value": "<div><strong>Environment</strong>:  any (Varisia)</div><div><strong>Organization</strong>:  solitary</div><div><strong>Treasure</strong>:  none</div>"
        },
        "tags": [],
        "damage": {
          "parts": [],
          "critParts": [],
          "nonCritParts": []
        },
        "attackParts": [],
        "effectNotes": [],
        "attackNotes": [],
        "changes": [],
        "contextNotes": [],
        "links": {
          "children": [],
          "charges": []
        },
        "armorProf": {
          "value": []
        },
        "weaponProf": {
          "value": []
        },
        "flags": {
          "boolean": [],
          "dictionary": []
        },
        "scriptCalls": [],
        "featType": "misc",
        "associations": {
          "classes": []
        }
      },
      "effects": [],
      "folder": null,
      "sort": 0,
      "permission": {
        "default": 0
      },
      "flags": {}
    },
    {
      "_id": "vhw144zfec91x6yk",
      "name": "Envelop",
      "type": "feat",
      "img": "systems/pf1/icons/skills/yellow_36.jpg",
      "data": {
        "description": {
          "value": "The Malfesh Monster can wrap a Medium or smaller creature in its vines as a standard action. The Melfesh Monster attempts a grapple that does not provoke an attack of opportunity. If it wins the grapple check, it establishes a hold and deals 1d4 points of Wisdom damage if the target fails a DC 17 Fortitude save. Attacks that hit the Melfesh Monster while it has a target enveloped deal half their damage to the monster and half to the trapped victim."
        },
        "tags": [],
        "damage": {
          "parts": [],
          "critParts": [],
          "nonCritParts": []
        },
        "attackParts": [],
        "effectNotes": [],
        "attackNotes": [],
        "changes": [],
        "contextNotes": [],
        "links": {
          "children": [],
          "charges": []
        },
        "armorProf": {
          "value": []
        },
        "weaponProf": {
          "value": []
        },
        "flags": {
          "boolean": [],
          "dictionary": []
        },
        "scriptCalls": [],
        "featType": "classFeat",
        "associations": {
          "classes": []
        },
        "abilityType": "ex"
      },
      "effects": [],
      "folder": null,
      "sort": 0,
      "permission": {
        "default": 0
      },
      "flags": {}
    },
    {
      "_id": "vy5quxyzq2ii8hz3",
      "name": "Poison Cloud",
      "type": "feat",
      "img": "systems/pf1/icons/skills/yellow_36.jpg",
      "data": {
        "description": {
          "value": "The Melfesh Monster can exude a cloud of poisonous gas in a 20-foot radius up to 3 times per day. Creatures in the area must succeed at a DC 17 Fortitude save or be nauseated for 1d4 rounds and sickened for 1d4 hours afterward. This is a poison effect, and the save DC is Constitution-based."
        },
        "tags": [],
        "damage": {
          "parts": [],
          "critParts": [],
          "nonCritParts": []
        },
        "attackParts": [],
        "effectNotes": [],
        "attackNotes": [],
        "changes": [],
        "contextNotes": [],
        "links": {
          "children": [],
          "charges": []
        },
        "armorProf": {
          "value": []
        },
        "weaponProf": {
          "value": []
        },
        "flags": {
          "boolean": [],
          "dictionary": []
        },
        "scriptCalls": [],
        "featType": "classFeat",
        "associations": {
          "classes": []
        },
        "abilityType": "ex"
      },
      "effects": [],
      "folder": null,
      "sort": 0,
      "permission": {
        "default": 0
      },
      "flags": {}
    },
    {
      "_id": "xmZkCR2IQo13Pf7A",
      "name": "sbc | Conversion Buff",
      "type": "buff",
      "img": "systems/pf1/icons/skills/yellow_36.jpg",
      "data": {
        "description": {
          "value": "<h2>sbc | Conversion Buff</h2>\n                        This Buff was created by <strong>sbc</strong> to compensate for differences between the input and the values FoundryVTT calculates automatically.\n                        <br><br>\n                        Especially when the pathfinder system gets upgraded, entries in compendiums get updated or foundry changes in some way, this buff may become outdated.\n                        <br><br>\n                        For most mooks the conversion should more or less work, but for important NPCs or creatures it is adviced to double check the conversion manually."
        },
        "tags": [],
        "changes": [
          {
            "formula": "-8",
            "modifier": "untypedPerm",
            "operator": "add",
            "priority": 0,
            "subTarget": "mhp",
            "target": "misc",
            "value": -8,
            "id": "5abh6t3s"
          },
          {
            "formula": "-8",
            "modifier": "untypedPerm",
            "operator": "add",
            "priority": 0,
            "subTarget": "skill.fly",
            "target": "skill",
            "value": -8,
            "id": "b5n8wtj6"
          },
          {
            "formula": "-4",
            "modifier": "untypedPerm",
            "operator": "add",
            "priority": 0,
            "subTarget": "skill.per",
            "target": "skill",
            "value": -4,
            "id": "y272vw98"
          },
          {
            "formula": "-2",
            "modifier": "untypedPerm",
            "operator": "add",
            "priority": 0,
            "subTarget": "skill.sen",
            "target": "skill",
            "value": -2,
            "id": "cguhve8z"
          }
        ],
        "contextNotes": [],
        "links": {
          "children": []
        },
        "tag": "sbcConversionBuff",
        "useCustomTag": true,
        "flags": {
          "boolean": [],
          "dictionary": []
        },
        "scriptCalls": [],
        "buffType": "perm",
        "active": true,
        "hideFromToken": true
      },
      "effects": [],
      "folder": null,
      "sort": 0,
      "permission": {
        "default": 0,
        "iM1ACTqH0Ml6HJtd": 3
      },
      "flags": {}
    }
  ],
  "effects": [],
  "folder": null,
  "sort": 0,
  "permission": {
    "default": 0
  },
  "flags": {}
}