{
  "_id": "2aspbuzo0ysh0m94",
  "name": "Accept Affliction",
  "type": "spell",
  "img": "systems/pf1/icons/misc/magic-swirl.png",
  "data": {
    "description": {
      "value": "<div class=\"spell-description\">\n  <p>\n    <strong>School</strong>&nbsp;conjuration&nbsp;(healing)&nbsp;[good];\n    <strong>Level</strong>&nbsp;bard 3, cleric/oracle 3, druid 3, hunter 3, paladin 3, witch 3;\n    \n    \n    \n    \n  </p>\n  <p>\n    <strong>Casting Time</strong>&nbsp;1 standard<br>\n    <strong>Components</strong>&nbsp;V, S, M/DF (dove&#x27;s heart)<br>\n  </p>\n  <p>\n    <strong>Range</strong>&nbsp;touch<br>\n    \n    <strong>Targets</strong>&nbsp;creature touched<br>\n    \n    <strong>Duration</strong>&nbsp;instantaneous<br>\n      <strong>Saving Throw</strong>&nbsp;Fortitude negates (harmless);&nbsp;\n      <strong>Spell Resistance</strong>&nbsp;yes<br>\n  </p>\n  <h2>Description</h2>\n  <p>The caster can transfer the effects of afflictions such as curses, diseases, and poisons from the target creature to himself. This spell can also transfer the blinded, deafened, fatigued, nauseated, shaken, and sickened conditions. All aspects of the transferred afflictions (save DCs, remaining duration, removal conditions, and so on) remain the same, but affect the caster instead of the original target. After transferring the affliction or condition, the caster is free to cure it in any way he can.</p>\n</div>\n"
    },
    "tags": [],
    "activation": {
      "type": "standard"
    },
    "unchainedAction": {
      "activation": {
        "cost": 2,
        "type": "action"
      }
    },
    "target": {
      "value": "creature touched"
    },
    "range": {
      "units": "touch"
    },
    "uses": {
      "per": ""
    },
    "measureTemplate": {
      "size": "0"
    },
    "actionType": "heal",
    "damage": {
      "parts": [],
      "critParts": [],
      "nonCritParts": []
    },
    "attackParts": [],
    "ability": {
      "attack": "",
      "damage": ""
    },
    "save": {
      "dc": "0",
      "type": "fort",
      "description": "Fortitude negates (harmless)"
    },
    "effectNotes": [],
    "attackNotes": [],
    "links": {
      "children": []
    },
    "flags": {
      "boolean": [],
      "dictionary": []
    },
    "scriptCalls": [],
    "learnedAt": {
      "class": [
        [
          "cleric/oracle",
          3
        ],
        [
          "druid",
          3
        ],
        [
          "bard",
          3
        ],
        [
          "paladin",
          3
        ],
        [
          "witch",
          3
        ],
        [
          "hunter",
          3
        ]
      ],
      "domain": [],
      "subDomain": [],
      "elementalSchool": [],
      "bloodline": []
    },
    "level": 3,
    "school": "con",
    "subschool": "healing",
    "types": "good",
    "conditionals": [],
    "components": {
      "verbal": true,
      "somatic": true,
      "material": true,
      "divineFocus": 2
    },
    "materials": {
      "value": "dove's heart"
    },
    "shortDescription": "<p>The caster can transfer the effects of afflictions such as curses, diseases, and poisons from the target creature to himself. This spell can also transfer the blinded, deafened, fatigued, nauseated, shaken, and sickened conditions. All aspects of the transferred afflictions (save DCs, remaining duration, removal conditions, and so on) remain the same, but affect the caster instead of the original target. After transferring the affliction or condition, the caster is free to cure it in any way he can.</p>",
    "spellDuration": "instantaneous"
  },
  "effects": [],
  "folder": null,
  "sort": 0,
  "permission": {
    "default": 0
  },
  "flags": {}
}