{
  "_id": "j8yy20g29vl1elhv",
  "name": "Akashic Communion",
  "type": "spell",
  "img": "systems/pf1/icons/misc/magic-swirl.png",
  "data": {
    "description": {
      "value": "<div class=\"spell-description\">\n  <p>\n    <strong>School</strong>&nbsp;divination;\n    <strong>Level</strong>&nbsp;bard 3, medium 3, mesmerist 4, occultist 3, psychic 3, shaman 3, sorcerer/wizard 4, spiritualist 4, witch 3;\n    \n    \n    \n    \n  </p>\n  <p>\n    <strong>Casting Time</strong>&nbsp;10 minutes<br>\n    <strong>Components</strong>&nbsp;V, S, M/DF (a square of reflective silver worth 100 gp)<br>\n  </p>\n  <p>\n    <strong>Range</strong>&nbsp;personal<br>\n    \n    \n    \n    <strong>Duration</strong>&nbsp;1 minute/level<br>\n  </p>\n  <h2>Description</h2>\n  <p>You attempt to obtain a glimpse of some specific event from the Akashic Record (<i>Occult Adventures</i> 244), the extraplanar repository of all experiences that have ever occurred. This allows you to attempt one Knowledge skill check of your choice per 3 caster levels you have, each with a +10 insight bonus. You are treated as trained in any Knowledge skills used for these checks, and can use this spell to reroll a Knowledge skill check you have already failed. The GM rolls these Knowledge checks in secret, as the Akashic Record is incredibly remote, and impressions gleaned from the distant repository are sometimes skewed when received. On a natural 1, the resulting answer is wildly inaccurate.  This spell provides experiential guidance based on your ability to understand the flashes of insight gleaned from the Akashic Record, rather than the perfect knowledge available to those who travel to the extraplanar repository of knowledge. If you lag, discuss the answers, or go off to do anything else, the spell ends. Once you have used this spell to gain information on a specific topic or event, you cannot use it for Knowledge checks regarding that topic or event again until you have gained a caster level.</p>\n</div>\n"
    },
    "tags": [],
    "activation": {
      "cost": 10,
      "type": "minute"
    },
    "unchainedAction": {
      "activation": {
        "cost": 10,
        "type": "minute"
      }
    },
    "range": {
      "units": "personal"
    },
    "uses": {
      "per": ""
    },
    "measureTemplate": {
      "size": "0"
    },
    "actionType": "",
    "damage": {
      "parts": [],
      "critParts": [],
      "nonCritParts": []
    },
    "attackParts": [],
    "ability": {
      "attack": "",
      "damage": ""
    },
    "save": {
      "dc": "0"
    },
    "effectNotes": [],
    "attackNotes": [],
    "links": {
      "children": []
    },
    "flags": {
      "boolean": [],
      "dictionary": []
    },
    "scriptCalls": [],
    "learnedAt": {
      "class": [
        [
          "sorcerer/wizard",
          4
        ],
        [
          "bard",
          3
        ],
        [
          "witch",
          3
        ],
        [
          "shaman",
          3
        ],
        [
          "psychic",
          3
        ],
        [
          "medium",
          3
        ],
        [
          "mesmerist",
          4
        ],
        [
          "occultist",
          3
        ],
        [
          "spiritualist",
          4
        ]
      ],
      "domain": [],
      "subDomain": [],
      "elementalSchool": [],
      "bloodline": []
    },
    "level": 4,
    "school": "div",
    "conditionals": [],
    "components": {
      "verbal": true,
      "somatic": true,
      "material": true,
      "divineFocus": 2
    },
    "materials": {
      "value": "a square of reflective silver worth 100 gp",
      "gpValue": 100
    },
    "spellbook": "",
    "preparation": {
      "autoDeductCharges": false,
      "spontaneousPrepared": false
    },
    "sr": false,
    "shortDescription": "<p>You attempt to obtain a glimpse of some specific event from the Akashic Record (<i>Occult Adventures</i> 244), the extraplanar repository of all experiences that have ever occurred. This allows you to attempt one Knowledge skill check of your choice per 3 caster levels you have, each with a +10 insight bonus. You are treated as trained in any Knowledge skills used for these checks, and can use this spell to reroll a Knowledge skill check you have already failed. The GM rolls these Knowledge checks in secret, as the Akashic Record is incredibly remote, and impressions gleaned from the distant repository are sometimes skewed when received. On a natural 1, the resulting answer is wildly inaccurate.  This spell provides experiential guidance based on your ability to understand the flashes of insight gleaned from the Akashic Record, rather than the perfect knowledge available to those who travel to the extraplanar repository of knowledge. If you lag, discuss the answers, or go off to do anything else, the spell ends. Once you have used this spell to gain information on a specific topic or event, you cannot use it for Knowledge checks regarding that topic or event again until you have gained a caster level.</p>",
    "spellDuration": "1 minute/level",
    "spellPoints": {
      "cost": ""
    }
  },
  "effects": [],
  "folder": null,
  "sort": 0,
  "permission": {
    "default": 0
  },
  "flags": {}
}