{
  "_id": "3ah9mmg0odateh8l",
  "name": "Animal Shapes",
  "type": "spell",
  "img": "systems/pf1/icons/misc/magic-swirl.png",
  "data": {
    "description": {
      "value": "<div class=\"spell-description\">\n  <p>\n    <strong>School</strong>&nbsp;transmutation&nbsp;(polymorph);\n    <strong>Level</strong>&nbsp;druid 8, shaman 8;\n    <strong>Domain</strong>&nbsp;Animal 7, Scalykind 8;\n    \n    \n    \n  </p>\n  <p>\n    <strong>Casting Time</strong>&nbsp;1 standard<br>\n    <strong>Components</strong>&nbsp;V, S, DF<br>\n  </p>\n  <p>\n    <strong>Range</strong>&nbsp;close (25 ft. + 5 ft./2 levels)<br>\n    \n    <strong>Targets</strong>&nbsp;up to one willing creature per level, all within 30 ft. of each other.<br>\n    \n    <strong>Duration</strong>&nbsp;1 hour/level<br>\n      <strong>Saving Throw</strong>&nbsp;none; see text;&nbsp;\n      <strong>Spell Resistance</strong>&nbsp;yes<br>\n  </p>\n  <h2>Description</h2>\n  <p>As <i>beast shape III</i>, except you change the form of up to one willing creature per caster level into an animal of your choice; the spell has no effect on unwilling creatures. All creatures must take the same kind of animal form. Recipients remain in the animal form until the spell expires or until you dismiss it for all recipients. In addition, an individual subject may choose to resume its normal form as a full-round action; doing so ends the spell for that subject alone.</p>\n</div>\n"
    },
    "tags": [],
    "activation": {
      "type": "standard"
    },
    "unchainedAction": {
      "activation": {
        "cost": 2,
        "type": "action"
      }
    },
    "target": {
      "value": "up to one willing creature per level, all within 30 ft. of each other."
    },
    "range": {
      "units": "close"
    },
    "uses": {
      "per": ""
    },
    "measureTemplate": {
      "size": "0"
    },
    "actionType": "spellsave",
    "damage": {
      "parts": [],
      "critParts": [],
      "nonCritParts": []
    },
    "attackParts": [],
    "ability": {
      "attack": "",
      "damage": ""
    },
    "save": {
      "dc": "0",
      "description": "none; see text"
    },
    "effectNotes": [],
    "attackNotes": [],
    "links": {
      "children": []
    },
    "flags": {
      "boolean": [],
      "dictionary": []
    },
    "scriptCalls": [],
    "learnedAt": {
      "class": [
        [
          "druid",
          8
        ],
        [
          "shaman",
          8
        ]
      ],
      "domain": [
        [
          "Animal",
          7
        ],
        [
          "Scalykind",
          8
        ]
      ],
      "subDomain": [],
      "elementalSchool": [],
      "bloodline": []
    },
    "level": 8,
    "school": "trs",
    "subschool": "polymorph",
    "conditionals": [],
    "components": {
      "verbal": true,
      "somatic": true,
      "divineFocus": 1
    },
    "shortDescription": "<p>As <i>beast shape III</i>, except you change the form of up to one willing creature per caster level into an animal of your choice; the spell has no effect on unwilling creatures. All creatures must take the same kind of animal form. Recipients remain in the animal form until the spell expires or until you dismiss it for all recipients. In addition, an individual subject may choose to resume its normal form as a full-round action; doing so ends the spell for that subject alone.</p>",
    "spellDuration": "1 hour/level"
  },
  "effects": [],
  "folder": null,
  "sort": 0,
  "permission": {
    "default": 0
  },
  "flags": {}
}