{
  "_id": "lkxofop6xnndyf5g",
  "name": "Arbitrament",
  "type": "spell",
  "img": "systems/pf1/icons/misc/magic-swirl.png",
  "data": {
    "description": {
      "value": "<div class=\"spell-description\">\n  <p>\n    <strong>School</strong>&nbsp;evocation&nbsp;[sonic];\n    <strong>Level</strong>&nbsp;cleric/oracle 7, inquisitor 6;\n    \n    \n    \n    \n  </p>\n  <p>\n    <strong>Casting Time</strong>&nbsp;1 standard<br>\n    <strong>Components</strong>&nbsp;V<br>\n  </p>\n  <p>\n    <strong>Range</strong>&nbsp;40 feet<br>\n    \n    <strong>Targets</strong>&nbsp;non-neutral creatures in a 40-ft.-radius spread centered on you<br>\n    \n    <strong>Duration</strong>&nbsp;instantaneous<br>\n      <strong>Saving Throw</strong>&nbsp;Will partial, see text;&nbsp;\n      <strong>Spell Resistance</strong>&nbsp;yes<br>\n  </p>\n  <h2>Description</h2>\n  <p>All chaotic evil, chaotic good, lawful evil, and lawful good creatures within the area of this spell suffer the following conditions, based on their Hit Dice.   <table border ='1'><tr><th>Hit Dice</th><th>Effect</th></tr><tr><td>Equal to caster level</td><td>Sickened</td></tr><tr><td>Up to caster level - 1</td><td>Sickened, staggered</td></tr><tr><td>Up to caster level - 5</td><td>Nauseated, sickened, staggered</td></tr><tr><td>Up to caster level - 10</td><td>Killed, nauseated, sickened, staggered</td></tr></table>   The effects are concurrent. A creature can attempt a Will save to reduce or negate the effects. If subject to multiple effects, the creature rolls once and applies the result to each effect.  <br><b>Sickened</b>: The creature is sickened for 1d4 rounds (Will negates).  <br><b>Staggered</b>: The creature is staggered for 2d4 rounds, or for 1d4 rounds on a successful Will save.  <br><b>Nauseated</b>: The creature is nauseated for 1d10 minutes, or for 1d4 rounds on a successful Will save.  <br><b>Killed</b>: Living creatures die, and undead creatures are destroyed. On a successful Will save, the creature instead takes 3d6 points of damage + 1 point per caster level (maximum +25).  Furthermore, if you are on your home plane when you cast this spell, all chaotic evil, chaotic good, lawful evil, and lawful good extraplanar creatures within the area are banished to their home planes (Will negates, at a -4 penalty). Creatures so banished cannot return for at least 24 hours. This effect takes place regardless of whether the creatures hear the <i>arbitrament</i>.  Creatures whose Hit Dice exceed your caster level are unaffected by <i>arbitrament</i>.</p>\n</div>\n"
    },
    "tags": [],
    "activation": {
      "type": "standard"
    },
    "unchainedAction": {
      "activation": {
        "cost": 2,
        "type": "action"
      }
    },
    "target": {
      "value": "non-neutral creatures in a 40-ft.-radius spread centered on you"
    },
    "range": {
      "value": 40,
      "units": "ft"
    },
    "uses": {
      "per": ""
    },
    "measureTemplate": {
      "size": "0"
    },
    "actionType": "spellsave",
    "damage": {
      "parts": [],
      "critParts": [],
      "nonCritParts": []
    },
    "attackParts": [],
    "ability": {
      "attack": "",
      "damage": ""
    },
    "save": {
      "dc": "0",
      "type": "will",
      "description": "Will partial, see text"
    },
    "effectNotes": [],
    "attackNotes": [],
    "links": {
      "children": []
    },
    "flags": {
      "boolean": [],
      "dictionary": []
    },
    "scriptCalls": [],
    "learnedAt": {
      "class": [
        [
          "cleric/oracle",
          7
        ],
        [
          "inquisitor",
          6
        ]
      ],
      "domain": [],
      "subDomain": [],
      "elementalSchool": [],
      "bloodline": []
    },
    "level": 7,
    "school": "evo",
    "types": "sonic",
    "conditionals": [],
    "components": {
      "verbal": true
    },
    "shortDescription": "<p>All chaotic evil, chaotic good, lawful evil, and lawful good creatures within the area of this spell suffer the following conditions, based on their Hit Dice.   <table border ='1'><tr><th>Hit Dice</th><th>Effect</th></tr><tr><td>Equal to caster level</td><td>Sickened</td></tr><tr><td>Up to caster level - 1</td><td>Sickened, staggered</td></tr><tr><td>Up to caster level - 5</td><td>Nauseated, sickened, staggered</td></tr><tr><td>Up to caster level - 10</td><td>Killed, nauseated, sickened, staggered</td></tr></table>   The effects are concurrent. A creature can attempt a Will save to reduce or negate the effects. If subject to multiple effects, the creature rolls once and applies the result to each effect.  <br><b>Sickened</b>: The creature is sickened for 1d4 rounds (Will negates).  <br><b>Staggered</b>: The creature is staggered for 2d4 rounds, or for 1d4 rounds on a successful Will save.  <br><b>Nauseated</b>: The creature is nauseated for 1d10 minutes, or for 1d4 rounds on a successful Will save.  <br><b>Killed</b>: Living creatures die, and undead creatures are destroyed. On a successful Will save, the creature instead takes 3d6 points of damage + 1 point per caster level (maximum +25).  Furthermore, if you are on your home plane when you cast this spell, all chaotic evil, chaotic good, lawful evil, and lawful good extraplanar creatures within the area are banished to their home planes (Will negates, at a -4 penalty). Creatures so banished cannot return for at least 24 hours. This effect takes place regardless of whether the creatures hear the <i>arbitrament</i>.  Creatures whose Hit Dice exceed your caster level are unaffected by <i>arbitrament</i>.</p>",
    "spellDuration": "instantaneous"
  },
  "effects": [],
  "folder": null,
  "sort": 0,
  "permission": {
    "default": 0
  },
  "flags": {}
}