{
  "_id": "kh6c6d2rdreat2x3",
  "name": "Arcane Concordance",
  "type": "spell",
  "img": "systems/pf1/icons/misc/magic-swirl.png",
  "data": {
    "description": {
      "value": "<div class=\"spell-description\">\n  <p>\n    <strong>School</strong>&nbsp;evocation;\n    <strong>Level</strong>&nbsp;bard 3;\n    \n    \n    \n    \n  </p>\n  <p>\n    <strong>Casting Time</strong>&nbsp;1 standard<br>\n    <strong>Components</strong>&nbsp;V, S, M (a spent wand)<br>\n  </p>\n  <p>\n    <strong>Range</strong>&nbsp;personal<br>\n    <strong>Area</strong>&nbsp;10-ft.-radius emanation centered on you<br>\n    <strong>Targets</strong>&nbsp;you<br>\n    \n    <strong>Duration</strong>&nbsp;1 round/level<br>\n  </p>\n  <h2>Description</h2>\n  <p>A shimmering, blue and gold radiance surrounds you, enhancing arcane spells cast by your allies within its area. Any arcane spell cast by a creature within the area gains a +1 enhancement bonus to the DC of any saving throws against the spell, and can be cast as if one of the following metamagic feats was applied to it (without increasing the spell level or casting time): Enlarge Spell, Extend Spell, Silent Spell, or Still Spell (you choose the metamagic feat when you cast <i>arcane concordance</i>).</p>\n</div>\n"
    },
    "tags": [],
    "activation": {
      "type": "standard"
    },
    "unchainedAction": {
      "activation": {
        "cost": 2,
        "type": "action"
      }
    },
    "target": {
      "value": "you"
    },
    "range": {
      "units": "personal"
    },
    "uses": {
      "per": ""
    },
    "measureTemplate": {
      "size": "0"
    },
    "actionType": "",
    "damage": {
      "parts": [],
      "critParts": [],
      "nonCritParts": []
    },
    "attackParts": [],
    "ability": {
      "attack": "",
      "damage": ""
    },
    "save": {
      "dc": "0"
    },
    "effectNotes": [],
    "attackNotes": [],
    "links": {
      "children": []
    },
    "flags": {
      "boolean": [],
      "dictionary": []
    },
    "scriptCalls": [],
    "learnedAt": {
      "class": [
        [
          "bard",
          3
        ]
      ],
      "domain": [],
      "subDomain": [],
      "elementalSchool": [],
      "bloodline": []
    },
    "level": 3,
    "school": "evo",
    "conditionals": [],
    "components": {
      "verbal": true,
      "somatic": true,
      "material": true
    },
    "materials": {
      "value": "a spent wand"
    },
    "sr": false,
    "shortDescription": "<p>A shimmering, blue and gold radiance surrounds you, enhancing arcane spells cast by your allies within its area. Any arcane spell cast by a creature within the area gains a +1 enhancement bonus to the DC of any saving throws against the spell, and can be cast as if one of the following metamagic feats was applied to it (without increasing the spell level or casting time): Enlarge Spell, Extend Spell, Silent Spell, or Still Spell (you choose the metamagic feat when you cast <i>arcane concordance</i>).</p>",
    "spellDuration": "1 round/level",
    "spellArea": "10-ft.-radius emanation centered on you"
  },
  "effects": [],
  "folder": null,
  "sort": 0,
  "permission": {
    "default": 0
  },
  "flags": {}
}