{
  "_id": "cqhabnit3b7l5ezm",
  "name": "Arcane Lock",
  "type": "spell",
  "img": "systems/pf1/icons/misc/magic-swirl.png",
  "data": {
    "description": {
      "value": "<div class=\"spell-description\">\n  <p>\n    <strong>School</strong>&nbsp;abjuration;\n    <strong>Level</strong>&nbsp;occultist 2, sorcerer/wizard 2;\n    \n    <strong>Subdomain</strong>&nbsp;Wards 1;\n    \n    \n  </p>\n  <p>\n    <strong>Casting Time</strong>&nbsp;1 standard<br>\n    <strong>Components</strong>&nbsp;V, S, M (gold dust worth 25 gp)<br>\n  </p>\n  <p>\n    <strong>Range</strong>&nbsp;touch<br>\n    \n    <strong>Targets</strong>&nbsp;door, chest, or portal touched, up to 30 sq. ft./level in size<br>\n    \n    <strong>Duration</strong>&nbsp;permanent<br>\n      <strong>Saving Throw</strong>&nbsp;none;&nbsp;\n      <strong>Spell Resistance</strong>&nbsp;no<br>\n  </p>\n  <h2>Description</h2>\n  <p>An <i>arcane lock</i> spell cast upon a door, chest, or portal magically locks it. You can freely pass your own arcane lock without affecting it. If the locked object has a lock, the DC to open that lock increases by 10 while it remains attached to the object. If the object does not have a lock, this spell creates one that can only be opened with a DC 20 Disable Device skill check. A door or object secured with this spell can be opened only by breaking in or with a successful <i>dispel magic</i> or <i>knock</i> spell. Add 10 to the normal DC to break open a door or portal affected by this spell. A <i>knock</i> spell does not remove an <i>arcane lock</i>; it only suppresses the effect for 10 minutes.</p>\n</div>\n"
    },
    "tags": [],
    "activation": {
      "type": "standard"
    },
    "unchainedAction": {
      "activation": {
        "cost": 2,
        "type": "action"
      }
    },
    "target": {
      "value": "door, chest, or portal touched, up to 30 sq. ft./level in size"
    },
    "range": {
      "units": "touch"
    },
    "uses": {
      "per": ""
    },
    "measureTemplate": {
      "size": "0"
    },
    "actionType": "",
    "damage": {
      "parts": [],
      "critParts": [],
      "nonCritParts": []
    },
    "attackParts": [],
    "ability": {
      "attack": "",
      "damage": ""
    },
    "save": {
      "dc": "0"
    },
    "effectNotes": [],
    "attackNotes": [],
    "links": {
      "children": []
    },
    "flags": {
      "boolean": [],
      "dictionary": []
    },
    "scriptCalls": [],
    "learnedAt": {
      "class": [
        [
          "sorcerer/wizard",
          2
        ],
        [
          "occultist",
          2
        ]
      ],
      "domain": [],
      "subDomain": [
        [
          "Wards",
          1
        ]
      ],
      "elementalSchool": [],
      "bloodline": []
    },
    "level": 2,
    "school": "abj",
    "conditionals": [],
    "components": {
      "verbal": true,
      "somatic": true,
      "material": true
    },
    "materials": {
      "value": "gold dust worth 25 gp",
      "gpValue": 25
    },
    "spellbook": "",
    "preparation": {
      "autoDeductCharges": false,
      "spontaneousPrepared": false
    },
    "sr": false,
    "shortDescription": "<p>An <i>arcane lock</i> spell cast upon a door, chest, or portal magically locks it. You can freely pass your own arcane lock without affecting it. If the locked object has a lock, the DC to open that lock increases by 10 while it remains attached to the object. If the object does not have a lock, this spell creates one that can only be opened with a DC 20 Disable Device skill check. A door or object secured with this spell can be opened only by breaking in or with a successful <i>dispel magic</i> or <i>knock</i> spell. Add 10 to the normal DC to break open a door or portal affected by this spell. A <i>knock</i> spell does not remove an <i>arcane lock</i>; it only suppresses the effect for 10 minutes.</p>",
    "spellDuration": "permanent",
    "spellPoints": {
      "cost": ""
    }
  },
  "effects": [],
  "folder": null,
  "sort": 0,
  "permission": {
    "default": 0
  },
  "flags": {}
}