{
  "_id": "uy4sgtephkpydjy5",
  "name": "Aura of Doom",
  "type": "spell",
  "img": "systems/pf1/icons/misc/magic-swirl.png",
  "data": {
    "description": {
      "value": "<div class=\"spell-description\">\n  <p>\n    <strong>School</strong>&nbsp;necromancy&nbsp;[emotion, fear, mind-affecting];\n    <strong>Level</strong>&nbsp;cleric/oracle 4, psychic 4, spiritualist 4;\n    \n    \n    \n    \n  </p>\n  <p>\n    <strong>Casting Time</strong>&nbsp;1 standard<br>\n    <strong>Components</strong>&nbsp;V, S, M/DF (powdered bone)<br>\n  </p>\n  <p>\n    <strong>Range</strong>&nbsp;personal<br>\n    <strong>Area</strong>&nbsp;20-ft.-radius emanation centered on you<br>\n    \n    \n    <strong>Duration</strong>&nbsp;10 minute/level<br>\n  </p>\n  <h2>Description</h2>\n  <p>You emanate an almost palpable aura of horror. All non-allies within this spell's area, or that later enter the area, must make a Will save to avoid becoming shaken. A successful save suppresses the effect. Creatures that leave the area and come back must save again to avoid being affected by the effect.</p>\n</div>\n"
    },
    "tags": [],
    "activation": {
      "type": "standard"
    },
    "unchainedAction": {
      "activation": {
        "cost": 2,
        "type": "action"
      }
    },
    "range": {
      "units": "personal"
    },
    "uses": {
      "per": ""
    },
    "measureTemplate": {
      "size": "0"
    },
    "actionType": "spellsave",
    "damage": {
      "parts": [],
      "critParts": [],
      "nonCritParts": []
    },
    "attackParts": [],
    "ability": {
      "attack": "",
      "damage": ""
    },
    "save": {
      "dc": "0",
      "type": "will",
      "description": "Will negates"
    },
    "effectNotes": [],
    "attackNotes": [],
    "links": {
      "children": []
    },
    "flags": {
      "boolean": [],
      "dictionary": []
    },
    "scriptCalls": [],
    "learnedAt": {
      "class": [
        [
          "cleric/oracle",
          4
        ],
        [
          "psychic",
          4
        ],
        [
          "spiritualist",
          4
        ]
      ],
      "domain": [],
      "subDomain": [],
      "elementalSchool": [],
      "bloodline": []
    },
    "level": 4,
    "school": "nec",
    "types": "emotion, fear, mind-affecting",
    "conditionals": [],
    "components": {
      "verbal": true,
      "somatic": true,
      "material": true,
      "divineFocus": 2
    },
    "materials": {
      "value": "powdered bone"
    },
    "shortDescription": "<p>You emanate an almost palpable aura of horror. All non-allies within this spell's area, or that later enter the area, must make a Will save to avoid becoming shaken. A successful save suppresses the effect. Creatures that leave the area and come back must save again to avoid being affected by the effect.</p>",
    "spellDuration": "10 minute/level",
    "spellArea": "20-ft.-radius emanation centered on you"
  },
  "effects": [],
  "folder": null,
  "sort": 0,
  "permission": {
    "default": 0
  },
  "flags": {}
}