{
  "_id": "1moeejp3mch70ys5",
  "name": "Ball Lightning",
  "type": "spell",
  "img": "systems/pf1/icons/misc/magic-swirl.png",
  "data": {
    "description": {
      "value": "<div class=\"spell-description\">\n  <p>\n    <strong>School</strong>&nbsp;evocation&nbsp;[air, electricity];\n    <strong>Level</strong>&nbsp;bloodrager 4, druid 4, hunter 4, magus 4, occultist 4, shaman 4, sorcerer/wizard 4;\n    \n    \n    \n    \n  </p>\n  <p>\n    <strong>Casting Time</strong>&nbsp;1 standard<br>\n    <strong>Components</strong>&nbsp;V, S, M/DF (a small iron ring)<br>\n  </p>\n  <p>\n    <strong>Range</strong>&nbsp;medium (100 ft. + 10 ft./level)<br>\n    \n    \n    <strong>Effect</strong>&nbsp;two or more 5-ft.-diameter spheres<br>\n    <strong>Duration</strong>&nbsp;1 round/level<br>\n      <strong>Saving Throw</strong>&nbsp;Reflex negates;&nbsp;\n      <strong>Spell Resistance</strong>&nbsp;yes<br>\n  </p>\n  <h2>Description</h2>\n  <p>You create two globes of lightning that fly in whichever direction you indicate. For every 4 caster levels above 7th, you create an additional globe of lightning (3 globes at 11th, 4 globes at 15th, to the maximum of 5 globes at 19th). These globes fly at a rate of 20 feet per round and have perfect maneuverability. Wind does not affect a flying sphere's course.</p><p>If a globe enters a space with a creature, it stops moving for the round and deals 3d6 points of electricity damage to that creature, though a successful Reflex save negates the damage. Creatures wearing metal armor take a -4 penalty on this saving throw.</p><p>Each globe moves as long as you actively direct it (it's a move action for you to direct all the spheres created by a single casting of this spell); otherwise they stay at rest. These globes have no mass and cannot push aside unwilling creatures or move solid objects. A <i>ball lightning</i> globe winks out if it exceeds the spell's range.</p>\n</div>\n"
    },
    "tags": [],
    "activation": {
      "type": "standard"
    },
    "unchainedAction": {
      "activation": {
        "cost": 2,
        "type": "action"
      }
    },
    "range": {
      "units": "medium"
    },
    "uses": {
      "per": ""
    },
    "measureTemplate": {
      "size": "0"
    },
    "actionType": "spellsave",
    "damage": {
      "parts": [],
      "critParts": [],
      "nonCritParts": []
    },
    "attackParts": [],
    "ability": {
      "attack": "",
      "damage": ""
    },
    "save": {
      "dc": "0",
      "type": "ref",
      "description": "Reflex negates"
    },
    "effectNotes": [],
    "attackNotes": [],
    "links": {
      "children": []
    },
    "flags": {
      "boolean": [],
      "dictionary": []
    },
    "scriptCalls": [],
    "learnedAt": {
      "class": [
        [
          "sorcerer/wizard",
          4
        ],
        [
          "druid",
          4
        ],
        [
          "magus",
          4
        ],
        [
          "bloodrager",
          4
        ],
        [
          "shaman",
          4
        ],
        [
          "occultist",
          4
        ],
        [
          "hunter",
          4
        ]
      ],
      "domain": [],
      "subDomain": [],
      "elementalSchool": [],
      "bloodline": []
    },
    "level": 4,
    "school": "evo",
    "types": "air, electricity",
    "conditionals": [],
    "components": {
      "verbal": true,
      "somatic": true,
      "material": true,
      "divineFocus": 2
    },
    "materials": {
      "value": "a small iron ring"
    },
    "shortDescription": "<p>You create two globes of lightning that fly in whichever direction you indicate. For every 4 caster levels above 7th, you create an additional globe of lightning (3 globes at 11th, 4 globes at 15th, to the maximum of 5 globes at 19th). These globes fly at a rate of 20 feet per round and have perfect maneuverability. Wind does not affect a flying sphere's course.</p><p>If a globe enters a space with a creature, it stops moving for the round and deals 3d6 points of electricity damage to that creature, though a successful Reflex save negates the damage. Creatures wearing metal armor take a -4 penalty on this saving throw.</p><p>Each globe moves as long as you actively direct it (it's a move action for you to direct all the spheres created by a single casting of this spell); otherwise they stay at rest. These globes have no mass and cannot push aside unwilling creatures or move solid objects. A <i>ball lightning</i> globe winks out if it exceeds the spell's range.</p>",
    "spellDuration": "1 round/level",
    "spellEffect": "two or more 5-ft.-diameter spheres"
  },
  "effects": [],
  "folder": null,
  "sort": 0,
  "permission": {
    "default": 0
  },
  "flags": {}
}