{
  "_id": "b7cjr9x4kqnq9o0l",
  "name": "Barghest Feast",
  "type": "spell",
  "img": "systems/pf1/icons/misc/magic-swirl.png",
  "data": {
    "description": {
      "value": "<div class=\"spell-description\">\n  <p>\n    <strong>School</strong>&nbsp;transmutation&nbsp;[evil];\n    <strong>Level</strong>&nbsp;alchemist 3;\n    \n    \n    \n    \n  </p>\n  <p>\n    <strong>Casting Time</strong>&nbsp;1 standard<br>\n    <strong>Components</strong>&nbsp;S<br>\n  </p>\n  <p>\n    <strong>Range</strong>&nbsp;touch<br>\n    \n    <strong>Targets</strong>&nbsp;creature touched<br>\n    \n    <strong>Duration</strong>&nbsp;10 minutes/level; see text<br>\n      <strong>Saving Throw</strong>&nbsp;Will negates (harmless);&nbsp;\n      <strong>Spell Resistance</strong>&nbsp;yes<br>\n  </p>\n  <h2>Description</h2>\n  <p>The target gains the ability to absorb power from devouring a humanoid corpse. To use this ability, the target must feed on the corpse of one nonevil humanoid creature, a process that takes 1 full round per Hit Die the creature had and provokes attacks of opportunity. For every 2 rounds it feeds on the corpse in this way, the target gains a +1 profane bonus on attack rolls, saving throws, and skill checks (to a maximum of +5).</p>\n</div>\n"
    },
    "tags": [],
    "activation": {
      "type": "standard"
    },
    "unchainedAction": {
      "activation": {
        "cost": 2,
        "type": "action"
      }
    },
    "target": {
      "value": "creature touched"
    },
    "range": {
      "units": "touch"
    },
    "uses": {
      "per": ""
    },
    "measureTemplate": {
      "size": "0"
    },
    "actionType": "spellsave",
    "damage": {
      "parts": [],
      "critParts": [],
      "nonCritParts": []
    },
    "attackParts": [],
    "ability": {
      "attack": "",
      "damage": ""
    },
    "save": {
      "dc": "0",
      "type": "will",
      "description": "Will negates (harmless)"
    },
    "effectNotes": [],
    "attackNotes": [],
    "links": {
      "children": []
    },
    "flags": {
      "boolean": [],
      "dictionary": []
    },
    "scriptCalls": [],
    "learnedAt": {
      "class": [
        [
          "alchemist",
          3
        ]
      ],
      "domain": [],
      "subDomain": [],
      "elementalSchool": [],
      "bloodline": []
    },
    "level": 3,
    "school": "trs",
    "types": "evil",
    "conditionals": [],
    "components": {
      "somatic": true
    },
    "shortDescription": "<p>The target gains the ability to absorb power from devouring a humanoid corpse. To use this ability, the target must feed on the corpse of one nonevil humanoid creature, a process that takes 1 full round per Hit Die the creature had and provokes attacks of opportunity. For every 2 rounds it feeds on the corpse in this way, the target gains a +1 profane bonus on attack rolls, saving throws, and skill checks (to a maximum of +5).</p>",
    "spellDuration": "10 minutes/level; see text"
  },
  "effects": [],
  "folder": null,
  "sort": 0,
  "permission": {
    "default": 0
  },
  "flags": {}
}