{
  "_id": "dd8afygrpxpothn7",
  "name": "Beacon of Luck",
  "type": "spell",
  "img": "systems/pf1/icons/misc/magic-swirl.png",
  "data": {
    "description": {
      "value": "<div class=\"spell-description\">\n  <p>\n    <strong>School</strong>&nbsp;divination;\n    <strong>Level</strong>&nbsp;bard 3, cleric/oracle 3, inquisitor 4, paladin 4;\n    \n    \n    \n    \n  </p>\n  <p>\n    <strong>Casting Time</strong>&nbsp;1 standard<br>\n    <strong>Components</strong>&nbsp;V, S, M/DF (a tuft of rabbit fur)<br>\n  </p>\n  <p>\n    <strong>Range</strong>&nbsp;personal<br>\n    \n    <strong>Targets</strong>&nbsp;you<br>\n    \n    <strong>Duration</strong>&nbsp;1 minute/level (D)<br>\n  </p>\n  <h2>Description</h2>\n  <p>You send out a burst of luck with a 30-foot radius centered around you. While the <i>Beacon of Luck</i>  is in effect, you gain a +2 sacred bonus on all saving throws. As an immediate action before a saving throw is made, allies within the area can choose to benefit from this luck, rolling twice for a saving throw and taking the better result. Once a creature benefits from the <i>Beacon of Luck</i> in this way, it cannot gain the benefit of this spell for 24 hours.</p>\n</div>\n"
    },
    "tags": [],
    "activation": {
      "type": "standard"
    },
    "unchainedAction": {
      "activation": {
        "cost": 2,
        "type": "action"
      }
    },
    "target": {
      "value": "you"
    },
    "range": {
      "units": "personal"
    },
    "uses": {
      "per": ""
    },
    "measureTemplate": {
      "size": "0"
    },
    "actionType": "",
    "damage": {
      "parts": [],
      "critParts": [],
      "nonCritParts": []
    },
    "attackParts": [],
    "ability": {
      "attack": "",
      "damage": ""
    },
    "save": {
      "dc": "0"
    },
    "effectNotes": [],
    "attackNotes": [],
    "links": {
      "children": []
    },
    "flags": {
      "boolean": [],
      "dictionary": []
    },
    "scriptCalls": [],
    "learnedAt": {
      "class": [
        [
          "cleric/oracle",
          3
        ],
        [
          "bard",
          3
        ],
        [
          "paladin",
          4
        ],
        [
          "inquisitor",
          4
        ]
      ],
      "domain": [],
      "subDomain": [],
      "elementalSchool": [],
      "bloodline": []
    },
    "level": 3,
    "school": "div",
    "conditionals": [],
    "components": {
      "verbal": true,
      "somatic": true,
      "material": true,
      "divineFocus": 2
    },
    "materials": {
      "value": "a tuft of rabbit fur"
    },
    "sr": false,
    "shortDescription": "<p>You send out a burst of luck with a 30-foot radius centered around you. While the <i>Beacon of Luck</i>  is in effect, you gain a +2 sacred bonus on all saving throws. As an immediate action before a saving throw is made, allies within the area can choose to benefit from this luck, rolling twice for a saving throw and taking the better result. Once a creature benefits from the <i>Beacon of Luck</i> in this way, it cannot gain the benefit of this spell for 24 hours.</p>",
    "spellDuration": "1 minute/level (D)"
  },
  "effects": [],
  "folder": null,
  "sort": 0,
  "permission": {
    "default": 0
  },
  "flags": {}
}