{
  "_id": "ueb1qcb6rdliovic",
  "name": "Biting Words",
  "type": "spell",
  "img": "systems/pf1/icons/misc/magic-swirl.png",
  "data": {
    "description": {
      "value": "<div class=\"spell-description\">\n  <p>\n    <strong>School</strong>&nbsp;evocation&nbsp;[language-dependent, sonic];\n    <strong>Level</strong>&nbsp;bard 1, bloodrager 1;\n    \n    \n    \n    \n  </p>\n  <p>\n    <strong>Casting Time</strong>&nbsp;1 standard<br>\n    <strong>Components</strong>&nbsp;V, S<br>\n  </p>\n  <p>\n    <strong>Range</strong>&nbsp;personal<br>\n    \n    <strong>Targets</strong>&nbsp;you<br>\n    \n    <strong>Duration</strong>&nbsp;1 minute/level<br>\n  </p>\n  <h2>Description</h2>\n  <p>Your voice becomes suffused with magic so that you can harm your opponents with but a word. As a standard action, you can target one  opponent within 30 feet with a ranged touch attack by speaking to it, dealing an amount of damage equal to 1d6 + your Strength or Charisma modifier, whichever is higher. The damage dealt is bludgeoning, piercing, and slashing damage and can be reduced by damage reduction. Each attack you make reduces the spell's remaining duration by 1 minute. If an attack reduces the remaining duration to 0 minutes or less, the spell ends after the attack resolves.  You can attack with <i>biting words</i> by shouting instead of speaking intelligibly. When doing so, the amount of damage dealt by the attack is reduced to 1d4 + 1/2 your Strength or Charisma modifier (whichever is higher), but the spell doesn't count as having the language-dependent descriptor for that attack.</p>\n</div>\n"
    },
    "tags": [],
    "activation": {
      "type": "standard"
    },
    "unchainedAction": {
      "activation": {
        "cost": 2,
        "type": "action"
      }
    },
    "target": {
      "value": "you"
    },
    "range": {
      "units": "personal"
    },
    "uses": {
      "per": ""
    },
    "measureTemplate": {
      "size": "0"
    },
    "actionType": "spellsave",
    "damage": {
      "parts": [],
      "critParts": [],
      "nonCritParts": []
    },
    "attackParts": [],
    "ability": {
      "attack": "",
      "damage": ""
    },
    "save": {
      "dc": "0",
      "type": "will",
      "description": "Will negates (harmless)"
    },
    "effectNotes": [],
    "attackNotes": [],
    "links": {
      "children": []
    },
    "flags": {
      "boolean": [],
      "dictionary": []
    },
    "scriptCalls": [],
    "learnedAt": {
      "class": [
        [
          "bard",
          1
        ],
        [
          "bloodrager",
          1
        ]
      ],
      "domain": [],
      "subDomain": [],
      "elementalSchool": [],
      "bloodline": []
    },
    "school": "evo",
    "types": "language-dependent, sonic",
    "conditionals": [],
    "components": {
      "verbal": true,
      "somatic": true
    },
    "sr": false,
    "shortDescription": "<p>Your voice becomes suffused with magic so that you can harm your opponents with but a word. As a standard action, you can target one  opponent within 30 feet with a ranged touch attack by speaking to it, dealing an amount of damage equal to 1d6 + your Strength or Charisma modifier, whichever is higher. The damage dealt is bludgeoning, piercing, and slashing damage and can be reduced by damage reduction. Each attack you make reduces the spell's remaining duration by 1 minute. If an attack reduces the remaining duration to 0 minutes or less, the spell ends after the attack resolves.  You can attack with <i>biting words</i> by shouting instead of speaking intelligibly. When doing so, the amount of damage dealt by the attack is reduced to 1d4 + 1/2 your Strength or Charisma modifier (whichever is higher), but the spell doesn't count as having the language-dependent descriptor for that attack.</p>",
    "spellDuration": "1 minute/level"
  },
  "effects": [],
  "folder": null,
  "sort": 0,
  "permission": {
    "default": 0
  },
  "flags": {}
}