{
  "_id": "gq7np9mwtfd500zg",
  "name": "Blight",
  "type": "spell",
  "img": "systems/pf1/icons/misc/magic-swirl.png",
  "data": {
    "description": {
      "value": "<div class=\"spell-description\">\n  <p>\n    <strong>School</strong>&nbsp;necromancy;\n    <strong>Level</strong>&nbsp;druid 4, hunter 4, shaman 5, sorcerer/wizard 5, witch 5;\n    \n    <strong>Subdomain</strong>&nbsp;Radiation 2, Seasons 4;\n    \n    <strong>Bloodline</strong>&nbsp;Daemon 5;\n  </p>\n  <p>\n    <strong>Casting Time</strong>&nbsp;1 standard<br>\n    <strong>Components</strong>&nbsp;V, S, DF<br>\n  </p>\n  <p>\n    <strong>Range</strong>&nbsp;touch<br>\n    \n    <strong>Targets</strong>&nbsp;plant touched<br>\n    \n    <strong>Duration</strong>&nbsp;instantaneous<br>\n      <strong>Saving Throw</strong>&nbsp;Fortitude half; see text;&nbsp;\n      <strong>Spell Resistance</strong>&nbsp;yes<br>\n  </p>\n  <h2>Description</h2>\n  <p>This spell withers a single plant of any size. An affected plant creature takes 1d6 points of damage per level (maximum 15d6) and may attempt a Fortitude saving throw for half damage. A plant that isn't a creature doesn't receive a save and immediately withers and dies.</p><p>This spell has no effect on the soil or surrounding plant life.</p>\n</div>\n"
    },
    "tags": [],
    "activation": {
      "type": "standard"
    },
    "unchainedAction": {
      "activation": {
        "cost": 2,
        "type": "action"
      }
    },
    "target": {
      "value": "plant touched"
    },
    "range": {
      "units": "touch"
    },
    "uses": {
      "per": ""
    },
    "measureTemplate": {
      "size": "0"
    },
    "actionType": "spellsave",
    "damage": {
      "parts": [],
      "critParts": [],
      "nonCritParts": []
    },
    "attackParts": [],
    "ability": {
      "attack": "",
      "damage": ""
    },
    "save": {
      "dc": "0",
      "type": "fort",
      "description": "Fortitude half; see text"
    },
    "effectNotes": [],
    "attackNotes": [],
    "links": {
      "children": []
    },
    "flags": {
      "boolean": [],
      "dictionary": []
    },
    "scriptCalls": [],
    "learnedAt": {
      "class": [
        [
          "sorcerer/wizard",
          5
        ],
        [
          "druid",
          4
        ],
        [
          "witch",
          5
        ],
        [
          "shaman",
          5
        ],
        [
          "hunter",
          4
        ]
      ],
      "domain": [],
      "subDomain": [
        [
          "Seasons",
          4
        ],
        [
          "Radiation",
          2
        ]
      ],
      "elementalSchool": [],
      "bloodline": [
        [
          "Daemon",
          5
        ]
      ]
    },
    "level": 5,
    "school": "nec",
    "conditionals": [],
    "components": {
      "verbal": true,
      "somatic": true,
      "divineFocus": 1
    },
    "shortDescription": "<p>This spell withers a single plant of any size. An affected plant creature takes 1d6 points of damage per level (maximum 15d6) and may attempt a Fortitude saving throw for half damage. A plant that isn't a creature doesn't receive a save and immediately withers and dies.</p><p>This spell has no effect on the soil or surrounding plant life.</p>",
    "spellDuration": "instantaneous"
  },
  "effects": [],
  "folder": null,
  "sort": 0,
  "permission": {
    "default": 0
  },
  "flags": {}
}