{
  "_id": "6cjfszctojrskwm0",
  "name": "Bloodstone Mirror",
  "type": "spell",
  "img": "systems/pf1/icons/misc/magic-swirl.png",
  "data": {
    "description": {
      "value": "<div class=\"spell-description\">\n  <p>\n    <strong>School</strong>&nbsp;abjuration;\n    <strong>Level</strong>&nbsp;cleric/oracle 7, occultist 5, witch 7;\n    \n    \n    \n    \n  </p>\n  <p>\n    <strong>Casting Time</strong>&nbsp;1 standard<br>\n    <strong>Components</strong>&nbsp;V, S, M (a red bloodstone worth 500 gp)<br>\n  </p>\n  <p>\n    <strong>Range</strong>&nbsp;personal<br>\n    \n    <strong>Targets</strong>&nbsp;you<br>\n    \n    <strong>Duration</strong>&nbsp;1 hour/level<br>\n  </p>\n  <h2>Description</h2>\n  <p>Developed due to Arazni's fear that her stolen organs might be used to <i>control</i> her, this spell reflects any attempts to steal your free will. Whenever you are exposed to a mind-affecting effect or a spell that would otherwise give another creature <i>control</i> of your actions (such as <i>control</i> undead), you can dispel this effect as an immediate action to redirect the spell to a creature within 30 feet. The affected creature must attempt a save against the original DC of the triggering effect. On a failure, it is subject to the effects of the triggering spell, with the exception that you are treated as the original caster (statistics determined by caster level are still calculated according to its original caster). The target creature applies any spell resistance or immunities it has normally. You can have only one instance of this spell active at a time.</p>\n</div>\n"
    },
    "tags": [],
    "activation": {
      "type": "standard"
    },
    "unchainedAction": {
      "activation": {
        "cost": 2,
        "type": "action"
      }
    },
    "target": {
      "value": "you"
    },
    "range": {
      "units": "personal"
    },
    "uses": {
      "per": ""
    },
    "measureTemplate": {
      "size": "0"
    },
    "actionType": "",
    "damage": {
      "parts": [],
      "critParts": [],
      "nonCritParts": []
    },
    "attackParts": [],
    "ability": {
      "attack": "",
      "damage": ""
    },
    "save": {
      "dc": "0"
    },
    "effectNotes": [],
    "attackNotes": [],
    "links": {
      "children": []
    },
    "flags": {
      "boolean": [],
      "dictionary": []
    },
    "scriptCalls": [],
    "learnedAt": {
      "class": [
        [
          "cleric/oracle",
          7
        ],
        [
          "witch",
          7
        ],
        [
          "occultist",
          5
        ]
      ],
      "domain": [],
      "subDomain": [],
      "elementalSchool": [],
      "bloodline": []
    },
    "level": 7,
    "school": "abj",
    "conditionals": [],
    "components": {
      "verbal": true,
      "somatic": true,
      "material": true
    },
    "materials": {
      "value": "a red bloodstone worth 500 gp",
      "gpValue": 500
    },
    "spellbook": "",
    "preparation": {
      "autoDeductCharges": false,
      "spontaneousPrepared": false
    },
    "sr": false,
    "shortDescription": "<p>Developed due to Arazni's fear that her stolen organs might be used to <i>control</i> her, this spell reflects any attempts to steal your free will. Whenever you are exposed to a mind-affecting effect or a spell that would otherwise give another creature <i>control</i> of your actions (such as <i>control</i> undead), you can dispel this effect as an immediate action to redirect the spell to a creature within 30 feet. The affected creature must attempt a save against the original DC of the triggering effect. On a failure, it is subject to the effects of the triggering spell, with the exception that you are treated as the original caster (statistics determined by caster level are still calculated according to its original caster). The target creature applies any spell resistance or immunities it has normally. You can have only one instance of this spell active at a time.</p>",
    "spellDuration": "1 hour/level",
    "spellPoints": {
      "cost": ""
    }
  },
  "effects": [],
  "folder": null,
  "sort": 0,
  "permission": {
    "default": 0
  },
  "flags": {}
}