{
  "_id": "qiiis9ekgy3syu7j",
  "name": "Breath of Life",
  "type": "spell",
  "img": "systems/pf1/icons/misc/magic-swirl.png",
  "data": {
    "description": {
      "value": "<div class=\"spell-description\">\n  <p>\n    <strong>School</strong>&nbsp;conjuration&nbsp;(healing);\n    <strong>Level</strong>&nbsp;cleric/oracle 5, shaman 5, spiritualist 5;\n    <strong>Domain</strong>&nbsp;Healing 5;\n    \n    \n    \n  </p>\n  <p>\n    <strong>Casting Time</strong>&nbsp;1 standard<br>\n    <strong>Components</strong>&nbsp;V, S<br>\n  </p>\n  <p>\n    <strong>Range</strong>&nbsp;touch<br>\n    \n    <strong>Targets</strong>&nbsp;creature touched<br>\n    \n    <strong>Duration</strong>&nbsp;instantaneous<br>\n      <strong>Saving Throw</strong>&nbsp;Will negates (harmless) or Will half, see text;&nbsp;\n      <strong>Spell Resistance</strong>&nbsp;yes<br>\n  </p>\n  <h2>Description</h2>\n  <p>This spell cures 5d8 points of damage + 1 point per caster level (maximum +25).</p><p>Unlike other spells that heal damage, <i>Breath of Life</i> can bring recently slain creatures back to life. If cast upon a creature that has died within 1 round, apply the healing from this spell to the creature. If the healed creature's hit point total is at a negative amount less than its Constitution score, it comes back to life and stabilizes at its new hit point total. If the creature's hit point total is at a negative amount equal to or greater than its Constitution score, the creature remains dead. Creatures brought back to life through <i>Breath of Life</i> gain a temporary negative level that lasts for 1 day.</p><p>Creatures slain by death effects cannot be saved by <i>Breath of Life</i>.</p><p>Like cure spells, <i>Breath of Life</i> deals damage to undead creatures rather than curing them, and cannot bring them back to life.</p>\n</div>\n"
    },
    "tags": [],
    "activation": {
      "type": "standard"
    },
    "unchainedAction": {
      "activation": {
        "cost": 2,
        "type": "action"
      }
    },
    "target": {
      "value": "creature touched"
    },
    "range": {
      "units": "touch"
    },
    "uses": {
      "per": ""
    },
    "measureTemplate": {
      "size": "0"
    },
    "actionType": "heal",
    "damage": {
      "parts": [
        [
          "5d8 + min(25, @cl)",
          ""
        ]
      ],
      "critParts": [],
      "nonCritParts": []
    },
    "attackParts": [],
    "ability": {
      "attack": "",
      "damage": ""
    },
    "save": {
      "dc": "0",
      "type": "will",
      "description": "Will negates (harmless) or Will half, see text"
    },
    "effectNotes": [],
    "attackNotes": [],
    "links": {
      "children": []
    },
    "flags": {
      "boolean": [],
      "dictionary": []
    },
    "scriptCalls": [],
    "learnedAt": {
      "class": [
        [
          "cleric/oracle",
          5
        ],
        [
          "shaman",
          5
        ],
        [
          "spiritualist",
          5
        ]
      ],
      "domain": [
        [
          "Healing",
          5
        ]
      ],
      "subDomain": [],
      "elementalSchool": [],
      "bloodline": []
    },
    "level": 5,
    "school": "con",
    "subschool": "healing",
    "conditionals": [],
    "components": {
      "verbal": true,
      "somatic": true
    },
    "shortDescription": "<p>This spell cures 5d8 points of damage + 1 point per caster level (maximum +25).</p><p>Unlike other spells that heal damage, <i>Breath of Life</i> can bring recently slain creatures back to life. If cast upon a creature that has died within 1 round, apply the healing from this spell to the creature. If the healed creature's hit point total is at a negative amount less than its Constitution score, it comes back to life and stabilizes at its new hit point total. If the creature's hit point total is at a negative amount equal to or greater than its Constitution score, the creature remains dead. Creatures brought back to life through <i>Breath of Life</i> gain a temporary negative level that lasts for 1 day.</p><p>Creatures slain by death effects cannot be saved by <i>Breath of Life</i>.</p><p>Like cure spells, <i>Breath of Life</i> deals damage to undead creatures rather than curing them, and cannot bring them back to life.</p>",
    "spellDuration": "instantaneous"
  },
  "effects": [],
  "folder": null,
  "sort": 0,
  "permission": {
    "default": 0
  },
  "flags": {}
}