{
  "_id": "1wnzvfrpl2gp829u",
  "name": "Burning Gaze",
  "type": "spell",
  "img": "systems/pf1/icons/misc/magic-swirl.png",
  "data": {
    "description": {
      "value": "<div class=\"spell-description\">\n  <p>\n    <strong>School</strong>&nbsp;evocation&nbsp;[fire];\n    <strong>Level</strong>&nbsp;bloodrager 2, druid 2, hunter 2, magus 2, mesmerist 2, occultist 2, shaman 2, sorcerer/wizard 2, witch 2;\n    \n    \n    \n    \n  </p>\n  <p>\n    <strong>Casting Time</strong>&nbsp;1 standard<br>\n    <strong>Components</strong>&nbsp;V, S, M/DF (eye of a mundane salamander)<br>\n  </p>\n  <p>\n    <strong>Range</strong>&nbsp;personal<br>\n    \n    <strong>Targets</strong>&nbsp;you<br>\n    \n    <strong>Duration</strong>&nbsp;1 round/level<br>\n  </p>\n  <h2>Description</h2>\n  <p>Your eyes burn like hot coals, allowing you to set objects or foes alight with a glance.</p><p>As a standard action as long as this spell's effects persist, you may direct your <i>burning gaze</i> against a single creature or object within 30 feet of your location. Targeted creatures must succeed at a Fortitude save or take 1d6 points of fire damage. Unattended objects do not get a save. Creatures damaged by the spell must make a Reflex save or catch fire.</p><p>Each round, burning creatures may attempt a Reflex save to quench the flames; failure results in another 1d6 points of fire damage. Flammable items worn by a creature must also save or take the same damage as the creature. If a creature or object is already on fire, it suffers no additional effects from <i>burning gaze</i>.</p><p>Note that this spell does not grant an actual gaze attack- foes and allies are not in danger of catching on fire simply by meeting your gaze.</p>\n</div>\n"
    },
    "tags": [],
    "activation": {
      "type": "standard"
    },
    "unchainedAction": {
      "activation": {
        "cost": 2,
        "type": "action"
      }
    },
    "target": {
      "value": "you"
    },
    "range": {
      "units": "personal"
    },
    "uses": {
      "per": ""
    },
    "measureTemplate": {
      "size": "0"
    },
    "actionType": "spellsave",
    "damage": {
      "parts": [],
      "critParts": [],
      "nonCritParts": []
    },
    "attackParts": [],
    "ability": {
      "attack": "",
      "damage": ""
    },
    "save": {
      "dc": "0",
      "type": "fort",
      "description": "Fortitude negates (see text)"
    },
    "effectNotes": [],
    "attackNotes": [],
    "links": {
      "children": []
    },
    "flags": {
      "boolean": [],
      "dictionary": []
    },
    "scriptCalls": [],
    "learnedAt": {
      "class": [
        [
          "sorcerer/wizard",
          2
        ],
        [
          "druid",
          2
        ],
        [
          "witch",
          2
        ],
        [
          "magus",
          2
        ],
        [
          "bloodrager",
          2
        ],
        [
          "shaman",
          2
        ],
        [
          "mesmerist",
          2
        ],
        [
          "occultist",
          2
        ],
        [
          "hunter",
          2
        ]
      ],
      "domain": [],
      "subDomain": [],
      "elementalSchool": [],
      "bloodline": []
    },
    "level": 2,
    "school": "evo",
    "types": "fire",
    "conditionals": [],
    "components": {
      "verbal": true,
      "somatic": true,
      "material": true,
      "divineFocus": 2
    },
    "materials": {
      "value": "eye of a mundane salamander"
    },
    "shortDescription": "<p>Your eyes burn like hot coals, allowing you to set objects or foes alight with a glance.</p><p>As a standard action as long as this spell's effects persist, you may direct your <i>burning gaze</i> against a single creature or object within 30 feet of your location. Targeted creatures must succeed at a Fortitude save or take 1d6 points of fire damage. Unattended objects do not get a save. Creatures damaged by the spell must make a Reflex save or catch fire.</p><p>Each round, burning creatures may attempt a Reflex save to quench the flames; failure results in another 1d6 points of fire damage. Flammable items worn by a creature must also save or take the same damage as the creature. If a creature or object is already on fire, it suffers no additional effects from <i>burning gaze</i>.</p><p>Note that this spell does not grant an actual gaze attack- foes and allies are not in danger of catching on fire simply by meeting your gaze.</p>",
    "spellDuration": "1 round/level"
  },
  "effects": [],
  "folder": null,
  "sort": 0,
  "permission": {
    "default": 0
  },
  "flags": {}
}