{
  "_id": "lid40c5jz6dsomo4",
  "name": "Caustic Blood",
  "type": "spell",
  "img": "systems/pf1/icons/misc/magic-swirl.png",
  "data": {
    "description": {
      "value": "<div class=\"spell-description\">\n  <p>\n    <strong>School</strong>&nbsp;transmutation&nbsp;[acid];\n    <strong>Level</strong>&nbsp;alchemist 4, cleric/oracle 5, druid 4, hunter 4, magus 4, sorcerer/wizard 5, summoner 4, unchained Summoner 4;\n    \n    \n    \n    \n  </p>\n  <p>\n    <strong>Casting Time</strong>&nbsp;1 standard<br>\n    <strong>Components</strong>&nbsp;V, S, M (vial of black adder venom)<br>\n  </p>\n  <p>\n    <strong>Range</strong>&nbsp;personal<br>\n    \n    <strong>Targets</strong>&nbsp;you<br>\n    \n    <strong>Duration</strong>&nbsp;1 round/level<br>\n  </p>\n  <h2>Description</h2>\n  <p>You imbue your blood with corrosive acid. Any time you take piercing or slashing damage, a spray of acidic blood spurts from your body in the direction of the opponent who inflicted the wound, dealing 1d6 points of acid damage per caster level (maximum 15d6, Reflex half). This spurt travels in a 10-foot line, damaging the first creature or object it touches, with no splash damage. After it contacts a creature or object, your acidic blood continues to burn that creature for 1 round, dealing 1d6 points of acid damage per 2 caster levels (maximum 7d6). A second successful Reflex save negates this additional damage.</p>\n</div>\n"
    },
    "tags": [],
    "activation": {
      "type": "standard"
    },
    "unchainedAction": {
      "activation": {
        "cost": 2,
        "type": "action"
      }
    },
    "target": {
      "value": "you"
    },
    "range": {
      "units": "personal"
    },
    "uses": {
      "per": ""
    },
    "measureTemplate": {
      "size": "0"
    },
    "actionType": "spellsave",
    "damage": {
      "parts": [],
      "critParts": [],
      "nonCritParts": []
    },
    "attackParts": [],
    "ability": {
      "attack": "",
      "damage": ""
    },
    "save": {
      "dc": "0",
      "type": "ref",
      "description": "Reflex half or negates; see text"
    },
    "effectNotes": [],
    "attackNotes": [],
    "links": {
      "children": []
    },
    "flags": {
      "boolean": [],
      "dictionary": []
    },
    "scriptCalls": [],
    "learnedAt": {
      "class": [
        [
          "sorcerer/wizard",
          5
        ],
        [
          "cleric/oracle",
          5
        ],
        [
          "druid",
          4
        ],
        [
          "alchemist",
          4
        ],
        [
          "summoner",
          4
        ],
        [
          "magus",
          4
        ],
        [
          "hunter",
          4
        ],
        [
          "unchained Summoner",
          4
        ]
      ],
      "domain": [],
      "subDomain": [],
      "elementalSchool": [],
      "bloodline": []
    },
    "level": 5,
    "school": "trs",
    "types": "acid",
    "conditionals": [],
    "components": {
      "verbal": true,
      "somatic": true,
      "material": true
    },
    "materials": {
      "value": "vial of black adder venom"
    },
    "sr": false,
    "shortDescription": "<p>You imbue your blood with corrosive acid. Any time you take piercing or slashing damage, a spray of acidic blood spurts from your body in the direction of the opponent who inflicted the wound, dealing 1d6 points of acid damage per caster level (maximum 15d6, Reflex half). This spurt travels in a 10-foot line, damaging the first creature or object it touches, with no splash damage. After it contacts a creature or object, your acidic blood continues to burn that creature for 1 round, dealing 1d6 points of acid damage per 2 caster levels (maximum 7d6). A second successful Reflex save negates this additional damage.</p>",
    "spellDuration": "1 round/level"
  },
  "effects": [],
  "folder": null,
  "sort": 0,
  "permission": {
    "default": 0
  },
  "flags": {}
}