{
  "_id": "80ojk5ktyh531ul1",
  "name": "Coin Shot",
  "type": "spell",
  "img": "systems/pf1/icons/misc/magic-swirl.png",
  "data": {
    "description": {
      "value": "<div class=\"spell-description\">\n  <p>\n    <strong>School</strong>&nbsp;transmutation;\n    <strong>Level</strong>&nbsp;alchemist 1, antipaladin 1, bard 1, bloodrager 1, magus 1, sorcerer/wizard 1;\n    \n    \n    \n    \n  </p>\n  <p>\n    <strong>Casting Time</strong>&nbsp;1 standard<br>\n    <strong>Components</strong>&nbsp;S<br>\n  </p>\n  <p>\n    <strong>Range</strong>&nbsp;touch<br>\n    \n    <strong>Targets</strong>&nbsp;up to three coins touched<br>\n    \n    <strong>Duration</strong>&nbsp;10 minutes or until discharged<br>\n      <strong>Saving Throw</strong>&nbsp;none;&nbsp;\n      <strong>Spell Resistance</strong>&nbsp;yes<br>\n  </p>\n  <h2>Description</h2>\n  <p>You turn up to three coins into deadly projectiles that gain the velocity of a bullet when thrown. The coins retain their normal appearance but can be used as simple thrown weapons with a range increment of 20 feet and a critical multiplier of x2. The transmuted coins are treated as ammunition for the purposes of drawing them. Like firearm bullets, the coins deal bludgeoning and piercing damage, and attacks with them are resolved as touch attacks within the first range increment. Regardless of whether a transmuted coin hits or misses the target, it is  destroyed after the attack. Only you can make attacks with the coins, though other creatures can safely handle them without discharging the spell.  You can make a single ranged attack with a coin as part of casting this spell. Different types of coins create different bullet effects. Copper coins deal 1d4 points of damage. Silver coins deal 1d6 points of damage and count as silver for the purpose of overcoming damage reduction. Gold coins deal 1d8 points of damage and count as masterwork weapons. Platinum coins deal 1d10 points of damage, count as masterwork weapons, and are treated as adamantine weapons for the purposes of overcoming damage reduction and bypassing hardness. All coin bullets deal an additional 1 point of damage per 2 caster levels (to a maximum of an extra 10 points of damage at 20th level).</p>\n</div>\n"
    },
    "tags": [],
    "activation": {
      "type": "standard"
    },
    "unchainedAction": {
      "activation": {
        "cost": 2,
        "type": "action"
      }
    },
    "target": {
      "value": "up to three coins touched"
    },
    "range": {
      "units": "touch"
    },
    "uses": {
      "per": ""
    },
    "measureTemplate": {
      "size": "0"
    },
    "actionType": "",
    "damage": {
      "parts": [],
      "critParts": [],
      "nonCritParts": []
    },
    "attackParts": [],
    "ability": {
      "attack": "",
      "damage": ""
    },
    "save": {
      "dc": "0"
    },
    "effectNotes": [],
    "attackNotes": [],
    "links": {
      "children": []
    },
    "flags": {
      "boolean": [],
      "dictionary": []
    },
    "scriptCalls": [],
    "learnedAt": {
      "class": [
        [
          "sorcerer/wizard",
          1
        ],
        [
          "bard",
          1
        ],
        [
          "alchemist",
          1
        ],
        [
          "antipaladin",
          1
        ],
        [
          "magus",
          1
        ],
        [
          "bloodrager",
          1
        ]
      ],
      "domain": [],
      "subDomain": [],
      "elementalSchool": [],
      "bloodline": []
    },
    "school": "trs",
    "conditionals": [],
    "components": {
      "somatic": true
    },
    "shortDescription": "<p>You turn up to three coins into deadly projectiles that gain the velocity of a bullet when thrown. The coins retain their normal appearance but can be used as simple thrown weapons with a range increment of 20 feet and a critical multiplier of x2. The transmuted coins are treated as ammunition for the purposes of drawing them. Like firearm bullets, the coins deal bludgeoning and piercing damage, and attacks with them are resolved as touch attacks within the first range increment. Regardless of whether a transmuted coin hits or misses the target, it is  destroyed after the attack. Only you can make attacks with the coins, though other creatures can safely handle them without discharging the spell.  You can make a single ranged attack with a coin as part of casting this spell. Different types of coins create different bullet effects. Copper coins deal 1d4 points of damage. Silver coins deal 1d6 points of damage and count as silver for the purpose of overcoming damage reduction. Gold coins deal 1d8 points of damage and count as masterwork weapons. Platinum coins deal 1d10 points of damage, count as masterwork weapons, and are treated as adamantine weapons for the purposes of overcoming damage reduction and bypassing hardness. All coin bullets deal an additional 1 point of damage per 2 caster levels (to a maximum of an extra 10 points of damage at 20th level).</p>",
    "spellDuration": "10 minutes or until discharged"
  },
  "effects": [],
  "folder": null,
  "sort": 0,
  "permission": {
    "default": 0
  },
  "flags": {}
}