{
  "_id": "4br9puuneexco5hx",
  "name": "Contingency",
  "type": "spell",
  "img": "systems/pf1/icons/misc/magic-swirl.png",
  "data": {
    "description": {
      "value": "<div class=\"spell-description\">\n  <p>\n    <strong>School</strong>&nbsp;evocation;\n    <strong>Level</strong>&nbsp;occultist 6, psychic 6, sorcerer/wizard 6;\n    \n    \n    \n    \n  </p>\n  <p>\n    \n    <strong>Components</strong>&nbsp;V, S, M (quicksilver and an eyelash of a spell-using creature), F (ivory statuette of you worth 1,500 gp)<br>\n  </p>\n  <p>\n    <strong>Range</strong>&nbsp;personal<br>\n    \n    <strong>Targets</strong>&nbsp;you<br>\n    \n    <strong>Duration</strong>&nbsp;1 day/level (D) or until discharged<br>\n  </p>\n  <h2>Description</h2>\n  <p>You can place another spell upon your person so that it comes into effect under some condition you dictate when casting <i>contingency</i>.</p><p>The <i>contingency</i> spell and the companion spell are cast at the same time. The 10-minute casting time is the minimum total for both castings; if the companion spell has a casting time longer than 10 minutes, use that instead. You must pay any costs associated with the companion spell when you cast <i>contingency</i>.</p><p>The spell to be brought into effect by the <i>contingency</i> must be one that affects your person and be of a spell level no higher than one-third your caster level (rounded down, maximum 6th level).</p><p>The conditions needed to bring the spell into effect must be clear, although they can be general. In all cases, the <i>contingency</i> immediately brings into effect the companion spell, the latter being \"cast\" instantaneously when the prescribed circumstances occur.</p><p>If complicated or convoluted conditions are prescribed, the whole spell combination (<i>contingency</i> and the companion magic) may fail when triggered. The companion spell occurs based solely on the stated conditions, regardless of whether you want it to.</p><p>You can use only one <i>contingency</i> spell at a time; if a second is cast, the first one (if still active) is dispelled.</p>\n</div>\n"
    },
    "tags": [],
    "target": {
      "value": "you"
    },
    "range": {
      "units": "personal"
    },
    "uses": {
      "per": ""
    },
    "measureTemplate": {
      "size": "0"
    },
    "actionType": "",
    "damage": {
      "parts": [],
      "critParts": [],
      "nonCritParts": []
    },
    "attackParts": [],
    "ability": {
      "attack": "",
      "damage": ""
    },
    "save": {
      "dc": "0"
    },
    "effectNotes": [],
    "attackNotes": [],
    "links": {
      "children": []
    },
    "flags": {
      "boolean": [],
      "dictionary": []
    },
    "scriptCalls": [],
    "learnedAt": {
      "class": [
        [
          "sorcerer/wizard",
          6
        ],
        [
          "psychic",
          6
        ],
        [
          "occultist",
          6
        ]
      ],
      "domain": [],
      "subDomain": [],
      "elementalSchool": [],
      "bloodline": []
    },
    "level": 6,
    "school": "evo",
    "conditionals": [],
    "components": {
      "verbal": true,
      "somatic": true,
      "material": true,
      "focus": true
    },
    "materials": {
      "value": "quicksilver and an eyelash of a spell-using creature",
      "focus": "ivory statuette of you worth 1,500 gp"
    },
    "sr": false,
    "shortDescription": "<p>You can place another spell upon your person so that it comes into effect under some condition you dictate when casting <i>contingency</i>.</p><p>The <i>contingency</i> spell and the companion spell are cast at the same time. The 10-minute casting time is the minimum total for both castings; if the companion spell has a casting time longer than 10 minutes, use that instead. You must pay any costs associated with the companion spell when you cast <i>contingency</i>.</p><p>The spell to be brought into effect by the <i>contingency</i> must be one that affects your person and be of a spell level no higher than one-third your caster level (rounded down, maximum 6th level).</p><p>The conditions needed to bring the spell into effect must be clear, although they can be general. In all cases, the <i>contingency</i> immediately brings into effect the companion spell, the latter being \"cast\" instantaneously when the prescribed circumstances occur.</p><p>If complicated or convoluted conditions are prescribed, the whole spell combination (<i>contingency</i> and the companion magic) may fail when triggered. The companion spell occurs based solely on the stated conditions, regardless of whether you want it to.</p><p>You can use only one <i>contingency</i> spell at a time; if a second is cast, the first one (if still active) is dispelled.</p>",
    "spellDuration": "1 day/level (D) or until discharged"
  },
  "effects": [],
  "folder": null,
  "sort": 0,
  "permission": {
    "default": 0
  },
  "flags": {}
}