{
  "_id": "b9v7qh4c7hmcjtfv",
  "name": "Crafter's Nightmare",
  "type": "spell",
  "img": "systems/pf1/icons/misc/magic-swirl.png",
  "data": {
    "description": {
      "value": "<div class=\"spell-description\">\n  <p>\n    <strong>School</strong>&nbsp;necromancy&nbsp;(haunted)&nbsp;[emotion, fear, mind-affecting];\n    <strong>Level</strong>&nbsp;bard 2, druid 2, hunter 2, medium 1, mesmerist 2, occultist 2, psychic 2, sorcerer/wizard 2, spiritualist 2, witch 2;\n    \n    \n    \n    \n  </p>\n  <p>\n    <strong>Casting Time</strong>&nbsp;1 standard<br>\n    <strong>Components</strong>&nbsp;V, S, M (a broken tool)<br>\n  </p>\n  <p>\n    <strong>Range</strong>&nbsp;close (25 ft. + 5 ft./2 levels)<br>\n    <strong>Area</strong>&nbsp;one 5-ft. cube/level (S)<br>\n    \n    \n    <strong>Duration</strong>&nbsp;1 day/level (D)<br>\n      <strong>Saving Throw</strong>&nbsp;Will negates;&nbsp;\n      <strong>Spell Resistance</strong>&nbsp;yes<br>\n  </p>\n  <h2>Description</h2>\n  <p>You concentrate feelings of competitiveness, envy, and ill will into a poltergeist-like haunt that wreaks havoc on its victim's long-term endeavors. Every time a creature in the affected area attempts a Craft or Profession check to generate income, create an item, or earn capital (<i>Pathfinder RPG Ultimate Campaign</i> 85), any skill check required for crafting or repairing a magic item, or any skill check required for an occult ritual (<i>Pathfinder RPG Occult Adventures</i> 208), the haunt imposes a -5 penalty on the check. If the creature fails its check by 5 or more, the haunt's mischief deals 1d6 points of damage to the creature in addition to any other negative effects from such a failure. If the creature attempts to cast a spell with a casting time of 1 minute or longer, the haunt becomes similarly disruptive, requiring the caster to succeed at a concentration check (DC = 15 + spell level) or lose the spell and take 1d6 points of damage from the mischief. Each time the haunt is disruptive, the spell's haunt-like manifestation occurs during that round.</p>\n</div>\n"
    },
    "tags": [],
    "activation": {
      "type": "standard"
    },
    "unchainedAction": {
      "activation": {
        "cost": 2,
        "type": "action"
      }
    },
    "range": {
      "units": "close"
    },
    "uses": {
      "per": ""
    },
    "measureTemplate": {
      "size": "0"
    },
    "actionType": "spellsave",
    "damage": {
      "parts": [],
      "critParts": [],
      "nonCritParts": []
    },
    "attackParts": [],
    "ability": {
      "attack": "",
      "damage": ""
    },
    "save": {
      "dc": "0",
      "type": "will",
      "description": "Will negates"
    },
    "effectNotes": [],
    "attackNotes": [],
    "links": {
      "children": []
    },
    "flags": {
      "boolean": [],
      "dictionary": []
    },
    "scriptCalls": [],
    "learnedAt": {
      "class": [
        [
          "sorcerer/wizard",
          2
        ],
        [
          "druid",
          2
        ],
        [
          "bard",
          2
        ],
        [
          "witch",
          2
        ],
        [
          "psychic",
          2
        ],
        [
          "medium",
          1
        ],
        [
          "mesmerist",
          2
        ],
        [
          "occultist",
          2
        ],
        [
          "spiritualist",
          2
        ],
        [
          "hunter",
          2
        ]
      ],
      "domain": [],
      "subDomain": [],
      "elementalSchool": [],
      "bloodline": []
    },
    "level": 2,
    "school": "nec",
    "subschool": "haunted",
    "types": "emotion, fear, mind-affecting",
    "conditionals": [],
    "components": {
      "verbal": true,
      "somatic": true,
      "material": true
    },
    "materials": {
      "value": "a broken tool"
    },
    "shortDescription": "<p>You concentrate feelings of competitiveness, envy, and ill will into a poltergeist-like haunt that wreaks havoc on its victim's long-term endeavors. Every time a creature in the affected area attempts a Craft or Profession check to generate income, create an item, or earn capital (<i>Pathfinder RPG Ultimate Campaign</i> 85), any skill check required for crafting or repairing a magic item, or any skill check required for an occult ritual (<i>Pathfinder RPG Occult Adventures</i> 208), the haunt imposes a -5 penalty on the check. If the creature fails its check by 5 or more, the haunt's mischief deals 1d6 points of damage to the creature in addition to any other negative effects from such a failure. If the creature attempts to cast a spell with a casting time of 1 minute or longer, the haunt becomes similarly disruptive, requiring the caster to succeed at a concentration check (DC = 15 + spell level) or lose the spell and take 1d6 points of damage from the mischief. Each time the haunt is disruptive, the spell's haunt-like manifestation occurs during that round.</p>",
    "spellDuration": "1 day/level (D)",
    "spellArea": "one 5-ft. cube/level (S)"
  },
  "effects": [],
  "folder": null,
  "sort": 0,
  "permission": {
    "default": 0
  },
  "flags": {}
}