{
  "_id": "1zyixa5b6aw7npub",
  "name": "Crushing Hand",
  "type": "spell",
  "img": "systems/pf1/icons/misc/magic-swirl.png",
  "data": {
    "description": {
      "value": "<div class=\"spell-description\">\n  <p>\n    <strong>School</strong>&nbsp;evocation&nbsp;[force];\n    <strong>Level</strong>&nbsp;psychic 9, sorcerer/wizard 9;\n    <strong>Domain</strong>&nbsp;Strength 9;\n    \n    \n    \n  </p>\n  <p>\n    <strong>Casting Time</strong>&nbsp;1 standard<br>\n    <strong>Components</strong>&nbsp;V, S, F (a soft glove)<br>\n  </p>\n  <p>\n    <strong>Range</strong>&nbsp;medium (100 ft. + 10 ft./level)<br>\n    \n    \n    <strong>Effect</strong>&nbsp;10-ft. hand<br>\n    <strong>Duration</strong>&nbsp;1 round/level<br>\n      <strong>Saving Throw</strong>&nbsp;none;&nbsp;\n      <strong>Spell Resistance</strong>&nbsp;yes<br>\n  </p>\n  <h2>Description</h2>\n  <p>This spell functions as <i>interposing hand</i>, except that it can also grapple one opponent as <i>grasping hand</i>. Its CMB and CMD for grapple checks use your caster level in place of its base attack bonus, with a +12 bonus for its Strength score (35) and a +1 bonus for being Large (its Dexterity is 10, granting no bonus to the CMD). A <i>crushing hand</i> deals 2d6+12 points of damage on each successful grapple check against an opponent. The <i>crushing hand</i> can instead be directed to bull rush a target (as <i>forceful hand</i>), using the same bonuses outlined above, or it can be directed to interpose itself, as <i>interposing hand</i> does.</p>\n</div>\n"
    },
    "tags": [],
    "activation": {
      "type": "standard"
    },
    "unchainedAction": {
      "activation": {
        "cost": 2,
        "type": "action"
      }
    },
    "range": {
      "units": "medium"
    },
    "uses": {
      "per": ""
    },
    "measureTemplate": {
      "size": "0"
    },
    "actionType": "other",
    "damage": {
      "parts": [],
      "critParts": [],
      "nonCritParts": []
    },
    "attackParts": [],
    "ability": {
      "attack": "",
      "damage": ""
    },
    "save": {
      "dc": "0"
    },
    "effectNotes": [],
    "attackNotes": [],
    "links": {
      "children": []
    },
    "flags": {
      "boolean": [],
      "dictionary": []
    },
    "scriptCalls": [],
    "learnedAt": {
      "class": [
        [
          "sorcerer/wizard",
          9
        ],
        [
          "psychic",
          9
        ]
      ],
      "domain": [
        [
          "Strength",
          9
        ]
      ],
      "subDomain": [],
      "elementalSchool": [],
      "bloodline": []
    },
    "level": 9,
    "school": "evo",
    "types": "force",
    "conditionals": [],
    "components": {
      "verbal": true,
      "somatic": true,
      "focus": true
    },
    "materials": {
      "focus": "a soft glove"
    },
    "shortDescription": "<p>This spell functions as <i>interposing hand</i>, except that it can also grapple one opponent as <i>grasping hand</i>. Its CMB and CMD for grapple checks use your caster level in place of its base attack bonus, with a +12 bonus for its Strength score (35) and a +1 bonus for being Large (its Dexterity is 10, granting no bonus to the CMD). A <i>crushing hand</i> deals 2d6+12 points of damage on each successful grapple check against an opponent. The <i>crushing hand</i> can instead be directed to bull rush a target (as <i>forceful hand</i>), using the same bonuses outlined above, or it can be directed to interpose itself, as <i>interposing hand</i> does.</p>",
    "spellDuration": "1 round/level",
    "spellEffect": "10-ft. hand"
  },
  "effects": [],
  "folder": null,
  "sort": 0,
  "permission": {
    "default": 0
  },
  "flags": {}
}