{
  "_id": "a0w41d06aqlu70xs",
  "name": "Curse of Disgust",
  "type": "spell",
  "img": "systems/pf1/icons/misc/magic-swirl.png",
  "data": {
    "description": {
      "value": "<div class=\"spell-description\">\n  <p>\n    <strong>School</strong>&nbsp;enchantment&nbsp;(compulsion)&nbsp;[curse, emotion, mind-affecting];\n    <strong>Level</strong>&nbsp;bard 3, mesmerist 3, occultist 4, psychic 6, sorcerer/wizard 5, witch 5;\n    \n    \n    \n    \n  </p>\n  <p>\n    <strong>Casting Time</strong>&nbsp;1 standard<br>\n    <strong>Components</strong>&nbsp;V, S<br>\n  </p>\n  <p>\n    <strong>Range</strong>&nbsp;close (25 ft. + 5 ft./2 levels)<br>\n    \n    <strong>Targets</strong>&nbsp;one creature<br>\n    \n    <strong>Duration</strong>&nbsp;permanent<br>\n      <strong>Saving Throw</strong>&nbsp;Will negates;&nbsp;\n      <strong>Spell Resistance</strong>&nbsp;yes<br>\n  </p>\n  <h2>Description</h2>\n  <p>You place a curse upon a creature, causing it to avoid the sight of a specific trigger, which is a kind of creature, object, or condition designated by you. When the target is within 30 feet of a trigger and is aware of the trigger, it gains the sickened condition and feels an urge to leave. A successful Will save negates the urge to leave, but the sickened condition persists as long as the target is within 30 feet of a trigger and aware of it. Example triggers include beggars, filthy clothing, diseased creatures, the king, blood, spiders, rats, corpses, and sewage.</p>\n</div>\n"
    },
    "tags": [],
    "activation": {
      "type": "standard"
    },
    "unchainedAction": {
      "activation": {
        "cost": 2,
        "type": "action"
      }
    },
    "target": {
      "value": "one creature"
    },
    "range": {
      "units": "close"
    },
    "uses": {
      "per": ""
    },
    "measureTemplate": {
      "size": "0"
    },
    "actionType": "spellsave",
    "damage": {
      "parts": [],
      "critParts": [],
      "nonCritParts": []
    },
    "attackParts": [],
    "ability": {
      "attack": "",
      "damage": ""
    },
    "save": {
      "dc": "0",
      "type": "will",
      "description": "Will negates"
    },
    "effectNotes": [],
    "attackNotes": [],
    "links": {
      "children": []
    },
    "flags": {
      "boolean": [],
      "dictionary": []
    },
    "scriptCalls": [],
    "learnedAt": {
      "class": [
        [
          "sorcerer/wizard",
          5
        ],
        [
          "bard",
          3
        ],
        [
          "witch",
          5
        ],
        [
          "psychic",
          6
        ],
        [
          "mesmerist",
          3
        ],
        [
          "occultist",
          4
        ]
      ],
      "domain": [],
      "subDomain": [],
      "elementalSchool": [],
      "bloodline": []
    },
    "level": 5,
    "school": "enc",
    "subschool": "compulsion",
    "types": "curse, emotion, mind-affecting",
    "conditionals": [],
    "components": {
      "verbal": true,
      "somatic": true
    },
    "shortDescription": "<p>You place a curse upon a creature, causing it to avoid the sight of a specific trigger, which is a kind of creature, object, or condition designated by you. When the target is within 30 feet of a trigger and is aware of the trigger, it gains the sickened condition and feels an urge to leave. A successful Will save negates the urge to leave, but the sickened condition persists as long as the target is within 30 feet of a trigger and aware of it. Example triggers include beggars, filthy clothing, diseased creatures, the king, blood, spiders, rats, corpses, and sewage.</p>",
    "spellDuration": "permanent"
  },
  "effects": [],
  "folder": null,
  "sort": 0,
  "permission": {
    "default": 0
  },
  "flags": {}
}