{
  "_id": "ug4qh4cuh5f9ralf",
  "name": "Curse Terrain, Lesser",
  "type": "spell",
  "img": "systems/pf1/icons/misc/magic-swirl.png",
  "data": {
    "description": {
      "value": "<div class=\"spell-description\">\n  <p>\n    <strong>School</strong>&nbsp;necromancy&nbsp;[curse, evil];\n    <strong>Level</strong>&nbsp;cleric/oracle 2, druid 2, hunter 2, shaman 2, sorcerer/wizard 2, witch 2;\n    \n    \n    \n    \n  </p>\n  <p>\n    <strong>Casting Time</strong>&nbsp;10 minutes<br>\n    <strong>Components</strong>&nbsp;V, S, M (the heart of a creature that dwelled in the area and powdered onyx worth 350 gp)<br>\n  </p>\n  <p>\n    <strong>Range</strong>&nbsp;touch<br>\n    <strong>Area</strong>&nbsp;300-ft. radius emanating from the touched point<br>\n    \n    \n    <strong>Duration</strong>&nbsp;1 day (D)<br>\n      <strong>Saving Throw</strong>&nbsp;none;&nbsp;\n      <strong>Spell Resistance</strong>&nbsp;no<br>\n  </p>\n  <h2>Description</h2>\n  <p>By touching the ground, you curse the land with three unnatural hazards, as the minor perilous demesne curse (see page 145). Though this makes the hazards appear frequently, their manifestations are still unpredictable-you can't control when the hazards begin or end, nor where they appear within the cursed terrain.  <i>Curse terrain</i> spells can be made permanent with a <i>permanency</i> spell. The minimum caster level and gp cost are shown on the table. The spell is still dismissable if made permanent.     <table border ='1'><tr><th>Spell</th><th>Minimum Caster Level</th><th>GP Cost</th></tr><tr><td>Lesser curse terrain</td><td>9th</td><td>2,500 gp</td></tr><tr><td>Curse terrain</td><td>11th</td><td>7,500 gp</td></tr><tr><td>Greater curse terrain</td><td>15th</td><td>17,500 gp</td></tr><tr><td>Supreme curse terrain</td><td>19th</td><td>27,500 gp</td></tr></table>   </p>\n</div>\n"
    },
    "tags": [],
    "activation": {
      "cost": 10,
      "type": "minute"
    },
    "unchainedAction": {
      "activation": {
        "cost": 10,
        "type": "minute"
      }
    },
    "range": {
      "units": "touch"
    },
    "uses": {
      "per": ""
    },
    "measureTemplate": {
      "size": "0"
    },
    "actionType": "",
    "damage": {
      "parts": [],
      "critParts": [],
      "nonCritParts": []
    },
    "attackParts": [],
    "ability": {
      "attack": "",
      "damage": ""
    },
    "save": {
      "dc": "0"
    },
    "effectNotes": [],
    "attackNotes": [],
    "links": {
      "children": []
    },
    "flags": {
      "boolean": [],
      "dictionary": []
    },
    "scriptCalls": [],
    "learnedAt": {
      "class": [
        [
          "sorcerer/wizard",
          2
        ],
        [
          "cleric/oracle",
          2
        ],
        [
          "druid",
          2
        ],
        [
          "witch",
          2
        ],
        [
          "shaman",
          2
        ],
        [
          "hunter",
          2
        ]
      ],
      "domain": [],
      "subDomain": [],
      "elementalSchool": [],
      "bloodline": []
    },
    "level": 2,
    "school": "nec",
    "types": "curse, evil",
    "conditionals": [],
    "components": {
      "verbal": true,
      "somatic": true,
      "material": true
    },
    "materials": {
      "value": "the heart of a creature that dwelled in the area and powdered onyx worth 350 gp",
      "gpValue": 350
    },
    "spellbook": "",
    "preparation": {
      "autoDeductCharges": false,
      "spontaneousPrepared": false
    },
    "sr": false,
    "shortDescription": "<p>By touching the ground, you curse the land with three unnatural hazards, as the minor perilous demesne curse (see page 145). Though this makes the hazards appear frequently, their manifestations are still unpredictable-you can't control when the hazards begin or end, nor where they appear within the cursed terrain.  <i>Curse terrain</i> spells can be made permanent with a <i>permanency</i> spell. The minimum caster level and gp cost are shown on the table. The spell is still dismissable if made permanent.     <table border ='1'><tr><th>Spell</th><th>Minimum Caster Level</th><th>GP Cost</th></tr><tr><td>Lesser curse terrain</td><td>9th</td><td>2,500 gp</td></tr><tr><td>Curse terrain</td><td>11th</td><td>7,500 gp</td></tr><tr><td>Greater curse terrain</td><td>15th</td><td>17,500 gp</td></tr><tr><td>Supreme curse terrain</td><td>19th</td><td>27,500 gp</td></tr></table>   </p>",
    "spellDuration": "1 day (D)",
    "spellArea": "300-ft. radius emanating from the touched point",
    "spellPoints": {
      "cost": ""
    }
  },
  "effects": [],
  "folder": null,
  "sort": 0,
  "permission": {
    "default": 0
  },
  "flags": {}
}