{
  "_id": "1i29qf2y7x2fy3q2",
  "name": "Damnation of Memory",
  "type": "spell",
  "img": "systems/pf1/icons/misc/magic-swirl.png",
  "data": {
    "description": {
      "value": "<div class=\"spell-description\">\n  <p>\n    <strong>School</strong>&nbsp;enchantment&nbsp;(compulsion)&nbsp;[mind-affecting];\n    <strong>Level</strong>&nbsp;bard 6, mesmerist 6, psychic 9;\n    \n    \n    \n    \n  </p>\n  <p>\n    <strong>Casting Time</strong>&nbsp;1 hour<br>\n    <strong>Components</strong>&nbsp;V, S, F (a massive, flawless gemstone worth 5,000 gp)<br>\n  </p>\n  <p>\n    <strong>Range</strong>&nbsp;long (400 ft. + 40 ft./level)<br>\n    \n    <strong>Targets</strong>&nbsp;all living creatures within range<br>\n    \n    <strong>Duration</strong>&nbsp;permanent<br>\n      <strong>Saving Throw</strong>&nbsp;Will negates;&nbsp;\n      <strong>Spell Resistance</strong>&nbsp;yes<br>\n  </p>\n  <h2>Description</h2>\n  <p>You name one creature and excise all memory of that creature's involvement in events the targets remember. The targets either forget who exactly performed the named creature's deeds or assume some other individual performed them. Alternatively, you can name either one event lasting no more than 10 minutes per caster level or a single topic (defined at the GM's discretion) such as a shameful secret of the king that was recently revealed or a small revolt that was quelled messily, and erase all recollection of that subject from the minds of all creatures within the area. Memory of facts and topics that are common knowledge (information with a Knowledge check DC of 10 or less) cannot be stolen via this spell.  The lost memories are stored in the focus gem (which grows dull inside and cannot be used as a focus or material component for any other spell, including another casting of this spell). The targets emanate no magic and the spell cannot be dispelled from them; only the focus retains a magic aura, and only by targeting the gem can the spell be dispelled, disjoined, or suppressed with antimagic. If the gem is destroyed or the spell is dispelled (which destroys the gem), all stolen memories return to the affected creatures.</p>\n</div>\n"
    },
    "tags": [],
    "activation": {
      "type": "hour"
    },
    "unchainedAction": {
      "activation": {
        "type": "hour"
      }
    },
    "target": {
      "value": "all living creatures within range"
    },
    "range": {
      "units": "long"
    },
    "uses": {
      "per": ""
    },
    "measureTemplate": {
      "size": "0"
    },
    "actionType": "spellsave",
    "damage": {
      "parts": [],
      "critParts": [],
      "nonCritParts": []
    },
    "attackParts": [],
    "ability": {
      "attack": "",
      "damage": ""
    },
    "save": {
      "dc": "0",
      "type": "will",
      "description": "Will negates"
    },
    "effectNotes": [],
    "attackNotes": [],
    "links": {
      "children": []
    },
    "flags": {
      "boolean": [],
      "dictionary": []
    },
    "scriptCalls": [],
    "learnedAt": {
      "class": [
        [
          "bard",
          6
        ],
        [
          "psychic",
          9
        ],
        [
          "mesmerist",
          6
        ]
      ],
      "domain": [],
      "subDomain": [],
      "elementalSchool": [],
      "bloodline": []
    },
    "level": 6,
    "school": "enc",
    "subschool": "compulsion",
    "types": "mind-affecting",
    "conditionals": [],
    "components": {
      "verbal": true,
      "somatic": true,
      "focus": true
    },
    "materials": {
      "focus": "a massive, flawless gemstone worth 5,000 gp"
    },
    "shortDescription": "<p>You name one creature and excise all memory of that creature's involvement in events the targets remember. The targets either forget who exactly performed the named creature's deeds or assume some other individual performed them. Alternatively, you can name either one event lasting no more than 10 minutes per caster level or a single topic (defined at the GM's discretion) such as a shameful secret of the king that was recently revealed or a small revolt that was quelled messily, and erase all recollection of that subject from the minds of all creatures within the area. Memory of facts and topics that are common knowledge (information with a Knowledge check DC of 10 or less) cannot be stolen via this spell.  The lost memories are stored in the focus gem (which grows dull inside and cannot be used as a focus or material component for any other spell, including another casting of this spell). The targets emanate no magic and the spell cannot be dispelled from them; only the focus retains a magic aura, and only by targeting the gem can the spell be dispelled, disjoined, or suppressed with antimagic. If the gem is destroyed or the spell is dispelled (which destroys the gem), all stolen memories return to the affected creatures.</p>",
    "spellDuration": "permanent"
  },
  "effects": [],
  "folder": null,
  "sort": 0,
  "permission": {
    "default": 0
  },
  "flags": {}
}