{
  "_id": "tn1uff6vkp9v2n0m",
  "name": "Detect Magic, Greater",
  "type": "spell",
  "img": "systems/pf1/icons/misc/magic-swirl.png",
  "data": {
    "description": {
      "value": "<div class=\"spell-description\">\n  <p>\n    <strong>School</strong>&nbsp;divination;\n    <strong>Level</strong>&nbsp;bard 2, cleric/oracle 2, druid 2, hunter 2, inquisitor 2, magus 2, medium 2, mesmerist 2, occultist 2, psychic 2, shaman 2, sorcerer/wizard 2, spiritualist 2, summoner 2, unchained Summoner 2, witch 2;\n    \n    \n    \n    \n  </p>\n  <p>\n    <strong>Casting Time</strong>&nbsp;1 standard<br>\n    <strong>Components</strong>&nbsp;V, S<br>\n  </p>\n  <p>\n    <strong>Range</strong>&nbsp;60 feet<br>\n    <strong>Area</strong>&nbsp;cone-shaped emanation<br>\n    \n    \n    <strong>Duration</strong>&nbsp;concentration, up to 1 minute/level (D)<br>\n      <strong>Saving Throw</strong>&nbsp;none;&nbsp;\n      <strong>Spell Resistance</strong>&nbsp;no<br>\n  </p>\n  <h2>Description</h2>\n  <p>This spell functions as @Compendium[pf1.spells.uqh87jz757r2cb7r]{detect magic}, except that you can glean much more information from the magical auras that you find, and those auras can be found after a much greater length of time.</p>\n<p>You can detect a lingering aura for up to 1 day per caster level you have, regardless of the aura's original strength. Additionally, when you use a standard action to concentrate on this spell, you can also study a creature within the spell's area and attempt a @Compendium[pf1.skills.uLZI2uWz0uB8UgBc]{Spellcraft} check in order to determine the last spell that the creature cast by identifying lingering traces that the spell left in the caster's aura. The DC to identify the spell is equal to 20 + the creature's caster level.</p>\n<p>Finally, you are able to locate and analyze the signature flourishes in a magical aura that allow you to match a spell to the person who cast it. In order to find these identifiers in a spell's aura, you must spend 1 round focusing on that spell in particular, and succeed at an opposed @Compendium[pf1.skills.ki0QvL0K7u4YuK0O]{Knowledge (arcana)} check against the caster (or a Knowledge [arcana] check with a DC equal to 15 + the spell level if the caster wants her work to be identified and emphasizes these unique elements rather than obscuring them). Once you learn a caster's set of identifiers, you can remember them as easily as a face or a voice. You can recognize this signature if you succeed at a Spellcraft check when later identifying a spell to determine whether or not that spell was cast by the same individual.</p>\n<p>The spell @Compendium[pf1.spells.3anuql2qioluspuv]{greater magic aura} (see page 219) can obfuscate this information, making it seem that someone else cast the spell. Greater <em>detect magic</em> grants a saving throw against @Compendium[pf1.spells.l01ajd0m4xgwq3fd]{magic aura} (but not <em>greater <em>magic aura</em></em>).</p>\n</div>\n"
    },
    "tags": [],
    "activation": {
      "type": "standard"
    },
    "unchainedAction": {
      "activation": {
        "cost": 2,
        "type": "action"
      }
    },
    "range": {
      "value": "60",
      "units": "ft",
      "maxIncrements": "1"
    },
    "uses": {
      "per": ""
    },
    "measureTemplate": {
      "size": "0"
    },
    "actionType": "",
    "damage": {
      "parts": [],
      "critParts": [],
      "nonCritParts": []
    },
    "attackParts": [],
    "ability": {
      "attack": "",
      "damage": ""
    },
    "save": {
      "dc": "0"
    },
    "effectNotes": [],
    "attackNotes": [],
    "links": {
      "children": []
    },
    "flags": {
      "boolean": [],
      "dictionary": []
    },
    "scriptCalls": [],
    "learnedAt": {
      "class": [
        [
          "sorcerer/wizard",
          2
        ],
        [
          "cleric/oracle",
          2
        ],
        [
          "druid",
          2
        ],
        [
          "bard",
          2
        ],
        [
          "summoner",
          2
        ],
        [
          "witch",
          2
        ],
        [
          "inquisitor",
          2
        ],
        [
          "magus",
          2
        ],
        [
          "shaman",
          2
        ],
        [
          "psychic",
          2
        ],
        [
          "medium",
          2
        ],
        [
          "mesmerist",
          2
        ],
        [
          "occultist",
          2
        ],
        [
          "spiritualist",
          2
        ],
        [
          "hunter",
          2
        ],
        [
          "unchained Summoner",
          2
        ]
      ],
      "domain": [],
      "subDomain": [],
      "elementalSchool": [],
      "bloodline": []
    },
    "level": 2,
    "school": "div",
    "conditionals": [],
    "components": {
      "verbal": true,
      "somatic": true
    },
    "spellbook": "",
    "sr": false,
    "shortDescription": "<p>This spell functions as @Compendium[pf1.spells.uqh87jz757r2cb7r]{detect magic}, except that you can glean much more information from the magical auras that you find, and those auras can be found after a much greater length of time.</p>\n<p>You can detect a lingering aura for up to 1 day per caster level you have, regardless of the aura's original strength. Additionally, when you use a standard action to concentrate on this spell, you can also study a creature within the spell's area and attempt a @Compendium[pf1.skills.uLZI2uWz0uB8UgBc]{Spellcraft} check in order to determine the last spell that the creature cast by identifying lingering traces that the spell left in the caster's aura. The DC to identify the spell is equal to 20 + the creature's caster level.</p>\n<p>Finally, you are able to locate and analyze the signature flourishes in a magical aura that allow you to match a spell to the person who cast it. In order to find these identifiers in a spell's aura, you must spend 1 round focusing on that spell in particular, and succeed at an opposed @Compendium[pf1.skills.ki0QvL0K7u4YuK0O]{Knowledge (arcana)} check against the caster (or a Knowledge [arcana] check with a DC equal to 15 + the spell level if the caster wants her work to be identified and emphasizes these unique elements rather than obscuring them). Once you learn a caster's set of identifiers, you can remember them as easily as a face or a voice. You can recognize this signature if you succeed at a Spellcraft check when later identifying a spell to determine whether or not that spell was cast by the same individual.</p>\n<p>The spell @Compendium[pf1.spells.3anuql2qioluspuv]{greater magic aura} (see page 219) can obfuscate this information, making it seem that someone else cast the spell. Greater <em>detect magic</em> grants a saving throw against @Compendium[pf1.spells.l01ajd0m4xgwq3fd]{magic aura} (but not <em>greater <em>magic aura</em></em>).</p>",
    "spellDuration": "concentration, up to 1 minute/level (D)",
    "spellArea": "cone-shaped emanation"
  },
  "effects": [],
  "folder": null,
  "sort": 0,
  "permission": {
    "default": 0
  },
  "flags": {}
}