{
  "_id": "q8nety5obvbbd5xs",
  "name": "Divide Mind",
  "type": "spell",
  "img": "systems/pf1/icons/misc/magic-swirl.png",
  "data": {
    "description": {
      "value": "<div class=\"spell-description\">\n  <p>\n    <strong>School</strong>&nbsp;enchantment&nbsp;[mind-affecting];\n    <strong>Level</strong>&nbsp;psychic 9;\n    \n    \n    \n    \n  </p>\n  <p>\n    <strong>Casting Time</strong>&nbsp;1 standard<br>\n    <strong>Components</strong>&nbsp;V<br>\n  </p>\n  <p>\n    <strong>Range</strong>&nbsp;personal<br>\n    \n    <strong>Targets</strong>&nbsp;you<br>\n    \n    <strong>Duration</strong>&nbsp;1 minute<br>\n  </p>\n  <h2>Description</h2>\n  <p>You partition your mind to maximize your mental power. Until the spell ends, you roll twice and use the higher result for all Will saves, Intelligence checks, and Intelligence-based skill checks. In addition, as a swift action you can have your second mind perform any purely mental action that normally requires a standard action or a move action. This includes casting psychic spells, using spell-like abilities, and concentrating on spells. Spells and spell-like abilities cast or used by your secondary mind this way can't exceed 5th level.</p>\n</div>\n"
    },
    "tags": [],
    "activation": {
      "type": "standard"
    },
    "unchainedAction": {
      "activation": {
        "cost": 2,
        "type": "action"
      }
    },
    "target": {
      "value": "you"
    },
    "range": {
      "units": "personal"
    },
    "uses": {
      "per": ""
    },
    "measureTemplate": {
      "size": "0"
    },
    "actionType": "",
    "damage": {
      "parts": [],
      "critParts": [],
      "nonCritParts": []
    },
    "attackParts": [],
    "ability": {
      "attack": "",
      "damage": ""
    },
    "save": {
      "dc": "0"
    },
    "effectNotes": [],
    "attackNotes": [],
    "links": {
      "children": []
    },
    "flags": {
      "boolean": [],
      "dictionary": []
    },
    "scriptCalls": [],
    "learnedAt": {
      "class": [
        [
          "psychic",
          9
        ]
      ],
      "domain": [],
      "subDomain": [],
      "elementalSchool": [],
      "bloodline": []
    },
    "level": 9,
    "school": "enc",
    "types": "mind-affecting",
    "conditionals": [],
    "components": {
      "verbal": true
    },
    "sr": false,
    "shortDescription": "<p>You partition your mind to maximize your mental power. Until the spell ends, you roll twice and use the higher result for all Will saves, Intelligence checks, and Intelligence-based skill checks. In addition, as a swift action you can have your second mind perform any purely mental action that normally requires a standard action or a move action. This includes casting psychic spells, using spell-like abilities, and concentrating on spells. Spells and spell-like abilities cast or used by your secondary mind this way can't exceed 5th level.</p>",
    "spellDuration": "1 minute"
  },
  "effects": [],
  "folder": null,
  "sort": 0,
  "permission": {
    "default": 0
  },
  "flags": {}
}