{
  "_id": "mc89tuid59nq1jgf",
  "name": "Fire Sneeze",
  "type": "spell",
  "img": "systems/pf1/icons/misc/magic-swirl.png",
  "data": {
    "description": {
      "value": "<div class=\"spell-description\">\n  <p>\n    <strong>School</strong>&nbsp;evocation&nbsp;[air, fire];\n    <strong>Level</strong>&nbsp;alchemist 2, druid 2, hunter 2, sorcerer/wizard 2;\n    \n    \n    \n    \n  </p>\n  <p>\n    <strong>Casting Time</strong>&nbsp;1 standard<br>\n    <strong>Components</strong>&nbsp;V, S, M (hot pepper soaked in oil)<br>\n  </p>\n  <p>\n    <strong>Range</strong>&nbsp;personal<br>\n    \n    <strong>Targets</strong>&nbsp;you<br>\n    \n    <strong>Duration</strong>&nbsp;1 round + 1 round/2 levels<br>\n  </p>\n  <h2>Description</h2>\n  <p>This spell causes you to begin sneezing gouts of fire that can not only set creatures ablaze but also drop them flat on their backs.</p><p>Once you cast this spell, you must sneeze each round as a standard action-you can take no other standard action as long as this spell is in effect, nor can you take full-round actions. Each time you sneeze, you produce a 10-foot-long cone of fire and wind. All creatures caught in this cone take 2d6 points of fire damage-a successful Reflex save halves this damage. Any creature that fails to resist this spell with a Reflex save must immediately make a DC 12 Fortitude save or be knocked prone by the blast of wind associated with the sneeze.</p>\n</div>\n"
    },
    "tags": [],
    "activation": {
      "type": "standard"
    },
    "unchainedAction": {
      "activation": {
        "cost": 2,
        "type": "action"
      }
    },
    "target": {
      "value": "you"
    },
    "range": {
      "units": "personal"
    },
    "uses": {
      "per": ""
    },
    "measureTemplate": {
      "size": "0"
    },
    "actionType": "spellsave",
    "damage": {
      "parts": [],
      "critParts": [],
      "nonCritParts": []
    },
    "attackParts": [],
    "ability": {
      "attack": "",
      "damage": ""
    },
    "save": {
      "dc": "0",
      "type": "ref",
      "description": "Reflex half"
    },
    "effectNotes": [],
    "attackNotes": [],
    "links": {
      "children": []
    },
    "flags": {
      "boolean": [],
      "dictionary": []
    },
    "scriptCalls": [],
    "learnedAt": {
      "class": [
        [
          "sorcerer/wizard",
          2
        ],
        [
          "druid",
          2
        ],
        [
          "alchemist",
          2
        ],
        [
          "hunter",
          2
        ]
      ],
      "domain": [],
      "subDomain": [],
      "elementalSchool": [],
      "bloodline": []
    },
    "level": 2,
    "school": "evo",
    "types": "air, fire",
    "conditionals": [],
    "components": {
      "verbal": true,
      "somatic": true,
      "material": true
    },
    "materials": {
      "value": "hot pepper soaked in oil"
    },
    "shortDescription": "<p>This spell causes you to begin sneezing gouts of fire that can not only set creatures ablaze but also drop them flat on their backs.</p><p>Once you cast this spell, you must sneeze each round as a standard action-you can take no other standard action as long as this spell is in effect, nor can you take full-round actions. Each time you sneeze, you produce a 10-foot-long cone of fire and wind. All creatures caught in this cone take 2d6 points of fire damage-a successful Reflex save halves this damage. Any creature that fails to resist this spell with a Reflex save must immediately make a DC 12 Fortitude save or be knocked prone by the blast of wind associated with the sneeze.</p>",
    "spellDuration": "1 round + 1 round/2 levels"
  },
  "effects": [],
  "folder": null,
  "sort": 0,
  "permission": {
    "default": 0
  },
  "flags": {}
}