{
  "_id": "rk3ltcxcw1z2sk02",
  "name": "Fire of Judgment",
  "type": "spell",
  "img": "systems/pf1/icons/misc/magic-swirl.png",
  "data": {
    "description": {
      "value": "<div class=\"spell-description\">\n  <p>\n    <strong>School</strong>&nbsp;evocation;\n    <strong>Level</strong>&nbsp;paladin 3;\n    \n    \n    \n    \n  </p>\n  <p>\n    <strong>Casting Time</strong>&nbsp;1 swift<br>\n    <strong>Components</strong>&nbsp;V, S<br>\n  </p>\n  <p>\n    \n    \n    <strong>Targets</strong>&nbsp;one creature<br>\n    \n    <strong>Duration</strong>&nbsp;1 round/level<br>\n      <strong>Saving Throw</strong>&nbsp;Will partial;&nbsp;\n      <strong>Spell Resistance</strong>&nbsp;yes<br>\n  </p>\n  <h2>Description</h2>\n  <p>After casting this spell, the next creature you attack using your smite evil class ability is engulfed in flames of positive energy. At the start of its turn, the target takes 1d6 points of damage, and takes an additional 1d6 points of damage each time it attacks a creature other than you. If the creature is an outsider with the evil subtype, an evil-aligned dragon, or an undead creature this damage increases to 1d10. With a successful saving throw, a creature is affected by this spell for only 1 round. This damage is divine in nature and bypasses any DR the creature possesses.</p>\n</div>\n"
    },
    "tags": [],
    "activation": {
      "type": "swift"
    },
    "unchainedAction": {
      "activation": {
        "type": "action"
      }
    },
    "target": {
      "value": "one creature"
    },
    "uses": {
      "per": ""
    },
    "measureTemplate": {
      "size": "0"
    },
    "actionType": "spellsave",
    "damage": {
      "parts": [],
      "critParts": [],
      "nonCritParts": []
    },
    "attackParts": [],
    "ability": {
      "attack": "",
      "damage": ""
    },
    "save": {
      "dc": "0",
      "type": "will",
      "description": "Will partial"
    },
    "effectNotes": [],
    "attackNotes": [],
    "links": {
      "children": []
    },
    "flags": {
      "boolean": [],
      "dictionary": []
    },
    "scriptCalls": [],
    "learnedAt": {
      "class": [
        [
          "paladin",
          3
        ]
      ],
      "domain": [],
      "subDomain": [],
      "elementalSchool": [],
      "bloodline": []
    },
    "level": 3,
    "school": "evo",
    "conditionals": [],
    "components": {
      "verbal": true,
      "somatic": true
    },
    "shortDescription": "<p>After casting this spell, the next creature you attack using your smite evil class ability is engulfed in flames of positive energy. At the start of its turn, the target takes 1d6 points of damage, and takes an additional 1d6 points of damage each time it attacks a creature other than you. If the creature is an outsider with the evil subtype, an evil-aligned dragon, or an undead creature this damage increases to 1d10. With a successful saving throw, a creature is affected by this spell for only 1 round. This damage is divine in nature and bypasses any DR the creature possesses.</p>",
    "spellDuration": "1 round/level"
  },
  "effects": [],
  "folder": null,
  "sort": 0,
  "permission": {
    "default": 0
  },
  "flags": {}
}