{
  "_id": "ogcgpcwfoegt3af6",
  "name": "Hasten Judgment",
  "type": "spell",
  "img": "systems/pf1/icons/misc/magic-swirl.png",
  "data": {
    "description": {
      "value": "<div class=\"spell-description\">\n  <p>\n    <strong>School</strong>&nbsp;necromancy&nbsp;[curse];\n    <strong>Level</strong>&nbsp;antipaladin 4, cleric/oracle 5, druid 5, hunter 5, inquisitor 4, sorcerer/wizard 6, spiritualist 4, witch 5;\n    \n    \n    \n    \n  </p>\n  <p>\n    <strong>Casting Time</strong>&nbsp;1 standard<br>\n    <strong>Components</strong>&nbsp;V, S, M (2 silver pieces)<br>\n  </p>\n  <p>\n    <strong>Range</strong>&nbsp;touch<br>\n    \n    <strong>Targets</strong>&nbsp;one living or corporeal undead creature<br>\n    \n    <strong>Duration</strong>&nbsp;1 day/level<br>\n      <strong>Saving Throw</strong>&nbsp;Will negates;&nbsp;\n      <strong>Spell Resistance</strong>&nbsp;yes<br>\n  </p>\n  <h2>Description</h2>\n  <p>This potent curse weighs upon the target's soul, hastening a living creature's journey to the Boneyard upon death or weakening an undead creature's animating force. A living creature that dies during the spell's duration cannot be affected by <i>Breath of Life</i> or similar effects, and the period during which attempts to restore the target to life can succeed is reduced to 1 hour/level (for <i>raise</i> dead), 1 day/level (for resurrection), or 10 days/level (for <i>true</i> resurrection). <i>Reincarnate</i> and similar effects work normally on a creature killed under this spell's effects.  An undead creature affected by this spell cannot gain temporary hit points, and any existing channel resistance the undead may have is reduced by half as long as the curse persists.  Creatures whose souls are separate from their bodies (such as liches) or are merged with their bodies (such as non-native outsiders) are unaffected by <i>hasten judgment</i>.</p>\n</div>\n"
    },
    "tags": [],
    "activation": {
      "type": "standard"
    },
    "unchainedAction": {
      "activation": {
        "cost": 2,
        "type": "action"
      }
    },
    "target": {
      "value": "one living or corporeal undead creature"
    },
    "range": {
      "units": "touch"
    },
    "uses": {
      "per": ""
    },
    "measureTemplate": {
      "size": "0"
    },
    "actionType": "spellsave",
    "damage": {
      "parts": [],
      "critParts": [],
      "nonCritParts": []
    },
    "attackParts": [],
    "ability": {
      "attack": "",
      "damage": ""
    },
    "save": {
      "dc": "0",
      "type": "will",
      "description": "Will negates"
    },
    "effectNotes": [],
    "attackNotes": [],
    "links": {
      "children": []
    },
    "flags": {
      "boolean": [],
      "dictionary": []
    },
    "scriptCalls": [],
    "learnedAt": {
      "class": [
        [
          "sorcerer/wizard",
          6
        ],
        [
          "cleric/oracle",
          5
        ],
        [
          "druid",
          5
        ],
        [
          "witch",
          5
        ],
        [
          "inquisitor",
          4
        ],
        [
          "antipaladin",
          4
        ],
        [
          "spiritualist",
          4
        ],
        [
          "hunter",
          5
        ]
      ],
      "domain": [],
      "subDomain": [],
      "elementalSchool": [],
      "bloodline": []
    },
    "level": 6,
    "school": "nec",
    "types": "curse",
    "conditionals": [],
    "components": {
      "verbal": true,
      "somatic": true,
      "material": true
    },
    "materials": {
      "value": "2 silver pieces"
    },
    "shortDescription": "<p>This potent curse weighs upon the target's soul, hastening a living creature's journey to the Boneyard upon death or weakening an undead creature's animating force. A living creature that dies during the spell's duration cannot be affected by <i>Breath of Life</i> or similar effects, and the period during which attempts to restore the target to life can succeed is reduced to 1 hour/level (for <i>raise</i> dead), 1 day/level (for resurrection), or 10 days/level (for <i>true</i> resurrection). <i>Reincarnate</i> and similar effects work normally on a creature killed under this spell's effects.  An undead creature affected by this spell cannot gain temporary hit points, and any existing channel resistance the undead may have is reduced by half as long as the curse persists.  Creatures whose souls are separate from their bodies (such as liches) or are merged with their bodies (such as non-native outsiders) are unaffected by <i>hasten judgment</i>.</p>",
    "spellDuration": "1 day/level"
  },
  "effects": [],
  "folder": null,
  "sort": 0,
  "permission": {
    "default": 0
  },
  "flags": {}
}