{
  "_id": "mzrx5anb5eeovv7t",
  "name": "Hobble",
  "type": "spell",
  "img": "systems/pf1/icons/misc/magic-swirl.png",
  "data": {
    "description": {
      "value": "<div class=\"spell-description\">\n  <p>\n    <strong>School</strong>&nbsp;transmutation;\n    <strong>Level</strong>&nbsp;bard 1, bloodrager 1, hunter 1, inquisitor 1, magus 1, mesmerist 1, ranger 1, sorcerer/wizard 1;\n    \n    \n    \n    \n  </p>\n  <p>\n    <strong>Casting Time</strong>&nbsp;1 standard<br>\n    <strong>Components</strong>&nbsp;V, S, M (a drop of glue)<br>\n  </p>\n  <p>\n    <strong>Range</strong>&nbsp;close (25 ft. + 5 ft./2 levels)<br>\n    \n    <strong>Targets</strong>&nbsp;one creature/level, no two of which can be more than 20 feet apart<br>\n    \n    <strong>Duration</strong>&nbsp;1 round/level<br>\n      <strong>Saving Throw</strong>&nbsp;Fortitude negates;&nbsp;\n      <strong>Spell Resistance</strong>&nbsp;yes<br>\n  </p>\n  <h2>Description</h2>\n  <p>This spell disrupts the method a target uses for movement. Creatures under the effects of this spell move at half their base speed (rounded down to the nearest 5-foot increment) but can still take 5-foot steps as normal. Incorporeal creatures and creatures flying with perfect maneuverability are immune to the effects of this spell. Each round, a target receives another save to end the effect.</p>\n</div>\n"
    },
    "tags": [],
    "activation": {
      "type": "standard"
    },
    "unchainedAction": {
      "activation": {
        "cost": 2,
        "type": "action"
      }
    },
    "target": {
      "value": "one creature/level, no two of which can be more than 20 feet apart"
    },
    "range": {
      "units": "close"
    },
    "uses": {
      "per": ""
    },
    "measureTemplate": {
      "size": "0"
    },
    "actionType": "spellsave",
    "damage": {
      "parts": [],
      "critParts": [],
      "nonCritParts": []
    },
    "attackParts": [],
    "ability": {
      "attack": "",
      "damage": ""
    },
    "save": {
      "dc": "0",
      "type": "fort",
      "description": "Fortitude negates"
    },
    "effectNotes": [],
    "attackNotes": [],
    "links": {
      "children": []
    },
    "flags": {
      "boolean": [],
      "dictionary": []
    },
    "scriptCalls": [],
    "learnedAt": {
      "class": [
        [
          "sorcerer/wizard",
          1
        ],
        [
          "ranger",
          1
        ],
        [
          "bard",
          1
        ],
        [
          "inquisitor",
          1
        ],
        [
          "magus",
          1
        ],
        [
          "bloodrager",
          1
        ],
        [
          "mesmerist",
          1
        ],
        [
          "hunter",
          1
        ]
      ],
      "domain": [],
      "subDomain": [],
      "elementalSchool": [],
      "bloodline": []
    },
    "school": "trs",
    "conditionals": [],
    "components": {
      "verbal": true,
      "somatic": true,
      "material": true
    },
    "materials": {
      "value": "a drop of glue"
    },
    "shortDescription": "<p>This spell disrupts the method a target uses for movement. Creatures under the effects of this spell move at half their base speed (rounded down to the nearest 5-foot increment) but can still take 5-foot steps as normal. Incorporeal creatures and creatures flying with perfect maneuverability are immune to the effects of this spell. Each round, a target receives another save to end the effect.</p>",
    "spellDuration": "1 round/level"
  },
  "effects": [],
  "folder": null,
  "sort": 0,
  "permission": {
    "default": 0
  },
  "flags": {}
}