{
  "_id": "d8hypv6zdyan3rzr",
  "name": "Hold Monster",
  "type": "spell",
  "img": "systems/pf1/icons/misc/magic-swirl.png",
  "data": {
    "description": {
      "value": "<div class=\"spell-description\">\n  <p>\n    <strong>School</strong>&nbsp;enchantment&nbsp;(compulsion)&nbsp;[mind-affecting];\n    <strong>Level</strong>&nbsp;bard 4, inquisitor 4, medium 4, mesmerist 4, occultist 4, psychic 5, sorcerer/wizard 5, summoner 4, unchained Summoner 5, witch 5;\n    <strong>Domain</strong>&nbsp;Law 6;\n    \n    \n    <strong>Bloodline</strong>&nbsp;Serpentine 5;\n  </p>\n  <p>\n    <strong>Casting Time</strong>&nbsp;1 standard<br>\n    <strong>Components</strong>&nbsp;V, S, M/DF (one hard metal bar or rod, which can be as small as a three-penny nail)<br>\n  </p>\n  <p>\n    <strong>Range</strong>&nbsp;medium (100 ft. + 10 ft./level)<br>\n    \n    <strong>Targets</strong>&nbsp;one living creature<br>\n    \n    <strong>Duration</strong>&nbsp;1 round/level; see text<br>\n      <strong>Saving Throw</strong>&nbsp;Will negates; see text;&nbsp;\n      <strong>Spell Resistance</strong>&nbsp;yes<br>\n  </p>\n  <h2>Description</h2>\n  <p>This spell functions like <i>hold person,</i> except that it affects any living creature that fails its Will save.</p>\n</div>\n"
    },
    "tags": [],
    "activation": {
      "type": "standard"
    },
    "unchainedAction": {
      "activation": {
        "cost": 2,
        "type": "action"
      }
    },
    "target": {
      "value": "one living creature"
    },
    "range": {
      "units": "medium"
    },
    "uses": {
      "per": ""
    },
    "measureTemplate": {
      "size": "0"
    },
    "actionType": "spellsave",
    "damage": {
      "parts": [],
      "critParts": [],
      "nonCritParts": []
    },
    "attackParts": [],
    "ability": {
      "attack": "",
      "damage": ""
    },
    "save": {
      "dc": "0",
      "type": "will",
      "description": "Will negates; see text"
    },
    "effectNotes": [],
    "attackNotes": [],
    "links": {
      "children": []
    },
    "flags": {
      "boolean": [],
      "dictionary": []
    },
    "scriptCalls": [],
    "learnedAt": {
      "class": [
        [
          "sorcerer/wizard",
          5
        ],
        [
          "bard",
          4
        ],
        [
          "summoner",
          4
        ],
        [
          "witch",
          5
        ],
        [
          "inquisitor",
          4
        ],
        [
          "psychic",
          5
        ],
        [
          "medium",
          4
        ],
        [
          "mesmerist",
          4
        ],
        [
          "occultist",
          4
        ],
        [
          "unchained Summoner",
          5
        ]
      ],
      "domain": [
        [
          "Law",
          6
        ]
      ],
      "subDomain": [],
      "elementalSchool": [],
      "bloodline": [
        [
          "Serpentine",
          5
        ]
      ]
    },
    "level": 5,
    "school": "enc",
    "subschool": "compulsion",
    "types": "mind-affecting",
    "conditionals": [],
    "components": {
      "verbal": true,
      "somatic": true,
      "material": true,
      "divineFocus": 2
    },
    "materials": {
      "value": "one hard metal bar or rod, which can be as small as a three-penny nail"
    },
    "shortDescription": "<p>This spell functions like <i>hold person,</i> except that it affects any living creature that fails its Will save.</p>",
    "spellDuration": "1 round/level; see text"
  },
  "effects": [],
  "folder": null,
  "sort": 0,
  "permission": {
    "default": 0
  },
  "flags": {}
}