{
  "_id": "bwdd2gn5l8kz3g5y",
  "name": "Hunter's Blessing",
  "type": "spell",
  "img": "systems/pf1/icons/misc/magic-swirl.png",
  "data": {
    "description": {
      "value": "<div class=\"spell-description\">\n  <p>\n    <strong>School</strong>&nbsp;transmutation;\n    <strong>Level</strong>&nbsp;cleric/oracle 5, druid 5, hunter 5, inquisitor 5;\n    \n    \n    \n    \n  </p>\n  <p>\n    <strong>Casting Time</strong>&nbsp;1 standard<br>\n    <strong>Components</strong>&nbsp;V, S, DF<br>\n  </p>\n  <p>\n    <strong>Range</strong>&nbsp;close (25 ft. + 5 ft./2 levels)<br>\n    \n    <strong>Targets</strong>&nbsp;one creature/level, no two of which can be more than 30 ft. apart<br>\n    \n    <strong>Duration</strong>&nbsp;1 hour/level<br>\n      <strong>Saving Throw</strong>&nbsp;Will negates (harmless);&nbsp;\n      <strong>Spell Resistance</strong>&nbsp;yes<br>\n  </p>\n  <h2>Description</h2>\n  <p>When casting this spell, you designate a type or type and subtype of creature (using the ranger's favored enemy categories; <i>Pathfinder RPG <i>Core Rulebook</i></i> 6 4) and a type of terrain (using the list of ranger's favored terrain categories, <i>Core Rulebook</i> 65). <b>Target</b>s of the spell gain a +2 sacred bonus on Bluff, Perception, Sense Motive, and Survival checks attempted against creatures of the selected type, and a +2 sacred bonus on attack rolls and damage rolls made against creatures of that type. Furthermore, they gain a +2 sacred bonus on initiative checks, Perception, Stealth, and Survival checks while they are in the type of terrain you designate. Lastly, when tracking the designated creature type in the chosen terrain, the targets can follow the tracks of such creatures untrained, even if the DC for the task is 11 or higher.</p>\n</div>\n"
    },
    "tags": [],
    "activation": {
      "type": "standard"
    },
    "unchainedAction": {
      "activation": {
        "cost": 2,
        "type": "action"
      }
    },
    "target": {
      "value": "one creature/level, no two of which can be more than 30 ft. apart"
    },
    "range": {
      "units": "close"
    },
    "uses": {
      "per": ""
    },
    "measureTemplate": {
      "size": "0"
    },
    "actionType": "spellsave",
    "damage": {
      "parts": [],
      "critParts": [],
      "nonCritParts": []
    },
    "attackParts": [],
    "ability": {
      "attack": "",
      "damage": ""
    },
    "save": {
      "dc": "0",
      "type": "will",
      "description": "Will negates (harmless)"
    },
    "effectNotes": [],
    "attackNotes": [],
    "links": {
      "children": []
    },
    "flags": {
      "boolean": [],
      "dictionary": []
    },
    "scriptCalls": [],
    "learnedAt": {
      "class": [
        [
          "cleric/oracle",
          5
        ],
        [
          "druid",
          5
        ],
        [
          "inquisitor",
          5
        ],
        [
          "hunter",
          5
        ]
      ],
      "domain": [],
      "subDomain": [],
      "elementalSchool": [],
      "bloodline": []
    },
    "level": 5,
    "school": "trs",
    "conditionals": [],
    "components": {
      "verbal": true,
      "somatic": true,
      "divineFocus": 1
    },
    "shortDescription": "<p>When casting this spell, you designate a type or type and subtype of creature (using the ranger's favored enemy categories; <i>Pathfinder RPG <i>Core Rulebook</i></i> 6 4) and a type of terrain (using the list of ranger's favored terrain categories, <i>Core Rulebook</i> 65). <b>Target</b>s of the spell gain a +2 sacred bonus on Bluff, Perception, Sense Motive, and Survival checks attempted against creatures of the selected type, and a +2 sacred bonus on attack rolls and damage rolls made against creatures of that type. Furthermore, they gain a +2 sacred bonus on initiative checks, Perception, Stealth, and Survival checks while they are in the type of terrain you designate. Lastly, when tracking the designated creature type in the chosen terrain, the targets can follow the tracks of such creatures untrained, even if the DC for the task is 11 or higher.</p>",
    "spellDuration": "1 hour/level"
  },
  "effects": [],
  "folder": null,
  "sort": 0,
  "permission": {
    "default": 0
  },
  "flags": {}
}