{
  "_id": "esia6azb5g68tfs7",
  "name": "Imprisonment",
  "type": "spell",
  "img": "systems/pf1/icons/misc/magic-swirl.png",
  "data": {
    "description": {
      "value": "<div class=\"spell-description\">\n  <p>\n    <strong>School</strong>&nbsp;abjuration;\n    <strong>Level</strong>&nbsp;psychic 9, sorcerer/wizard 9;\n    \n    \n    \n    \n  </p>\n  <p>\n    <strong>Casting Time</strong>&nbsp;1 standard<br>\n    <strong>Components</strong>&nbsp;V, S<br>\n  </p>\n  <p>\n    <strong>Range</strong>&nbsp;touch<br>\n    \n    <strong>Targets</strong>&nbsp;creature touched<br>\n    \n    <strong>Duration</strong>&nbsp;instantaneous<br>\n      <strong>Saving Throw</strong>&nbsp;Will negates; see text;&nbsp;\n      <strong>Spell Resistance</strong>&nbsp;yes<br>\n  </p>\n  <h2>Description</h2>\n  <p>When you cast <i>imprisonment</i> and touch a creature, it is entombed in a state of suspended animation (see the <i>temporal stasis</i> spell) in a small sphere far beneath the surface of the ground. The subject remains there unless a <i>freedom</i> spell is cast at the locale where the <i>imprisonment</i> took place. Magical search by a <i>crystal ball, a locate object</i> spell, or some other similar divination does not reveal the fact that a creature is imprisoned, but <i>discern location</i> does. A <i>wish</i> or <i>miracle</i> spell will not free the recipient, but will reveal where it is entombed. If you know the target's name and some facts about its life, the target takes a -4 penalty on its save.</p>\n</div>\n"
    },
    "tags": [],
    "activation": {
      "type": "standard"
    },
    "unchainedAction": {
      "activation": {
        "cost": 2,
        "type": "action"
      }
    },
    "target": {
      "value": "creature touched"
    },
    "range": {
      "units": "touch"
    },
    "uses": {
      "per": ""
    },
    "measureTemplate": {
      "size": "0"
    },
    "actionType": "spellsave",
    "damage": {
      "parts": [],
      "critParts": [],
      "nonCritParts": []
    },
    "attackParts": [],
    "ability": {
      "attack": "",
      "damage": ""
    },
    "save": {
      "dc": "0",
      "type": "will",
      "description": "Will negates; see text"
    },
    "effectNotes": [],
    "attackNotes": [],
    "links": {
      "children": []
    },
    "flags": {
      "boolean": [],
      "dictionary": []
    },
    "scriptCalls": [],
    "learnedAt": {
      "class": [
        [
          "sorcerer/wizard",
          9
        ],
        [
          "psychic",
          9
        ]
      ],
      "domain": [],
      "subDomain": [],
      "elementalSchool": [],
      "bloodline": []
    },
    "level": 9,
    "school": "abj",
    "conditionals": [],
    "components": {
      "verbal": true,
      "somatic": true
    },
    "shortDescription": "<p>When you cast <i>imprisonment</i> and touch a creature, it is entombed in a state of suspended animation (see the <i>temporal stasis</i> spell) in a small sphere far beneath the surface of the ground. The subject remains there unless a <i>freedom</i> spell is cast at the locale where the <i>imprisonment</i> took place. Magical search by a <i>crystal ball, a locate object</i> spell, or some other similar divination does not reveal the fact that a creature is imprisoned, but <i>discern location</i> does. A <i>wish</i> or <i>miracle</i> spell will not free the recipient, but will reveal where it is entombed. If you know the target's name and some facts about its life, the target takes a -4 penalty on its save.</p>",
    "spellDuration": "instantaneous"
  },
  "effects": [],
  "folder": null,
  "sort": 0,
  "permission": {
    "default": 0
  },
  "flags": {}
}