{
  "_id": "uhfwusjxyms0id48",
  "name": "Insect Spies, Greater",
  "type": "spell",
  "img": "systems/pf1/icons/misc/magic-swirl.png",
  "data": {
    "description": {
      "value": "<div class=\"spell-description\">\n  <p>\n    <strong>School</strong>&nbsp;divination;\n    <strong>Level</strong>&nbsp;druid 6, hunter 6, sorcerer/wizard 7, summoner 6, unchained Summoner 6, witch 7;\n    \n    \n    \n    \n  </p>\n  <p>\n    <strong>Casting Time</strong>&nbsp;1 round<br>\n    <strong>Components</strong>&nbsp;V, S, M (a drop of honey)<br>\n  </p>\n  <p>\n    <strong>Range</strong>&nbsp;close (25 ft. + 5 ft./2 levels)<br>\n    \n    \n    <strong>Effect</strong>&nbsp;up to one insect spy/4 levels<br>\n    <strong>Duration</strong>&nbsp;10 minutes/level (D)<br>\n      <strong>Saving Throw</strong>&nbsp;none;&nbsp;\n      <strong>Spell Resistance</strong>&nbsp;no<br>\n  </p>\n  <h2>Description</h2>\n  <p>As @Compendium[pf1.spells.25bv1s6jwr8imm1o]{Insect Spies}, but you can also borrow the senses of the summoned insects. As a move action, you can choose to receive sensory input from one of the insects, seeing what it sees and hearing what it hears. While doing so, you are treated as being blind and deaf. You can change to another insect, or return to your own senses, with another move action.</p>\n</div>\n"
    },
    "tags": [],
    "activation": {
      "type": "round"
    },
    "unchainedAction": {
      "activation": {
        "cost": 3,
        "type": "action"
      }
    },
    "range": {
      "units": "close"
    },
    "uses": {
      "per": ""
    },
    "measureTemplate": {
      "size": "0"
    },
    "actionType": "other",
    "damage": {
      "parts": [],
      "critParts": [],
      "nonCritParts": []
    },
    "attackParts": [],
    "ability": {
      "attack": "",
      "damage": ""
    },
    "save": {
      "dc": "0"
    },
    "effectNotes": [],
    "attackNotes": [],
    "links": {
      "children": []
    },
    "flags": {
      "boolean": [],
      "dictionary": []
    },
    "scriptCalls": [],
    "learnedAt": {
      "class": [
        [
          "sorcerer/wizard",
          7
        ],
        [
          "druid",
          6
        ],
        [
          "summoner",
          6
        ],
        [
          "witch",
          7
        ],
        [
          "hunter",
          6
        ],
        [
          "unchained Summoner",
          6
        ]
      ],
      "domain": [],
      "subDomain": [],
      "elementalSchool": [],
      "bloodline": []
    },
    "level": 7,
    "school": "div",
    "conditionals": [],
    "components": {
      "verbal": true,
      "somatic": true,
      "material": true
    },
    "materials": {
      "value": "a drop of honey"
    },
    "spellbook": "",
    "sr": false,
    "shortDescription": "<p>As @Compendium[pf1.spells.25bv1s6jwr8imm1o]{Insect Spies}, but you can also borrow the senses of the summoned insects. As a move action, you can choose to receive sensory input from one of the insects, seeing what it sees and hearing what it hears. While doing so, you are treated as being blind and deaf. You can change to another insect, or return to your own senses, with another move action.</p>",
    "spellDuration": "10 minutes/level (D)",
    "spellEffect": "up to one insect spy/4 levels"
  },
  "effects": [],
  "folder": null,
  "sort": 0,
  "permission": {
    "default": 0
  },
  "flags": {}
}