{
  "_id": "8rf2ucrtzmxooyw6",
  "name": "Lunar Veil",
  "type": "spell",
  "img": "systems/pf1/icons/misc/magic-swirl.png",
  "data": {
    "description": {
      "value": "<div class=\"spell-description\">\n  <p>\n    <strong>School</strong>&nbsp;illusion&nbsp;(shadow)&nbsp;[darkness, shadow];\n    <strong>Level</strong>&nbsp;cleric/oracle 7, psychic 7, sorcerer/wizard 7, witch 7;\n    \n    \n    \n    \n  </p>\n  <p>\n    <strong>Casting Time</strong>&nbsp;1 standard<br>\n    <strong>Components</strong>&nbsp;V, S<br>\n  </p>\n  <p>\n    <strong>Range</strong>&nbsp;long (400 ft. + 40 ft./level)<br>\n    <strong>Area</strong>&nbsp;120-ft.-radius emanation<br>\n    \n    \n    <strong>Duration</strong>&nbsp;10 minute/level<br>\n      <strong>Saving Throw</strong>&nbsp;Will negates, see text;&nbsp;\n      <strong>Spell Resistance</strong>&nbsp;no<br>\n  </p>\n  <h2>Description</h2>\n  <p>You conjure a tremendous area of shadow to obscure moonlight within the area, creating something akin to a lunar eclipse. The light level is lowered by two steps (though unlike <i>deeper darkness</i>, areas of normal light or dimmer become normal darkness rather than supernaturally dark).</p><p>Lycanthropes in the area must make a Will save every round or revert to their humanoid forms. In addition, lycanthropes attempting to assume animal or hybrid form within the affected area take a -5 penalty on Constitution checks to do so.</p>\n</div>\n"
    },
    "tags": [],
    "activation": {
      "type": "standard"
    },
    "unchainedAction": {
      "activation": {
        "cost": 2,
        "type": "action"
      }
    },
    "range": {
      "units": "long"
    },
    "uses": {
      "per": ""
    },
    "measureTemplate": {
      "size": "0"
    },
    "actionType": "spellsave",
    "damage": {
      "parts": [],
      "critParts": [],
      "nonCritParts": []
    },
    "attackParts": [],
    "ability": {
      "attack": "",
      "damage": ""
    },
    "save": {
      "dc": "0",
      "type": "will",
      "description": "Will negates, see text"
    },
    "effectNotes": [],
    "attackNotes": [],
    "links": {
      "children": []
    },
    "flags": {
      "boolean": [],
      "dictionary": []
    },
    "scriptCalls": [],
    "learnedAt": {
      "class": [
        [
          "sorcerer/wizard",
          7
        ],
        [
          "cleric/oracle",
          7
        ],
        [
          "witch",
          7
        ],
        [
          "psychic",
          7
        ]
      ],
      "domain": [],
      "subDomain": [],
      "elementalSchool": [],
      "bloodline": []
    },
    "level": 7,
    "school": "ill",
    "subschool": "shadow",
    "types": "darkness, shadow",
    "conditionals": [],
    "components": {
      "verbal": true,
      "somatic": true
    },
    "sr": false,
    "shortDescription": "<p>You conjure a tremendous area of shadow to obscure moonlight within the area, creating something akin to a lunar eclipse. The light level is lowered by two steps (though unlike <i>deeper darkness</i>, areas of normal light or dimmer become normal darkness rather than supernaturally dark).</p><p>Lycanthropes in the area must make a Will save every round or revert to their humanoid forms. In addition, lycanthropes attempting to assume animal or hybrid form within the affected area take a -5 penalty on Constitution checks to do so.</p>",
    "spellDuration": "10 minute/level",
    "spellArea": "120-ft.-radius emanation"
  },
  "effects": [],
  "folder": null,
  "sort": 0,
  "permission": {
    "default": 0
  },
  "flags": {}
}