{
  "_id": "49yc9dpr4kvgki2s",
  "name": "Magic Missile",
  "type": "spell",
  "img": "systems/pf1/icons/spells/fire-arrows-sky-1.jpg",
  "data": {
    "description": {
      "value": "<div class=\"spell-description\">\n  <p>\n    <strong>School</strong>&nbsp;evocation&nbsp;[force];\n    <strong>Level</strong>&nbsp;bloodrager 1, magus 1, psychic 1, sorcerer/wizard 1;\n    \n    \n    \n    \n  </p>\n  <p>\n    <strong>Casting Time</strong>&nbsp;1 standard<br>\n    <strong>Components</strong>&nbsp;V, S<br>\n  </p>\n  <p>\n    <strong>Range</strong>&nbsp;medium (100 ft. + 10 ft./level)<br>\n    \n    <strong>Targets</strong>&nbsp;up to five creatures, no two of which can be more than 15 ft. apart<br>\n    \n    <strong>Duration</strong>&nbsp;instantaneous<br>\n      <strong>Saving Throw</strong>&nbsp;none;&nbsp;\n      <strong>Spell Resistance</strong>&nbsp;yes<br>\n  </p>\n  <h2>Description</h2>\n  <p>A missile of magical energy darts forth from your fingertip and strikes its target, dealing 1d4+1 points of force damage.</p><p>The missile strikes unerringly, even if the target is in melee combat, so long as it has less than total cover or total concealment.</p><p>Specific parts of a creature can't be singled out. Objects are not damaged by the spell.</p><p>For every two caster levels beyond 1st, you gain an additional missile-two at 3rd level, three at 5th, four at 7th, and the maximum of five missiles at 9th level or higher. If you shoot multiple missiles, you can have them strike a single creature or several creatures.</p><p>A single missile can strike only one creature. You must designate targets before you check for spell resistance or roll damage.</p>\n</div>\n"
    },
    "tags": [],
    "activation": {
      "type": "standard"
    },
    "unchainedAction": {
      "activation": {
        "cost": 2,
        "type": "action"
      }
    },
    "target": {
      "value": "up to five creatures, no two of which can be more than 15 ft. apart"
    },
    "range": {
      "units": "medium"
    },
    "uses": {
      "per": ""
    },
    "measureTemplate": {
      "size": "0"
    },
    "attackName": "Missile",
    "actionType": "rsak",
    "attackBonus": "100",
    "damage": {
      "parts": [
        [
          "1d4+1",
          "force"
        ]
      ],
      "critParts": [],
      "nonCritParts": []
    },
    "attackParts": [],
    "formulaicAttacks": {
      "count": {
        "formula": "min(4, ceil((@cl) / 2) - 1)"
      },
      "label": "Missile #{0}"
    },
    "ability": {
      "attack": "",
      "damage": "",
      "critRange": null,
      "critMult": null
    },
    "save": {
      "dc": "0"
    },
    "effectNotes": [],
    "attackNotes": [],
    "links": {
      "children": []
    },
    "flags": {
      "boolean": [],
      "dictionary": []
    },
    "scriptCalls": [],
    "learnedAt": {
      "class": [
        [
          "sorcerer/wizard",
          1
        ],
        [
          "magus",
          1
        ],
        [
          "bloodrager",
          1
        ],
        [
          "psychic",
          1
        ]
      ],
      "domain": [],
      "subDomain": [],
      "elementalSchool": [],
      "bloodline": []
    },
    "school": "evo",
    "types": "force",
    "conditionals": [],
    "components": {
      "verbal": true,
      "somatic": true
    },
    "spellbook": "",
    "shortDescription": "<p>A missile of magical energy darts forth from your fingertip and strikes its target, dealing 1d4+1 points of force damage.</p><p>The missile strikes unerringly, even if the target is in melee combat, so long as it has less than total cover or total concealment.</p><p>Specific parts of a creature can't be singled out. Objects are not damaged by the spell.</p><p>For every two caster levels beyond 1st, you gain an additional missile-two at 3rd level, three at 5th, four at 7th, and the maximum of five missiles at 9th level or higher. If you shoot multiple missiles, you can have them strike a single creature or several creatures.</p><p>A single missile can strike only one creature. You must designate targets before you check for spell resistance or roll damage.</p>",
    "spellDuration": "instantaneous"
  },
  "effects": [],
  "folder": null,
  "sort": 0,
  "permission": {
    "default": 0
  },
  "flags": {}
}