{
  "_id": "gf9fj6c1wwmqiksv",
  "name": "Obscure Poison",
  "type": "spell",
  "img": "systems/pf1/icons/misc/magic-swirl.png",
  "data": {
    "description": {
      "value": "<div class=\"spell-description\">\n  <p>\n    <strong>School</strong>&nbsp;abjuration;\n    <strong>Level</strong>&nbsp;alchemist 1, antipaladin 1, bard 1, cleric/oracle 1, druid 1, hunter 1, mesmerist 1, shaman 1, sorcerer/wizard 1, witch 1;\n    \n    \n    \n    \n  </p>\n  <p>\n    <strong>Casting Time</strong>&nbsp;1 standard<br>\n    <strong>Components</strong>&nbsp;S, M (herbs used in antitoxins worth 10 gp)<br>\n  </p>\n  <p>\n    <strong>Range</strong>&nbsp;touch<br>\n    \n    <strong>Targets</strong>&nbsp;one dose of poison or one venomous creature touched<br>\n    \n    <strong>Duration</strong>&nbsp;1 hour/level<br>\n      <strong>Saving Throw</strong>&nbsp;none;&nbsp;\n      <strong>Spell Resistance</strong>&nbsp;no<br>\n  </p>\n  <h2>Description</h2>\n  <p>You make the touched poison difficult to detect or identify. <i>Detect poison</i> and similar effects detect an obscured poison only with a successful caster level check against a DC equal to 15 + your caster level (rolled secretly by the GM). Even if the poison is detected, the DC of Craft (alchemy) or Wisdom checks to identify the poison is increased by 10.  If cast upon a venomous creature, <i>obscure poison</i> disguises all of the creature's natural poisons in the same way.</p>\n</div>\n"
    },
    "tags": [],
    "activation": {
      "type": "standard"
    },
    "unchainedAction": {
      "activation": {
        "cost": 2,
        "type": "action"
      }
    },
    "target": {
      "value": "one dose of poison or one venomous creature touched"
    },
    "range": {
      "units": "touch"
    },
    "uses": {
      "per": ""
    },
    "measureTemplate": {
      "size": "0"
    },
    "actionType": "",
    "damage": {
      "parts": [],
      "critParts": [],
      "nonCritParts": []
    },
    "attackParts": [],
    "ability": {
      "attack": "",
      "damage": ""
    },
    "save": {
      "dc": "0"
    },
    "effectNotes": [],
    "attackNotes": [],
    "links": {
      "children": []
    },
    "flags": {
      "boolean": [],
      "dictionary": []
    },
    "scriptCalls": [],
    "learnedAt": {
      "class": [
        [
          "sorcerer/wizard",
          1
        ],
        [
          "cleric/oracle",
          1
        ],
        [
          "druid",
          1
        ],
        [
          "bard",
          1
        ],
        [
          "alchemist",
          1
        ],
        [
          "witch",
          1
        ],
        [
          "antipaladin",
          1
        ],
        [
          "shaman",
          1
        ],
        [
          "mesmerist",
          1
        ],
        [
          "hunter",
          1
        ]
      ],
      "domain": [],
      "subDomain": [],
      "elementalSchool": [],
      "bloodline": []
    },
    "school": "abj",
    "conditionals": [],
    "components": {
      "somatic": true,
      "material": true
    },
    "materials": {
      "value": "herbs used in antitoxins worth 10 gp",
      "gpValue": 10
    },
    "spellbook": "",
    "preparation": {
      "autoDeductCharges": false,
      "spontaneousPrepared": false
    },
    "sr": false,
    "shortDescription": "<p>You make the touched poison difficult to detect or identify. <i>Detect poison</i> and similar effects detect an obscured poison only with a successful caster level check against a DC equal to 15 + your caster level (rolled secretly by the GM). Even if the poison is detected, the DC of Craft (alchemy) or Wisdom checks to identify the poison is increased by 10.  If cast upon a venomous creature, <i>obscure poison</i> disguises all of the creature's natural poisons in the same way.</p>",
    "spellDuration": "1 hour/level",
    "spellPoints": {
      "cost": ""
    }
  },
  "effects": [],
  "folder": null,
  "sort": 0,
  "permission": {
    "default": 0
  },
  "flags": {}
}