{
  "_id": "8zeulunjetwrdgwj",
  "name": "Order's Wrath",
  "type": "spell",
  "img": "systems/pf1/icons/misc/magic-swirl.png",
  "data": {
    "description": {
      "value": "<div class=\"spell-description\">\n  <p>\n    <strong>School</strong>&nbsp;evocation&nbsp;[lawful];\n    <strong>Level</strong>&nbsp;cleric/oracle 4, inquisitor 4;\n    <strong>Domain</strong>&nbsp;Law 4;\n    \n    \n    \n  </p>\n  <p>\n    <strong>Casting Time</strong>&nbsp;1 standard<br>\n    <strong>Components</strong>&nbsp;V, S<br>\n  </p>\n  <p>\n    <strong>Range</strong>&nbsp;medium (100 ft. + 10 ft./level)<br>\n    <strong>Area</strong>&nbsp;nonlawful creatures within a burst that fills a 30-ft. cube<br>\n    \n    \n    <strong>Duration</strong>&nbsp;instantaneous (1 round); see text<br>\n      <strong>Saving Throw</strong>&nbsp;Will partial; see text;&nbsp;\n      <strong>Spell Resistance</strong>&nbsp;yes<br>\n  </p>\n  <h2>Description</h2>\n  <p>You channel lawful power to smite enemies. The power takes the form of a three-dimensional grid of energy. Only chaotic and neutral (not lawful) creatures are harmed by the spell.</p><p>The spell deals 1d8 points of damage per two caster levels (maximum 5d8) to chaotic creatures (or 1d6 points of damage per caster level, maximum 10d6, to chaotic outsiders) and causes them to be dazed for 1 round. A successful Will save reduces the damage to half and negates the daze effect.</p><p>The spell deals only half damage to creatures who are neither chaotic nor lawful, and they are not dazed. They can reduce the damage in half again (down to one-quarter of the roll) with a successful Will save.</p>\n</div>\n"
    },
    "tags": [],
    "activation": {
      "type": "standard"
    },
    "unchainedAction": {
      "activation": {
        "cost": 2,
        "type": "action"
      }
    },
    "range": {
      "units": "medium"
    },
    "uses": {
      "per": ""
    },
    "measureTemplate": {
      "size": "0"
    },
    "actionType": "spellsave",
    "damage": {
      "parts": [],
      "critParts": [],
      "nonCritParts": []
    },
    "attackParts": [],
    "ability": {
      "attack": "",
      "damage": ""
    },
    "save": {
      "dc": "0",
      "type": "will",
      "description": "Will partial; see text"
    },
    "effectNotes": [],
    "attackNotes": [],
    "links": {
      "children": []
    },
    "flags": {
      "boolean": [],
      "dictionary": []
    },
    "scriptCalls": [],
    "learnedAt": {
      "class": [
        [
          "cleric/oracle",
          4
        ],
        [
          "inquisitor",
          4
        ]
      ],
      "domain": [
        [
          "Law",
          4
        ]
      ],
      "subDomain": [],
      "elementalSchool": [],
      "bloodline": []
    },
    "level": 4,
    "school": "evo",
    "types": "lawful",
    "conditionals": [],
    "components": {
      "verbal": true,
      "somatic": true
    },
    "shortDescription": "<p>You channel lawful power to smite enemies. The power takes the form of a three-dimensional grid of energy. Only chaotic and neutral (not lawful) creatures are harmed by the spell.</p><p>The spell deals 1d8 points of damage per two caster levels (maximum 5d8) to chaotic creatures (or 1d6 points of damage per caster level, maximum 10d6, to chaotic outsiders) and causes them to be dazed for 1 round. A successful Will save reduces the damage to half and negates the daze effect.</p><p>The spell deals only half damage to creatures who are neither chaotic nor lawful, and they are not dazed. They can reduce the damage in half again (down to one-quarter of the roll) with a successful Will save.</p>",
    "spellDuration": "instantaneous (1 round); see text",
    "spellArea": "nonlawful creatures within a burst that fills a 30-ft. cube"
  },
  "effects": [],
  "folder": null,
  "sort": 0,
  "permission": {
    "default": 0
  },
  "flags": {}
}