{
  "_id": "7oelmxa5kdo63erj",
  "name": "Painful Revelation",
  "type": "spell",
  "img": "systems/pf1/icons/misc/magic-swirl.png",
  "data": {
    "description": {
      "value": "<div class=\"spell-description\">\n  <p>\n    <strong>School</strong>&nbsp;abjuration&nbsp;[mind-affecting, pain];\n    <strong>Level</strong>&nbsp;antipaladin 2, bard 2, mesmerist 2, psychic 2, sorcerer/wizard 2;\n    \n    \n    \n    \n  </p>\n  <p>\n    <strong>Casting Time</strong>&nbsp;1 standard<br>\n    <strong>Components</strong>&nbsp;V, S<br>\n  </p>\n  <p>\n    <strong>Range</strong>&nbsp;close (25 ft. + 5 ft./2 levels)<br>\n    \n    <strong>Targets</strong>&nbsp;one ongoing illusion effect<br>\n    \n    <strong>Duration</strong>&nbsp;1 hour/level or until discharged<br>\n      <strong>Saving Throw</strong>&nbsp;Will partial;&nbsp;\n      <strong>Spell Resistance</strong>&nbsp;no<br>\n  </p>\n  <h2>Description</h2>\n  <p>You augment an ongoing illusion effect to strike out painfully at creatures that see through it. When a creature successfully disbelieves an illusion that is the target of <i>painful revelation</i>, it takes 1d6 points of nonlethal damage for every 2 caster levels you have (maximum 10d6) and is staggered for 1d4 rounds. A successful Will save reduces the nonlethal damage by half and negates the staggered effect. Once <i>painful revelation</i> has been triggered, the spell ends.  However, creatures under the effect of spells such as <i>true seeing</i> that automatically pierce illusions are not subject to this effect.</p>\n</div>\n"
    },
    "tags": [],
    "activation": {
      "type": "standard"
    },
    "unchainedAction": {
      "activation": {
        "cost": 2,
        "type": "action"
      }
    },
    "target": {
      "value": "one ongoing illusion effect"
    },
    "range": {
      "units": "close"
    },
    "uses": {
      "per": ""
    },
    "measureTemplate": {
      "size": "0"
    },
    "actionType": "spellsave",
    "damage": {
      "parts": [],
      "critParts": [],
      "nonCritParts": []
    },
    "attackParts": [],
    "ability": {
      "attack": "",
      "damage": ""
    },
    "save": {
      "dc": "0",
      "type": "will",
      "description": "Will partial"
    },
    "effectNotes": [],
    "attackNotes": [],
    "links": {
      "children": []
    },
    "flags": {
      "boolean": [],
      "dictionary": []
    },
    "scriptCalls": [],
    "learnedAt": {
      "class": [
        [
          "sorcerer/wizard",
          2
        ],
        [
          "bard",
          2
        ],
        [
          "antipaladin",
          2
        ],
        [
          "psychic",
          2
        ],
        [
          "mesmerist",
          2
        ]
      ],
      "domain": [],
      "subDomain": [],
      "elementalSchool": [],
      "bloodline": []
    },
    "level": 2,
    "school": "abj",
    "types": "mind-affecting, pain",
    "conditionals": [],
    "components": {
      "verbal": true,
      "somatic": true
    },
    "sr": false,
    "shortDescription": "<p>You augment an ongoing illusion effect to strike out painfully at creatures that see through it. When a creature successfully disbelieves an illusion that is the target of <i>painful revelation</i>, it takes 1d6 points of nonlethal damage for every 2 caster levels you have (maximum 10d6) and is staggered for 1d4 rounds. A successful Will save reduces the nonlethal damage by half and negates the staggered effect. Once <i>painful revelation</i> has been triggered, the spell ends.  However, creatures under the effect of spells such as <i>true seeing</i> that automatically pierce illusions are not subject to this effect.</p>",
    "spellDuration": "1 hour/level or until discharged"
  },
  "effects": [],
  "folder": null,
  "sort": 0,
  "permission": {
    "default": 0
  },
  "flags": {}
}