{
  "_id": "48qaybvgr2faagte",
  "name": "Phantom Limb",
  "type": "spell",
  "img": "systems/pf1/icons/misc/magic-swirl.png",
  "data": {
    "description": {
      "value": "<div class=\"spell-description\">\n  <p>\n    <strong>School</strong>&nbsp;necromancy;\n    <strong>Level</strong>&nbsp;psychic 6, spiritualist 5;\n    \n    \n    \n    \n  </p>\n  <p>\n    <strong>Casting Time</strong>&nbsp;1 standard<br>\n    <strong>Components</strong>&nbsp;V, S<br>\n  </p>\n  <p>\n    <strong>Range</strong>&nbsp;touch<br>\n    \n    <strong>Targets</strong>&nbsp;one creature<br>\n    \n    <strong>Duration</strong>&nbsp;24 hours; see text<br>\n      <strong>Saving Throw</strong>&nbsp;none;&nbsp;\n      <strong>Spell Resistance</strong>&nbsp;yes<br>\n  </p>\n  <h2>Description</h2>\n  <p>This spell creates a semi-visible psychic manifestation that allows a creature to replace a missing body part or parts. This could be as simple as a missing finger or toe or as complex as one or more limbs or even a set of wings. The creature can use these ghostly appendages exactly as if they were the creature's own limbs, including any natural attacks or other special abilities. This includes any extraordinary abilities granted by the appendages, but not supernatural ones.  If the target does not need a replacement limb (or chooses not to use the spell in this way), it can instead select one of the following options. In this case, the spell lasts only for 10 minutes per level.  <b>Extra Arms</b>: The target grows two phantom arms, granting it two extra natural claw attacks; the target cannot use the phantom arms for any other purpose.  <b>Extra Legs</b>: The target grows two phantom legs and strong hindquarters like those of a horse, granting it a +30-foot enhancement bonus to speed and a +4 bonus to its CMD against overrun and trip combat maneuvers.  Mermaid's Tail: The target grows a phantom tail, granting it a swim speed of 60 feet.  <b>Phantom Wings</b>: The target grows phantom wings, granting it a fly speed of 60 feet (good maneuverability).</p>\n</div>\n"
    },
    "tags": [],
    "activation": {
      "type": "standard"
    },
    "unchainedAction": {
      "activation": {
        "cost": 2,
        "type": "action"
      }
    },
    "target": {
      "value": "one creature"
    },
    "range": {
      "units": "touch"
    },
    "uses": {
      "per": ""
    },
    "measureTemplate": {
      "size": "0"
    },
    "actionType": "",
    "damage": {
      "parts": [],
      "critParts": [],
      "nonCritParts": []
    },
    "attackParts": [],
    "ability": {
      "attack": "",
      "damage": ""
    },
    "save": {
      "dc": "0"
    },
    "effectNotes": [],
    "attackNotes": [],
    "links": {
      "children": []
    },
    "flags": {
      "boolean": [],
      "dictionary": []
    },
    "scriptCalls": [],
    "learnedAt": {
      "class": [
        [
          "psychic",
          6
        ],
        [
          "spiritualist",
          5
        ]
      ],
      "domain": [],
      "subDomain": [],
      "elementalSchool": [],
      "bloodline": []
    },
    "level": 6,
    "school": "nec",
    "conditionals": [],
    "components": {
      "verbal": true,
      "somatic": true
    },
    "shortDescription": "<p>This spell creates a semi-visible psychic manifestation that allows a creature to replace a missing body part or parts. This could be as simple as a missing finger or toe or as complex as one or more limbs or even a set of wings. The creature can use these ghostly appendages exactly as if they were the creature's own limbs, including any natural attacks or other special abilities. This includes any extraordinary abilities granted by the appendages, but not supernatural ones.  If the target does not need a replacement limb (or chooses not to use the spell in this way), it can instead select one of the following options. In this case, the spell lasts only for 10 minutes per level.  <b>Extra Arms</b>: The target grows two phantom arms, granting it two extra natural claw attacks; the target cannot use the phantom arms for any other purpose.  <b>Extra Legs</b>: The target grows two phantom legs and strong hindquarters like those of a horse, granting it a +30-foot enhancement bonus to speed and a +4 bonus to its CMD against overrun and trip combat maneuvers.  Mermaid's Tail: The target grows a phantom tail, granting it a swim speed of 60 feet.  <b>Phantom Wings</b>: The target grows phantom wings, granting it a fly speed of 60 feet (good maneuverability).</p>",
    "spellDuration": "24 hours; see text"
  },
  "effects": [],
  "folder": null,
  "sort": 0,
  "permission": {
    "default": 0
  },
  "flags": {}
}