{
  "_id": "evoz9r9n186nsjf0",
  "name": "Planar Adaptation",
  "type": "spell",
  "img": "systems/pf1/icons/misc/magic-swirl.png",
  "data": {
    "description": {
      "value": "<div class=\"spell-description\">\n  <p>\n    <strong>School</strong>&nbsp;transmutation;\n    <strong>Level</strong>&nbsp;alchemist 5, cleric/oracle 4, medium 4, occultist 4, psychic 4, sorcerer/wizard 5, spiritualist 5, summoner 5, unchained Summoner 5;\n    \n    \n    \n    \n  </p>\n  <p>\n    <strong>Casting Time</strong>&nbsp;1 standard<br>\n    <strong>Components</strong>&nbsp;V<br>\n  </p>\n  <p>\n    <strong>Range</strong>&nbsp;personal<br>\n    \n    <strong>Targets</strong>&nbsp;you<br>\n    \n    <strong>Duration</strong>&nbsp;1 hour/level (D)<br>\n  </p>\n  <h2>Description</h2>\n  <p><i>Planar adaptation</i> grants you immunity to the harmful environmental effects of a particular plane of existence, including such hazards as toxicity, extreme temperatures, and lack of air. Additionally, you gain energy resistance 20 to a single energy type prevalent on that plane (choose one if more than one type is equally prevalent). <i>Planar adaptation</i> has no when cast upon your native plane.</p>\n</div>\n"
    },
    "tags": [],
    "activation": {
      "type": "standard"
    },
    "unchainedAction": {
      "activation": {
        "cost": 2,
        "type": "action"
      }
    },
    "target": {
      "value": "you"
    },
    "range": {
      "units": "personal"
    },
    "uses": {
      "per": ""
    },
    "measureTemplate": {
      "size": "0"
    },
    "actionType": "",
    "damage": {
      "parts": [],
      "critParts": [],
      "nonCritParts": []
    },
    "attackParts": [],
    "ability": {
      "attack": "",
      "damage": ""
    },
    "save": {
      "dc": "0"
    },
    "effectNotes": [],
    "attackNotes": [],
    "links": {
      "children": []
    },
    "flags": {
      "boolean": [],
      "dictionary": []
    },
    "scriptCalls": [],
    "learnedAt": {
      "class": [
        [
          "sorcerer/wizard",
          5
        ],
        [
          "cleric/oracle",
          4
        ],
        [
          "alchemist",
          5
        ],
        [
          "summoner",
          5
        ],
        [
          "psychic",
          4
        ],
        [
          "medium",
          4
        ],
        [
          "occultist",
          4
        ],
        [
          "spiritualist",
          5
        ],
        [
          "unchained Summoner",
          5
        ]
      ],
      "domain": [],
      "subDomain": [],
      "elementalSchool": [],
      "bloodline": []
    },
    "level": 5,
    "school": "trs",
    "conditionals": [],
    "components": {
      "verbal": true
    },
    "sr": false,
    "shortDescription": "<p><i>Planar adaptation</i> grants you immunity to the harmful environmental effects of a particular plane of existence, including such hazards as toxicity, extreme temperatures, and lack of air. Additionally, you gain energy resistance 20 to a single energy type prevalent on that plane (choose one if more than one type is equally prevalent). <i>Planar adaptation</i> has no when cast upon your native plane.</p>",
    "spellDuration": "1 hour/level (D)"
  },
  "effects": [],
  "folder": null,
  "sort": 0,
  "permission": {
    "default": 0
  },
  "flags": {}
}