{
  "_id": "y653mq8kmma3kg3w",
  "name": "Plant Shape I",
  "type": "spell",
  "img": "systems/pf1/icons/misc/magic-swirl.png",
  "data": {
    "description": {
      "value": "<div class=\"spell-description\">\n  <p>\n    <strong>School</strong>&nbsp;transmutation&nbsp;(polymorph);\n    <strong>Level</strong>&nbsp;alchemist 5, sorcerer/wizard 5;\n    \n    \n    \n    \n  </p>\n  <p>\n    <strong>Casting Time</strong>&nbsp;1 standard<br>\n    <strong>Components</strong>&nbsp;V, S, M (a piece of the creature whose form you plan to assume)<br>\n  </p>\n  <p>\n    <strong>Range</strong>&nbsp;personal<br>\n    \n    <strong>Targets</strong>&nbsp;you<br>\n    \n    <strong>Duration</strong>&nbsp;1 min./level<br>\n  </p>\n  <h2>Description</h2>\n  <p>When you cast this spell you can assume the form of any Small or Medium creature of the plant type (see the <i>Pathfinder RPG Bestiary</i>).</p><p>If the form you assume has any of the following abilities, you gain the listed ability: darkvision 60 feet, low-light vision, constrict, grab, and poison. If the form you assume does not possess the ability to move, your speed is reduced to 5 feet and you lose all other forms of movement. If the creature has vulnerability to an element, you gain that vulnerability.</p><p><i>Small plant</i>: If the form you take is that of a <i>Small plant</i>, you gain a +2 size bonus to your Constitution and a +2 natural armor bonus.</p><p><i>Medium plant</i>: If the form you take is that of a <i>Medium plant</i>, you gain a +2 size bonus to your Strength, a +2 enhancement bonus to your Constitution, and a +2 natural armor bonus.</p>\n</div>\n"
    },
    "tags": [],
    "activation": {
      "type": "standard"
    },
    "unchainedAction": {
      "activation": {
        "cost": 2,
        "type": "action"
      }
    },
    "target": {
      "value": "you"
    },
    "range": {
      "units": "personal"
    },
    "uses": {
      "per": ""
    },
    "measureTemplate": {
      "size": "0"
    },
    "actionType": "",
    "damage": {
      "parts": [],
      "critParts": [],
      "nonCritParts": []
    },
    "attackParts": [],
    "ability": {
      "attack": "",
      "damage": ""
    },
    "save": {
      "dc": "0"
    },
    "effectNotes": [],
    "attackNotes": [],
    "links": {
      "children": []
    },
    "flags": {
      "boolean": [],
      "dictionary": []
    },
    "scriptCalls": [],
    "learnedAt": {
      "class": [
        [
          "sorcerer/wizard",
          5
        ],
        [
          "alchemist",
          5
        ]
      ],
      "domain": [],
      "subDomain": [],
      "elementalSchool": [],
      "bloodline": []
    },
    "level": 5,
    "school": "trs",
    "subschool": "polymorph",
    "conditionals": [],
    "components": {
      "verbal": true,
      "somatic": true,
      "material": true
    },
    "materials": {
      "value": "a piece of the creature whose form you plan to assume"
    },
    "sr": false,
    "shortDescription": "<p>When you cast this spell you can assume the form of any Small or Medium creature of the plant type (see the <i>Pathfinder RPG Bestiary</i>).</p><p>If the form you assume has any of the following abilities, you gain the listed ability: darkvision 60 feet, low-light vision, constrict, grab, and poison. If the form you assume does not possess the ability to move, your speed is reduced to 5 feet and you lose all other forms of movement. If the creature has vulnerability to an element, you gain that vulnerability.</p><p><i>Small plant</i>: If the form you take is that of a <i>Small plant</i>, you gain a +2 size bonus to your Constitution and a +2 natural armor bonus.</p><p><i>Medium plant</i>: If the form you take is that of a <i>Medium plant</i>, you gain a +2 size bonus to your Strength, a +2 enhancement bonus to your Constitution, and a +2 natural armor bonus.</p>",
    "spellDuration": "1 min./level"
  },
  "effects": [],
  "folder": null,
  "sort": 0,
  "permission": {
    "default": 0
  },
  "flags": {}
}