{
  "_id": "d40ia71c2eljm91k",
  "name": "Polymorph",
  "type": "spell",
  "img": "systems/pf1/icons/misc/magic-swirl.png",
  "data": {
    "description": {
      "value": "<div class=\"spell-description\">\n  <p>\n    <strong>School</strong>&nbsp;transmutation&nbsp;(polymorph);\n    <strong>Level</strong>&nbsp;adept 4, alchemist 5, sorcerer/wizard 5;\n    \n    \n    \n    \n  </p>\n  <p>\n    <strong>Casting Time</strong>&nbsp;1 standard<br>\n    <strong>Components</strong>&nbsp;V, S, M (a piece of the creature whose form you choose)<br>\n  </p>\n  <p>\n    <strong>Range</strong>&nbsp;touch<br>\n    \n    <strong>Targets</strong>&nbsp;living creature touched<br>\n    \n    <strong>Duration</strong>&nbsp;1 min./level<br>\n      <strong>Saving Throw</strong>&nbsp;Will negates (harmless);&nbsp;\n      <strong>Spell Resistance</strong>&nbsp;yes<br>\n  </p>\n  <h2>Description</h2>\n  <p>This spell transforms a willing creature into an animal, humanoid or elemental of your choosing; the spell has no effect on unwilling creatures, nor can the creature being targeted by this spell influence the new form assumed (apart from conveying its wishes, if any, to you verbally).</p>\n<p>If you use this spell to cause the target to take on the form of an animal or magical beast, the spell functions as @Compendium[pf1.spells.774kmgcb7ygviht0]{Beast Shape II}. If the form is that of an elemental, the spell functions as @Compendium[pf1.spells.pawbnw1nm4f0b98e]{Elemental Body I}<em>.</em> If the form is that of a humanoid, the spell functions as @Compendium[pf1.spells.kouqz0pm1xl8xilm]{Alter Self}.</p>\n<p>The subject may choose to resume its normal form as a full-round action; doing so ends the spell for that subject.</p>\n</div>\n"
    },
    "tags": [],
    "activation": {
      "type": "standard"
    },
    "unchainedAction": {
      "activation": {
        "cost": 2,
        "type": "action"
      }
    },
    "target": {
      "value": "living creature touched"
    },
    "range": {
      "units": "touch"
    },
    "uses": {
      "per": ""
    },
    "measureTemplate": {
      "size": "0"
    },
    "actionType": "spellsave",
    "damage": {
      "parts": [],
      "critParts": [],
      "nonCritParts": []
    },
    "attackParts": [],
    "ability": {
      "attack": "",
      "damage": ""
    },
    "save": {
      "dc": "0",
      "type": "will",
      "description": "Will negates (harmless)"
    },
    "effectNotes": [],
    "attackNotes": [],
    "links": {
      "children": []
    },
    "flags": {
      "boolean": [],
      "dictionary": []
    },
    "scriptCalls": [],
    "learnedAt": {
      "class": [
        [
          "sorcerer/wizard",
          5
        ],
        [
          "alchemist",
          5
        ],
        [
          "adept",
          4
        ]
      ],
      "domain": [],
      "subDomain": [],
      "elementalSchool": [],
      "bloodline": []
    },
    "level": 5,
    "school": "trs",
    "subschool": "polymorph",
    "conditionals": [],
    "components": {
      "verbal": true,
      "somatic": true,
      "material": true
    },
    "materials": {
      "value": "a piece of the creature whose form you choose"
    },
    "spellbook": "",
    "shortDescription": "<p>This spell transforms a willing creature into an animal, humanoid or elemental of your choosing; the spell has no effect on unwilling creatures, nor can the creature being targeted by this spell influence the new form assumed (apart from conveying its wishes, if any, to you verbally).</p>\n<p>If you use this spell to cause the target to take on the form of an animal or magical beast, the spell functions as @Compendium[pf1.spells.774kmgcb7ygviht0]{Beast Shape II}. If the form is that of an elemental, the spell functions as @Compendium[pf1.spells.pawbnw1nm4f0b98e]{Elemental Body I}<em>.</em> If the form is that of a humanoid, the spell functions as @Compendium[pf1.spells.kouqz0pm1xl8xilm]{Alter Self}.</p>\n<p>The subject may choose to resume its normal form as a full-round action; doing so ends the spell for that subject.</p>",
    "spellDuration": "1 min./level"
  },
  "effects": [],
  "folder": null,
  "sort": 0,
  "permission": {
    "default": 0
  },
  "flags": {}
}