{
  "_id": "fhary5oz1t4uhc2l",
  "name": "Rusting Grasp",
  "type": "spell",
  "img": "systems/pf1/icons/misc/magic-swirl.png",
  "data": {
    "description": {
      "value": "<div class=\"spell-description\">\n  <p>\n    <strong>School</strong>&nbsp;transmutation;\n    <strong>Level</strong>&nbsp;druid 4, hunter 4, occultist 4;\n    <strong>Domain</strong>&nbsp;Ruins 4;\n    \n    \n    \n  </p>\n  <p>\n    <strong>Casting Time</strong>&nbsp;1 standard<br>\n    <strong>Components</strong>&nbsp;V, S, DF<br>\n  </p>\n  <p>\n    <strong>Range</strong>&nbsp;touch<br>\n    \n    <strong>Targets</strong>&nbsp;one nonmagical ferrous object (or the volume of the object within 3 ft. of the touched point) or one ferrous creature<br>\n    \n    <strong>Duration</strong>&nbsp;see text<br>\n      <strong>Saving Throw</strong>&nbsp;none;&nbsp;\n      <strong>Spell Resistance</strong>&nbsp;no<br>\n  </p>\n  <h2>Description</h2>\n  <p>Any iron or iron alloy item you touch crumbles into rust. If the item is so large that it cannot fit within a 3-foot radius, a 3-footradius volume of the metal is rusted and destroyed. Magic items made of metal are immune to this spell.</p><p>You may employ <i>rusting grasp</i> in combat with a successful melee touch attack. <i>Rusting grasp</i> used in this way instantaneously destroys 1d6 points of AC gained from metal armor (to the maximum amount of protection the armor offers) through corrosion.</p><p>Weapons in use by an opponent targeted by the spell are more difficult to grasp. You must succeed on a melee touch attack against the weapon. A metal weapon that is hit is destroyed. Striking at an opponent's weapon provokes an attack of opportunity. Also, you must touch the weapon and not the other way around.</p><p>Against a ferrous creature, <i>rusting grasp</i> instantaneously deals 3d6 points of damage + 1 per caster level (maximum +15) per successful attack. The spell lasts for 1 round per level, and you can make one melee touch attack per round.</p>\n</div>\n"
    },
    "tags": [],
    "activation": {
      "type": "standard"
    },
    "unchainedAction": {
      "activation": {
        "cost": 2,
        "type": "action"
      }
    },
    "target": {
      "value": "one nonmagical ferrous object (or the volume of the object within 3 ft. of the touched point) or one ferrous creature"
    },
    "range": {
      "units": "touch"
    },
    "uses": {
      "per": ""
    },
    "measureTemplate": {
      "size": "0"
    },
    "actionType": "",
    "damage": {
      "parts": [],
      "critParts": [],
      "nonCritParts": []
    },
    "attackParts": [],
    "ability": {
      "attack": "",
      "damage": ""
    },
    "save": {
      "dc": "0"
    },
    "effectNotes": [],
    "attackNotes": [],
    "links": {
      "children": []
    },
    "flags": {
      "boolean": [],
      "dictionary": []
    },
    "scriptCalls": [],
    "learnedAt": {
      "class": [
        [
          "druid",
          4
        ],
        [
          "occultist",
          4
        ],
        [
          "hunter",
          4
        ]
      ],
      "domain": [
        [
          "Ruins",
          4
        ]
      ],
      "subDomain": [],
      "elementalSchool": [],
      "bloodline": []
    },
    "level": 4,
    "school": "trs",
    "conditionals": [],
    "components": {
      "verbal": true,
      "somatic": true,
      "divineFocus": 1
    },
    "sr": false,
    "shortDescription": "<p>Any iron or iron alloy item you touch crumbles into rust. If the item is so large that it cannot fit within a 3-foot radius, a 3-footradius volume of the metal is rusted and destroyed. Magic items made of metal are immune to this spell.</p><p>You may employ <i>rusting grasp</i> in combat with a successful melee touch attack. <i>Rusting grasp</i> used in this way instantaneously destroys 1d6 points of AC gained from metal armor (to the maximum amount of protection the armor offers) through corrosion.</p><p>Weapons in use by an opponent targeted by the spell are more difficult to grasp. You must succeed on a melee touch attack against the weapon. A metal weapon that is hit is destroyed. Striking at an opponent's weapon provokes an attack of opportunity. Also, you must touch the weapon and not the other way around.</p><p>Against a ferrous creature, <i>rusting grasp</i> instantaneously deals 3d6 points of damage + 1 per caster level (maximum +15) per successful attack. The spell lasts for 1 round per level, and you can make one melee touch attack per round.</p>",
    "spellDuration": "see text"
  },
  "effects": [],
  "folder": null,
  "sort": 0,
  "permission": {
    "default": 0
  },
  "flags": {}
}