{
  "_id": "k8f0wbuejnhobphf",
  "name": "Sculpt Corpse",
  "type": "spell",
  "img": "systems/pf1/icons/misc/magic-swirl.png",
  "data": {
    "description": {
      "value": "<div class=\"spell-description\">\n  <p>\n    <strong>School</strong>&nbsp;necromancy;\n    <strong>Level</strong>&nbsp;occultist 1, sorcerer/wizard 1;\n    \n    \n    \n    \n  </p>\n  <p>\n    <strong>Casting Time</strong>&nbsp;1 standard<br>\n    <strong>Components</strong>&nbsp;V, S, M (lump of wax)<br>\n  </p>\n  <p>\n    <strong>Range</strong>&nbsp;touch<br>\n    \n    <strong>Targets</strong>&nbsp;one dead creature touched<br>\n    \n    <strong>Duration</strong>&nbsp;instantaneous<br>\n      <strong>Saving Throw</strong>&nbsp;Will partial; see text;&nbsp;\n      <strong>Spell Resistance</strong>&nbsp;no<br>\n  </p>\n  <h2>Description</h2>\n  <p>With a clammy caress and a word to the powers lurking beyond death, you can reshape a dead body look like another creature or even a specific person so long as you have firsthand knowledge of how that creature or person actually looks.</p><p>You can make the corpse one size larger or smaller and change anything else about it including its apparent type, gender, or age. Creatures with a reason to suspect deception may make a Will saving throw to realize that the corpse was altered. If you chose to make the corpse look like a specific individual anyone who knows that individual can make a Will save to realize that the corpse is not actually that person. However, if a creature fails its Will save by 5 or less they believe the corpse is that of someone who closely resembled the person they knew rather than a deliberate fake. This spell merely changes the appearance of the corpse. Any spell or effect that targets the corpse (such as <i>speak with dead</i> or <i>raise dead</i>) treats it as if it still had its original appearance.</p>\n</div>\n"
    },
    "tags": [],
    "activation": {
      "type": "standard"
    },
    "unchainedAction": {
      "activation": {
        "cost": 2,
        "type": "action"
      }
    },
    "target": {
      "value": "one dead creature touched"
    },
    "range": {
      "units": "touch"
    },
    "uses": {
      "per": ""
    },
    "measureTemplate": {
      "size": "0"
    },
    "actionType": "spellsave",
    "damage": {
      "parts": [],
      "critParts": [],
      "nonCritParts": []
    },
    "attackParts": [],
    "ability": {
      "attack": "",
      "damage": ""
    },
    "save": {
      "dc": "0",
      "type": "will",
      "description": "Will partial; see text"
    },
    "effectNotes": [],
    "attackNotes": [],
    "links": {
      "children": []
    },
    "flags": {
      "boolean": [],
      "dictionary": []
    },
    "scriptCalls": [],
    "learnedAt": {
      "class": [
        [
          "sorcerer/wizard",
          1
        ],
        [
          "occultist",
          1
        ]
      ],
      "domain": [],
      "subDomain": [],
      "elementalSchool": [],
      "bloodline": []
    },
    "school": "nec",
    "conditionals": [],
    "components": {
      "verbal": true,
      "somatic": true,
      "material": true
    },
    "materials": {
      "value": "lump of wax"
    },
    "sr": false,
    "shortDescription": "<p>With a clammy caress and a word to the powers lurking beyond death, you can reshape a dead body look like another creature or even a specific person so long as you have firsthand knowledge of how that creature or person actually looks.</p><p>You can make the corpse one size larger or smaller and change anything else about it including its apparent type, gender, or age. Creatures with a reason to suspect deception may make a Will saving throw to realize that the corpse was altered. If you chose to make the corpse look like a specific individual anyone who knows that individual can make a Will save to realize that the corpse is not actually that person. However, if a creature fails its Will save by 5 or less they believe the corpse is that of someone who closely resembled the person they knew rather than a deliberate fake. This spell merely changes the appearance of the corpse. Any spell or effect that targets the corpse (such as <i>speak with dead</i> or <i>raise dead</i>) treats it as if it still had its original appearance.</p>",
    "spellDuration": "instantaneous"
  },
  "effects": [],
  "folder": null,
  "sort": 0,
  "permission": {
    "default": 0
  },
  "flags": {}
}