{
  "_id": "4z7u1ne2q0gg4o1d",
  "name": "Shadowform",
  "type": "spell",
  "img": "systems/pf1/icons/misc/magic-swirl.png",
  "data": {
    "description": {
      "value": "<div class=\"spell-description\">\n  <p>\n    <strong>School</strong>&nbsp;illusion&nbsp;(shadow)&nbsp;[shadow];\n    <strong>Level</strong>&nbsp;antipaladin 4, bard 4, mesmerist 4, psychic 4, sorcerer/wizard 4, spiritualist 4, witch 4;\n    \n    \n    \n    \n  </p>\n  <p>\n    <strong>Casting Time</strong>&nbsp;1 standard<br>\n    <strong>Components</strong>&nbsp;V, S<br>\n  </p>\n  <p>\n    <strong>Range</strong>&nbsp;touch<br>\n    \n    <strong>Targets</strong>&nbsp;creature touched<br>\n    \n    <strong>Duration</strong>&nbsp;1 round/level (D)<br>\n      <strong>Saving Throw</strong>&nbsp;Will negates (see text);&nbsp;\n      <strong>Spell Resistance</strong>&nbsp;yes<br>\n  </p>\n  <h2>Description</h2>\n  <p>You replace the target's body with mystic shadow material drawn from the Shadow Plane, rendering the target's physical form only quasi-real. Whenever a foe tries to directly attack the target of the spell (for instance, with a weapon or a targeted spell), that foe must attempt a Will save to disbelieve. If successful, the opponent can attack the target normally and is unaffected by <i>shadowform</i> for 1 round. If the foe fails, the target takes only one-fifth the normal amount of damage from the foe's successful attack or effect, and if the attack has a special effect other than damage, that effect is one-fifth as strong as normal (if applicable) or only 20% as likely to occur. Objects automatically succeed at their Will saves against this spell.</p>\n</div>\n"
    },
    "tags": [],
    "activation": {
      "type": "standard"
    },
    "unchainedAction": {
      "activation": {
        "cost": 2,
        "type": "action"
      }
    },
    "target": {
      "value": "creature touched"
    },
    "range": {
      "units": "touch"
    },
    "uses": {
      "per": ""
    },
    "measureTemplate": {
      "size": "0"
    },
    "actionType": "spellsave",
    "damage": {
      "parts": [],
      "critParts": [],
      "nonCritParts": []
    },
    "attackParts": [],
    "ability": {
      "attack": "",
      "damage": ""
    },
    "save": {
      "dc": "0",
      "type": "will",
      "description": "Will negates (see text)"
    },
    "effectNotes": [],
    "attackNotes": [],
    "links": {
      "children": []
    },
    "flags": {
      "boolean": [],
      "dictionary": []
    },
    "scriptCalls": [],
    "learnedAt": {
      "class": [
        [
          "sorcerer/wizard",
          4
        ],
        [
          "bard",
          4
        ],
        [
          "witch",
          4
        ],
        [
          "antipaladin",
          4
        ],
        [
          "psychic",
          4
        ],
        [
          "mesmerist",
          4
        ],
        [
          "spiritualist",
          4
        ]
      ],
      "domain": [],
      "subDomain": [],
      "elementalSchool": [],
      "bloodline": []
    },
    "level": 4,
    "school": "ill",
    "subschool": "shadow",
    "types": "shadow",
    "conditionals": [],
    "components": {
      "verbal": true,
      "somatic": true
    },
    "shortDescription": "<p>You replace the target's body with mystic shadow material drawn from the Shadow Plane, rendering the target's physical form only quasi-real. Whenever a foe tries to directly attack the target of the spell (for instance, with a weapon or a targeted spell), that foe must attempt a Will save to disbelieve. If successful, the opponent can attack the target normally and is unaffected by <i>shadowform</i> for 1 round. If the foe fails, the target takes only one-fifth the normal amount of damage from the foe's successful attack or effect, and if the attack has a special effect other than damage, that effect is one-fifth as strong as normal (if applicable) or only 20% as likely to occur. Objects automatically succeed at their Will saves against this spell.</p>",
    "spellDuration": "1 round/level (D)"
  },
  "effects": [],
  "folder": null,
  "sort": 0,
  "permission": {
    "default": 0
  },
  "flags": {}
}