{
  "_id": "d7pa11ex8f58n8xb",
  "name": "Soulswitch",
  "type": "spell",
  "img": "systems/pf1/icons/misc/magic-swirl.png",
  "data": {
    "description": {
      "value": "<div class=\"spell-description\">\n  <p>\n    <strong>School</strong>&nbsp;necromancy;\n    <strong>Level</strong>&nbsp;bard 5, cleric/oracle 5, druid 5, hunter 5, inquisitor 5, magus 5, shaman 5, sorcerer/wizard 5, witch 5;\n    \n    \n    \n    \n  </p>\n  <p>\n    <strong>Casting Time</strong>&nbsp;1 standard<br>\n    <strong>Components</strong>&nbsp;V, S, F (two brass collars worth 50 gp each)<br>\n  </p>\n  <p>\n    <strong>Range</strong>&nbsp;touch<br>\n    \n    <strong>Targets</strong>&nbsp;you and your familiar<br>\n    \n    <strong>Duration</strong>&nbsp;10 minutes/level<br>\n      <strong>Saving Throw</strong>&nbsp;Will negates (harmless);&nbsp;\n      <strong>Spell Resistance</strong>&nbsp;yes<br>\n  </p>\n  <h2>Description</h2>\n  <p>You may only cast this spell if you currently have a familiar. You place your soul into the body of your familiar, and your familiar's soul is placed in your body. This functions as if you possessed your familiar using <i>magic jar</i>; your familiar simultaneously possesses your body in the same manner. You can't freely transfer your soul between your body and your familiar's-if you choose to return to your body as a standard action, the spell ends. If either body is killed, both spirits return to their original bodies, the spell ends, and the original owner of the slain body dies.</p>\n</div>\n"
    },
    "tags": [],
    "activation": {
      "type": "standard"
    },
    "unchainedAction": {
      "activation": {
        "cost": 2,
        "type": "action"
      }
    },
    "target": {
      "value": "you and your familiar"
    },
    "range": {
      "units": "touch"
    },
    "uses": {
      "per": ""
    },
    "measureTemplate": {
      "size": "0"
    },
    "actionType": "spellsave",
    "damage": {
      "parts": [],
      "critParts": [],
      "nonCritParts": []
    },
    "attackParts": [],
    "ability": {
      "attack": "",
      "damage": ""
    },
    "save": {
      "dc": "0",
      "type": "will",
      "description": "Will negates (harmless)"
    },
    "effectNotes": [],
    "attackNotes": [],
    "links": {
      "children": []
    },
    "flags": {
      "boolean": [],
      "dictionary": []
    },
    "scriptCalls": [],
    "learnedAt": {
      "class": [
        [
          "sorcerer/wizard",
          5
        ],
        [
          "cleric/oracle",
          5
        ],
        [
          "druid",
          5
        ],
        [
          "bard",
          5
        ],
        [
          "witch",
          5
        ],
        [
          "inquisitor",
          5
        ],
        [
          "magus",
          5
        ],
        [
          "shaman",
          5
        ],
        [
          "hunter",
          5
        ]
      ],
      "domain": [],
      "subDomain": [],
      "elementalSchool": [],
      "bloodline": []
    },
    "level": 5,
    "school": "nec",
    "conditionals": [],
    "components": {
      "verbal": true,
      "somatic": true,
      "focus": true
    },
    "materials": {
      "focus": "two brass collars worth 50 gp each"
    },
    "shortDescription": "<p>You may only cast this spell if you currently have a familiar. You place your soul into the body of your familiar, and your familiar's soul is placed in your body. This functions as if you possessed your familiar using <i>magic jar</i>; your familiar simultaneously possesses your body in the same manner. You can't freely transfer your soul between your body and your familiar's-if you choose to return to your body as a standard action, the spell ends. If either body is killed, both spirits return to their original bodies, the spell ends, and the original owner of the slain body dies.</p>",
    "spellDuration": "10 minutes/level"
  },
  "effects": [],
  "folder": null,
  "sort": 0,
  "permission": {
    "default": 0
  },
  "flags": {}
}