{
  "_id": "tbl88ce6qfvcemqz",
  "name": "Spell Absorption",
  "type": "spell",
  "img": "systems/pf1/icons/misc/magic-swirl.png",
  "data": {
    "description": {
      "value": "<div class=\"spell-description\">\n  <p>\n    <strong>School</strong>&nbsp;abjuration;\n    <strong>Level</strong>&nbsp;sorcerer/wizard 5;\n    \n    \n    \n    \n  </p>\n  <p>\n    <strong>Casting Time</strong>&nbsp;1 round<br>\n    <strong>Components</strong>&nbsp;V, S, M (a prism)<br>\n  </p>\n  <p>\n    <strong>Range</strong>&nbsp;personal<br>\n    \n    <strong>Targets</strong>&nbsp;you<br>\n    \n    <strong>Duration</strong>&nbsp;1 round/level<br>\n  </p>\n  <h2>Description</h2>\n  <p>If you successfully counterspell a 3rd-level or lower level spell (through either <i>dispel magic</i> or normal means) while <i>spell absorption</i> is in effect, you absorb the countered spell and use it to regain spells you have already cast. If you're a wizard, you regain the use of any single spell that you have cast since the last time you prepared spells. If you're a sorcerer, you regain a single spell slot. The spell recovered or spell slot regained must be of an equal level or lower than the spell you counterspelled.</p>\n</div>\n"
    },
    "tags": [],
    "activation": {
      "type": "round"
    },
    "unchainedAction": {
      "activation": {
        "cost": 3,
        "type": "action"
      }
    },
    "target": {
      "value": "you"
    },
    "range": {
      "units": "personal"
    },
    "uses": {
      "per": ""
    },
    "measureTemplate": {
      "size": "0"
    },
    "actionType": "",
    "damage": {
      "parts": [],
      "critParts": [],
      "nonCritParts": []
    },
    "attackParts": [],
    "ability": {
      "attack": "",
      "damage": ""
    },
    "save": {
      "dc": "0"
    },
    "effectNotes": [],
    "attackNotes": [],
    "links": {
      "children": []
    },
    "flags": {
      "boolean": [],
      "dictionary": []
    },
    "scriptCalls": [],
    "learnedAt": {
      "class": [
        [
          "sorcerer/wizard",
          5
        ]
      ],
      "domain": [],
      "subDomain": [],
      "elementalSchool": [],
      "bloodline": []
    },
    "level": 5,
    "school": "abj",
    "conditionals": [],
    "components": {
      "verbal": true,
      "somatic": true,
      "material": true
    },
    "materials": {
      "value": "a prism"
    },
    "sr": false,
    "shortDescription": "<p>If you successfully counterspell a 3rd-level or lower level spell (through either <i>dispel magic</i> or normal means) while <i>spell absorption</i> is in effect, you absorb the countered spell and use it to regain spells you have already cast. If you're a wizard, you regain the use of any single spell that you have cast since the last time you prepared spells. If you're a sorcerer, you regain a single spell slot. The spell recovered or spell slot regained must be of an equal level or lower than the spell you counterspelled.</p>",
    "spellDuration": "1 round/level"
  },
  "effects": [],
  "folder": null,
  "sort": 0,
  "permission": {
    "default": 0
  },
  "flags": {}
}