{
  "_id": "vurxdi6fkx3ll2gz",
  "name": "Steal Size",
  "type": "spell",
  "img": "systems/pf1/icons/misc/magic-swirl.png",
  "data": {
    "description": {
      "value": "<div class=\"spell-description\">\n  <p>\n    <strong>School</strong>&nbsp;transmutation;\n    <strong>Level</strong>&nbsp;bloodrager 2, druid 3, hunter 3, magus 3, sorcerer/wizard 2, witch 2;\n    \n    \n    \n    \n  </p>\n  <p>\n    <strong>Casting Time</strong>&nbsp;1 standard<br>\n    <strong>Components</strong>&nbsp;V, S, M (a piece of iron shaped like a scale tray)<br>\n  </p>\n  <p>\n    <strong>Range</strong>&nbsp;close (25 ft. + 5 ft./2 levels)<br>\n    \n    <strong>Targets</strong>&nbsp;one humanoid creature larger than you<br>\n    \n    <strong>Duration</strong>&nbsp;1 minute/level (D)<br>\n      <strong>Saving Throw</strong>&nbsp;Fortitude negates;&nbsp;\n      <strong>Spell Resistance</strong>&nbsp;yes<br>\n  </p>\n  <h2>Description</h2>\n  <p>This spell reduces the target's size by one size category, as if it were affected by <i>reduce person</i>. You grow in size by one category, as if affected by <i>enlarge person</i> ( if y ou c an b e targeted by that spell). If the spell is dispelled or otherwise ends for either you or the target, both you and the target return to your normal sizes.</p>\n</div>\n"
    },
    "tags": [],
    "activation": {
      "type": "standard"
    },
    "unchainedAction": {
      "activation": {
        "cost": 2,
        "type": "action"
      }
    },
    "target": {
      "value": "one humanoid creature larger than you"
    },
    "range": {
      "units": "close"
    },
    "uses": {
      "per": ""
    },
    "measureTemplate": {
      "size": "0"
    },
    "actionType": "spellsave",
    "damage": {
      "parts": [],
      "critParts": [],
      "nonCritParts": []
    },
    "attackParts": [],
    "ability": {
      "attack": "",
      "damage": ""
    },
    "save": {
      "dc": "0",
      "type": "fort",
      "description": "Fortitude negates"
    },
    "effectNotes": [],
    "attackNotes": [],
    "links": {
      "children": []
    },
    "flags": {
      "boolean": [],
      "dictionary": []
    },
    "scriptCalls": [],
    "learnedAt": {
      "class": [
        [
          "sorcerer/wizard",
          2
        ],
        [
          "druid",
          3
        ],
        [
          "witch",
          2
        ],
        [
          "magus",
          3
        ],
        [
          "bloodrager",
          2
        ],
        [
          "hunter",
          3
        ]
      ],
      "domain": [],
      "subDomain": [],
      "elementalSchool": [],
      "bloodline": []
    },
    "level": 2,
    "school": "trs",
    "conditionals": [],
    "components": {
      "verbal": true,
      "somatic": true,
      "material": true
    },
    "materials": {
      "value": "a piece of iron shaped like a scale tray"
    },
    "shortDescription": "<p>This spell reduces the target's size by one size category, as if it were affected by <i>reduce person</i>. You grow in size by one category, as if affected by <i>enlarge person</i> ( if y ou c an b e targeted by that spell). If the spell is dispelled or otherwise ends for either you or the target, both you and the target return to your normal sizes.</p>",
    "spellDuration": "1 minute/level (D)"
  },
  "effects": [],
  "folder": null,
  "sort": 0,
  "permission": {
    "default": 0
  },
  "flags": {}
}