{
  "_id": "l5eteinqwtfgipm2",
  "name": "Subjective Reality",
  "type": "spell",
  "img": "systems/pf1/icons/misc/magic-swirl.png",
  "data": {
    "description": {
      "value": "<div class=\"spell-description\">\n  <p>\n    <strong>School</strong>&nbsp;illusion&nbsp;(phantasm)&nbsp;[mind-affecting];\n    <strong>Level</strong>&nbsp;bard 6, medium 5, mesmerist 5, psychic 6, sorcerer/wizard 7;\n    \n    \n    \n    \n  </p>\n  <p>\n    <strong>Casting Time</strong>&nbsp;1 standard<br>\n    <strong>Components</strong>&nbsp;V<br>\n  </p>\n  <p>\n    <strong>Range</strong>&nbsp;personal<br>\n    \n    <strong>Targets</strong>&nbsp;you<br>\n    \n    <strong>Duration</strong>&nbsp;1 round/level (D)<br>\n  </p>\n  <h2>Description</h2>\n  <p>Choose one object, creature, or force you can see within long range (400 ft. + 40 ft./level). You alter your perceptions to become convinced the target is an illusion. For you, the target becomes transparent and does not create sound or smell. Until the spell ends, you can move through the target unimpeded and the target can move through you. The target's nonmagical attacks cannot harm you, and the target's magical attacks deal half damage to you. The target's non-damaging magical abilities have a 50% chance not to affect you, and you are immune to all its sonic, language-dependent, and scent-based attacks. However, your attacks deal no damage to the target, and your magical abilities do not affect the target at all. You or the target can affect each other normally through intermediaries. For instance, while the target would be immune to the direct effects of your <i>earthquake</i> spell, if the spell caused a room's ceiling to collapse, the target would not be immune to the effects of the collapse.</p>\n</div>\n"
    },
    "tags": [],
    "activation": {
      "type": "standard"
    },
    "unchainedAction": {
      "activation": {
        "cost": 2,
        "type": "action"
      }
    },
    "target": {
      "value": "you"
    },
    "range": {
      "units": "personal"
    },
    "uses": {
      "per": ""
    },
    "measureTemplate": {
      "size": "0"
    },
    "actionType": "",
    "damage": {
      "parts": [],
      "critParts": [],
      "nonCritParts": []
    },
    "attackParts": [],
    "ability": {
      "attack": "",
      "damage": ""
    },
    "save": {
      "dc": "0"
    },
    "effectNotes": [],
    "attackNotes": [],
    "links": {
      "children": []
    },
    "flags": {
      "boolean": [],
      "dictionary": []
    },
    "scriptCalls": [],
    "learnedAt": {
      "class": [
        [
          "sorcerer/wizard",
          7
        ],
        [
          "bard",
          6
        ],
        [
          "psychic",
          6
        ],
        [
          "medium",
          5
        ],
        [
          "mesmerist",
          5
        ]
      ],
      "domain": [],
      "subDomain": [],
      "elementalSchool": [],
      "bloodline": []
    },
    "level": 7,
    "school": "ill",
    "subschool": "phantasm",
    "types": "mind-affecting",
    "conditionals": [],
    "components": {
      "verbal": true
    },
    "sr": false,
    "shortDescription": "<p>Choose one object, creature, or force you can see within long range (400 ft. + 40 ft./level). You alter your perceptions to become convinced the target is an illusion. For you, the target becomes transparent and does not create sound or smell. Until the spell ends, you can move through the target unimpeded and the target can move through you. The target's nonmagical attacks cannot harm you, and the target's magical attacks deal half damage to you. The target's non-damaging magical abilities have a 50% chance not to affect you, and you are immune to all its sonic, language-dependent, and scent-based attacks. However, your attacks deal no damage to the target, and your magical abilities do not affect the target at all. You or the target can affect each other normally through intermediaries. For instance, while the target would be immune to the direct effects of your <i>earthquake</i> spell, if the spell caused a room's ceiling to collapse, the target would not be immune to the effects of the collapse.</p>",
    "spellDuration": "1 round/level (D)"
  },
  "effects": [],
  "folder": null,
  "sort": 0,
  "permission": {
    "default": 0
  },
  "flags": {}
}