{
  "_id": "3fc6csip6z4xw0am",
  "name": "Substitute Trail",
  "type": "spell",
  "img": "systems/pf1/icons/misc/magic-swirl.png",
  "data": {
    "description": {
      "value": "<div class=\"spell-description\">\n  <p>\n    <strong>School</strong>&nbsp;transmutation;\n    <strong>Level</strong>&nbsp;druid 4, hunter 4, ranger 4;\n    \n    \n    \n    \n  </p>\n  <p>\n    <strong>Casting Time</strong>&nbsp;1 standard<br>\n    <strong>Components</strong>&nbsp;V, S<br>\n  </p>\n  <p>\n    \n    \n    <strong>Targets</strong>&nbsp;1 creature/level; see text<br>\n    \n    <strong>Duration</strong>&nbsp;1 day/level (D)<br>\n      <strong>Saving Throw</strong>&nbsp;none;&nbsp;\n      <strong>Spell Resistance</strong>&nbsp;no<br>\n  </p>\n  <h2>Description</h2>\n  <p>This spell can affect any creatures with which you interacted in the last 24 hours. You alter the trails left by the chosen creatures, making it appear that another creature with which you are familiar left the trail instead (you must have met the creature with which you are familiar). If a tracker exceeds the DC of the skill check to follow the trail by an amount equal to  your caster level, the tracker recognizes that the trail has been manipulated by this spell, although it cannot see the trail's true nature unless it uses magical means, such as <i>true seeing</i>.</p>\n</div>\n"
    },
    "tags": [],
    "activation": {
      "type": "standard"
    },
    "unchainedAction": {
      "activation": {
        "cost": 2,
        "type": "action"
      }
    },
    "target": {
      "value": "1 creature/level; see text"
    },
    "uses": {
      "per": ""
    },
    "measureTemplate": {
      "size": "0"
    },
    "actionType": "",
    "damage": {
      "parts": [],
      "critParts": [],
      "nonCritParts": []
    },
    "attackParts": [],
    "ability": {
      "attack": "",
      "damage": ""
    },
    "save": {
      "dc": "0"
    },
    "effectNotes": [],
    "attackNotes": [],
    "links": {
      "children": []
    },
    "flags": {
      "boolean": [],
      "dictionary": []
    },
    "scriptCalls": [],
    "learnedAt": {
      "class": [
        [
          "druid",
          4
        ],
        [
          "ranger",
          4
        ],
        [
          "hunter",
          4
        ]
      ],
      "domain": [],
      "subDomain": [],
      "elementalSchool": [],
      "bloodline": []
    },
    "level": 4,
    "school": "trs",
    "conditionals": [],
    "components": {
      "verbal": true,
      "somatic": true
    },
    "sr": false,
    "shortDescription": "<p>This spell can affect any creatures with which you interacted in the last 24 hours. You alter the trails left by the chosen creatures, making it appear that another creature with which you are familiar left the trail instead (you must have met the creature with which you are familiar). If a tracker exceeds the DC of the skill check to follow the trail by an amount equal to  your caster level, the tracker recognizes that the trail has been manipulated by this spell, although it cannot see the trail's true nature unless it uses magical means, such as <i>true seeing</i>.</p>",
    "spellDuration": "1 day/level (D)"
  },
  "effects": [],
  "folder": null,
  "sort": 0,
  "permission": {
    "default": 0
  },
  "flags": {}
}