{
  "_id": "vax8ojz8g3oovwzu",
  "name": "Sunbeam",
  "type": "spell",
  "img": "systems/pf1/icons/misc/magic-swirl.png",
  "data": {
    "description": {
      "value": "<div class=\"spell-description\">\n  <p>\n    <strong>School</strong>&nbsp;evocation&nbsp;[light];\n    <strong>Level</strong>&nbsp;druid 7, shaman 7;\n    <strong>Domain</strong>&nbsp;Sun 7;\n    <strong>Subdomain</strong>&nbsp;Stars 7;\n    \n    \n  </p>\n  <p>\n    <strong>Casting Time</strong>&nbsp;1 standard<br>\n    <strong>Components</strong>&nbsp;V, S, DF<br>\n  </p>\n  <p>\n    <strong>Range</strong>&nbsp;60 feet<br>\n    <strong>Area</strong>&nbsp;line from your hand<br>\n    \n    \n    <strong>Duration</strong>&nbsp;1 round/level or until all beams are exhausted<br>\n      <strong>Saving Throw</strong>&nbsp;Reflex negates and Reflex half; see text;&nbsp;\n      <strong>Spell Resistance</strong>&nbsp;yes<br>\n  </p>\n  <h2>Description</h2>\n  <p>For the duration of this spell, you can use a standard action to evoke a dazzling beam of intense light each round. You can call forth one beam per three caster levels (maximum six beams at 18th level). The spell ends when its duration runs out or your allotment of beams is exhausted.</p><p>Each creature in the beam is blinded and takes 4d6 points of damage. Any creatures to which sunlight is harmful or unnatural take double damage. A successful Reflex save negates the blindness and reduces the damage by half.</p><p>An undead creature caught within the beam takes 1d6 points of damage per caster level (maximum 20d6), or half damage if a Reflex save is successful. In addition, the beam results in the destruction of any undead creature specifically harmed by bright light if it fails its save.</p><p>The ultraviolet light generated by the spell deals damage to fungi, mold, oozes, and slimes just as if they were undead creatures.</p>\n</div>\n"
    },
    "tags": [],
    "activation": {
      "type": "standard"
    },
    "unchainedAction": {
      "activation": {
        "cost": 2,
        "type": "action"
      }
    },
    "range": {
      "value": 60,
      "units": "ft"
    },
    "uses": {
      "per": ""
    },
    "measureTemplate": {
      "size": "0"
    },
    "actionType": "spellsave",
    "damage": {
      "parts": [],
      "critParts": [],
      "nonCritParts": []
    },
    "attackParts": [],
    "ability": {
      "attack": "",
      "damage": ""
    },
    "save": {
      "dc": "0",
      "type": "ref",
      "description": "Reflex negates and Reflex half; see text"
    },
    "effectNotes": [],
    "attackNotes": [],
    "links": {
      "children": []
    },
    "flags": {
      "boolean": [],
      "dictionary": []
    },
    "scriptCalls": [],
    "learnedAt": {
      "class": [
        [
          "druid",
          7
        ],
        [
          "shaman",
          7
        ]
      ],
      "domain": [
        [
          "Sun",
          7
        ]
      ],
      "subDomain": [
        [
          "Stars",
          7
        ]
      ],
      "elementalSchool": [],
      "bloodline": []
    },
    "level": 7,
    "school": "evo",
    "types": "light",
    "conditionals": [],
    "components": {
      "verbal": true,
      "somatic": true,
      "divineFocus": 1
    },
    "shortDescription": "<p>For the duration of this spell, you can use a standard action to evoke a dazzling beam of intense light each round. You can call forth one beam per three caster levels (maximum six beams at 18th level). The spell ends when its duration runs out or your allotment of beams is exhausted.</p><p>Each creature in the beam is blinded and takes 4d6 points of damage. Any creatures to which sunlight is harmful or unnatural take double damage. A successful Reflex save negates the blindness and reduces the damage by half.</p><p>An undead creature caught within the beam takes 1d6 points of damage per caster level (maximum 20d6), or half damage if a Reflex save is successful. In addition, the beam results in the destruction of any undead creature specifically harmed by bright light if it fails its save.</p><p>The ultraviolet light generated by the spell deals damage to fungi, mold, oozes, and slimes just as if they were undead creatures.</p>",
    "spellDuration": "1 round/level or until all beams are exhausted",
    "spellArea": "line from your hand"
  },
  "effects": [],
  "folder": null,
  "sort": 0,
  "permission": {
    "default": 0
  },
  "flags": {}
}