{
  "_id": "egbw0mba2cpe3xe5",
  "name": "Telekinetic Storm",
  "type": "spell",
  "img": "systems/pf1/icons/misc/magic-swirl.png",
  "data": {
    "description": {
      "value": "<div class=\"spell-description\">\n  <p>\n    <strong>School</strong>&nbsp;evocation&nbsp;[force];\n    <strong>Level</strong>&nbsp;psychic 9;\n    \n    \n    \n    \n  </p>\n  <p>\n    <strong>Casting Time</strong>&nbsp;1 standard<br>\n    <strong>Components</strong>&nbsp;V, S<br>\n  </p>\n  <p>\n    \n    <strong>Area</strong>&nbsp;40-ft.-radius burst centered on you<br>\n    \n    \n    <strong>Duration</strong>&nbsp;instantaneous<br>\n      <strong>Saving Throw</strong>&nbsp;Fortitude partial (see text);&nbsp;\n      <strong>Spell Resistance</strong>&nbsp;yes<br>\n  </p>\n  <h2>Description</h2>\n  <p>You generate a storm of telekinetic energy that emanates from you, ripping through the spell's area of effect with devastating force. Any creature caught in the spell's radius takes 1d6 points of damage per caster level (maximum 20d6) and is dazed and stunned for 1 round. A successful Fortitude save reduces the damage by half and negates the dazed and stunned effects.  The <i>telekinetic storm</i> damages objects in the area. If the damage caused to an interposing barrier shatters or breaks through it, the <i>telekinetic storm</i> continues beyond the barrier if the spell's area permits; otherwise, it stops at the barrier just as any other spell effect does.  You can designate any number of creatures to be immune to the spell's effect, though you must be capable of targeting those creatures.</p>\n</div>\n"
    },
    "tags": [],
    "activation": {
      "type": "standard"
    },
    "unchainedAction": {
      "activation": {
        "cost": 2,
        "type": "action"
      }
    },
    "uses": {
      "per": ""
    },
    "measureTemplate": {
      "size": "0"
    },
    "actionType": "spellsave",
    "damage": {
      "parts": [],
      "critParts": [],
      "nonCritParts": []
    },
    "attackParts": [],
    "ability": {
      "attack": "",
      "damage": ""
    },
    "save": {
      "dc": "0",
      "type": "fort",
      "description": "Fortitude partial (see text)"
    },
    "effectNotes": [],
    "attackNotes": [],
    "links": {
      "children": []
    },
    "flags": {
      "boolean": [],
      "dictionary": []
    },
    "scriptCalls": [],
    "learnedAt": {
      "class": [
        [
          "psychic",
          9
        ]
      ],
      "domain": [],
      "subDomain": [],
      "elementalSchool": [],
      "bloodline": []
    },
    "level": 9,
    "school": "evo",
    "types": "force",
    "conditionals": [],
    "components": {
      "verbal": true,
      "somatic": true
    },
    "shortDescription": "<p>You generate a storm of telekinetic energy that emanates from you, ripping through the spell's area of effect with devastating force. Any creature caught in the spell's radius takes 1d6 points of damage per caster level (maximum 20d6) and is dazed and stunned for 1 round. A successful Fortitude save reduces the damage by half and negates the dazed and stunned effects.  The <i>telekinetic storm</i> damages objects in the area. If the damage caused to an interposing barrier shatters or breaks through it, the <i>telekinetic storm</i> continues beyond the barrier if the spell's area permits; otherwise, it stops at the barrier just as any other spell effect does.  You can designate any number of creatures to be immune to the spell's effect, though you must be capable of targeting those creatures.</p>",
    "spellDuration": "instantaneous",
    "spellArea": "40-ft.-radius burst centered on you"
  },
  "effects": [],
  "folder": null,
  "sort": 0,
  "permission": {
    "default": 0
  },
  "flags": {}
}