{
  "_id": "eimp8bzk9oabtqpj",
  "name": "Unbreakable Heart",
  "type": "spell",
  "img": "systems/pf1/icons/misc/magic-swirl.png",
  "data": {
    "description": {
      "value": "<div class=\"spell-description\">\n  <p>\n    <strong>School</strong>&nbsp;enchantment&nbsp;(compulsion)&nbsp;[mind-affecting];\n    <strong>Level</strong>&nbsp;bard 1, cleric/oracle 1, hunter 1, paladin 1, ranger 1, witch 1;\n    \n    \n    \n    \n  </p>\n  <p>\n    <strong>Casting Time</strong>&nbsp;1 standard<br>\n    <strong>Components</strong>&nbsp;V, S<br>\n  </p>\n  <p>\n    <strong>Range</strong>&nbsp;close (25 ft. + 5 ft./2 levels)<br>\n    \n    \n    <strong>Effect</strong>&nbsp;1 creature<br>\n    <strong>Duration</strong>&nbsp;1 round/level<br>\n      <strong>Saving Throw</strong>&nbsp;Will negates (harmless);&nbsp;\n      <strong>Spell Resistance</strong>&nbsp;yes<br>\n  </p>\n  <h2>Description</h2>\n  <p>The target creature gains a +4 morale bonus on saving throws against mind-affecting effects that rely on negative emotions (such as <i>crushing despair</i>, <i>rage</i>, or fear effects) or that would force him to harm an ally (such as confusion). If the target is already under such an effect when receiving this spell, that effect is suppressed for the duration of this spell. It does not affect mind-affecting effects based on positive emotions (such as <i>good hope</i> or the inspire cou<i>rage</i> bard ability). A creature can still be charmed or otherwise magically controlled while under this spell's effects, but if such a creature ever receives a new saving throw against that effect as a result of being ordered to attempt to harm or otherwise oppose a true ally, he can roll that saving throw twice and take the better result as his actual roll. <i>Calm emotions</i> counters and dispels <i>unbreakable heart</i>.</p>\n</div>\n"
    },
    "tags": [],
    "activation": {
      "type": "standard"
    },
    "unchainedAction": {
      "activation": {
        "cost": 2,
        "type": "action"
      }
    },
    "range": {
      "units": "close"
    },
    "uses": {
      "per": ""
    },
    "measureTemplate": {
      "size": "0"
    },
    "actionType": "spellsave",
    "damage": {
      "parts": [],
      "critParts": [],
      "nonCritParts": []
    },
    "attackParts": [],
    "ability": {
      "attack": "",
      "damage": ""
    },
    "save": {
      "dc": "0",
      "type": "will",
      "description": "Will negates (harmless)"
    },
    "effectNotes": [],
    "attackNotes": [],
    "links": {
      "children": []
    },
    "flags": {
      "boolean": [],
      "dictionary": []
    },
    "scriptCalls": [],
    "learnedAt": {
      "class": [
        [
          "cleric/oracle",
          1
        ],
        [
          "ranger",
          1
        ],
        [
          "bard",
          1
        ],
        [
          "paladin",
          1
        ],
        [
          "witch",
          1
        ],
        [
          "hunter",
          1
        ]
      ],
      "domain": [],
      "subDomain": [],
      "elementalSchool": [],
      "bloodline": []
    },
    "school": "enc",
    "subschool": "compulsion",
    "types": "mind-affecting",
    "conditionals": [],
    "components": {
      "verbal": true,
      "somatic": true
    },
    "shortDescription": "<p>The target creature gains a +4 morale bonus on saving throws against mind-affecting effects that rely on negative emotions (such as <i>crushing despair</i>, <i>rage</i>, or fear effects) or that would force him to harm an ally (such as confusion). If the target is already under such an effect when receiving this spell, that effect is suppressed for the duration of this spell. It does not affect mind-affecting effects based on positive emotions (such as <i>good hope</i> or the inspire cou<i>rage</i> bard ability). A creature can still be charmed or otherwise magically controlled while under this spell's effects, but if such a creature ever receives a new saving throw against that effect as a result of being ordered to attempt to harm or otherwise oppose a true ally, he can roll that saving throw twice and take the better result as his actual roll. <i>Calm emotions</i> counters and dispels <i>unbreakable heart</i>.</p>",
    "spellDuration": "1 round/level",
    "spellEffect": "1 creature"
  },
  "effects": [],
  "folder": null,
  "sort": 0,
  "permission": {
    "default": 0
  },
  "flags": {}
}