{
  "_id": "jhyb2ana8jrk2lut",
  "name": "Unseen Servant",
  "type": "spell",
  "img": "systems/pf1/icons/misc/magic-swirl.png",
  "data": {
    "description": {
      "value": "<div class=\"spell-description\">\n  <p>\n    <strong>School</strong>&nbsp;conjuration&nbsp;(creation);\n    <strong>Level</strong>&nbsp;bard 1, magus 1, medium 1, mesmerist 1, occultist 1, psychic 1, sorcerer/wizard 1, spiritualist 1, summoner 1, unchained Summoner 1, witch 1;\n    \n    \n    \n    <strong>Bloodline</strong>&nbsp;Starsoul 1;\n  </p>\n  <p>\n    <strong>Casting Time</strong>&nbsp;1 standard<br>\n    <strong>Components</strong>&nbsp;V, S, M (a piece of string and a bit of wood)<br>\n  </p>\n  <p>\n    <strong>Range</strong>&nbsp;close (25 ft. + 5 ft./2 levels)<br>\n    \n    \n    <strong>Effect</strong>&nbsp;one invisible, mindless, shapeless servant<br>\n    <strong>Duration</strong>&nbsp;1 hour/level<br>\n      <strong>Saving Throw</strong>&nbsp;none;&nbsp;\n      <strong>Spell Resistance</strong>&nbsp;no<br>\n  </p>\n  <h2>Description</h2>\n  <p>An <i>unseen servant</i> is an invisible, mindless, shapeless force that performs simple tasks at your command. It can run and fetch things, open unstuck doors, and hold chairs, as well as clean and mend. The servant can perform only one activity at a time, but it repeats the same activity over and over again if told to do so as long as you remain within range. It can open only normal doors, drawers, lids, and the like. It has an effective Strength score of 2 (so it can lift 20 pounds or drag 100 pounds). It can trigger traps and such, but it can exert only 20 pounds of force, which is not enough to activate certain pressure plates and other devices. It can't perform any task that requires a skill check with a DC higher than 10 or that requires a check using a skill that can't be used untrained. This servant cannot fly, climb, or even swim (though it can walk on water). Its base speed is 15 feet.</p><p>The servant cannot attack in any way; it is never allowed an attack roll. It cannot be killed, but it dissipates if it takes 6 points of damage from area attacks. (It gets no saves against attacks.) If you attempt to send it beyond the spell's range (measured from your current position), the servant ceases to exist.</p>\n</div>\n"
    },
    "tags": [],
    "activation": {
      "type": "standard"
    },
    "unchainedAction": {
      "activation": {
        "cost": 2,
        "type": "action"
      }
    },
    "range": {
      "units": "close"
    },
    "uses": {
      "per": ""
    },
    "measureTemplate": {
      "size": "0"
    },
    "actionType": "other",
    "damage": {
      "parts": [],
      "critParts": [],
      "nonCritParts": []
    },
    "attackParts": [],
    "ability": {
      "attack": "",
      "damage": ""
    },
    "save": {
      "dc": "0"
    },
    "effectNotes": [],
    "attackNotes": [],
    "links": {
      "children": []
    },
    "flags": {
      "boolean": [],
      "dictionary": []
    },
    "scriptCalls": [],
    "learnedAt": {
      "class": [
        [
          "sorcerer/wizard",
          1
        ],
        [
          "bard",
          1
        ],
        [
          "summoner",
          1
        ],
        [
          "witch",
          1
        ],
        [
          "magus",
          1
        ],
        [
          "psychic",
          1
        ],
        [
          "medium",
          1
        ],
        [
          "mesmerist",
          1
        ],
        [
          "occultist",
          1
        ],
        [
          "spiritualist",
          1
        ],
        [
          "unchained Summoner",
          1
        ]
      ],
      "domain": [],
      "subDomain": [],
      "elementalSchool": [],
      "bloodline": [
        [
          "Starsoul",
          1
        ]
      ]
    },
    "school": "con",
    "subschool": "creation",
    "conditionals": [],
    "components": {
      "verbal": true,
      "somatic": true,
      "material": true
    },
    "materials": {
      "value": "a piece of string and a bit of wood"
    },
    "sr": false,
    "shortDescription": "<p>An <i>unseen servant</i> is an invisible, mindless, shapeless force that performs simple tasks at your command. It can run and fetch things, open unstuck doors, and hold chairs, as well as clean and mend. The servant can perform only one activity at a time, but it repeats the same activity over and over again if told to do so as long as you remain within range. It can open only normal doors, drawers, lids, and the like. It has an effective Strength score of 2 (so it can lift 20 pounds or drag 100 pounds). It can trigger traps and such, but it can exert only 20 pounds of force, which is not enough to activate certain pressure plates and other devices. It can't perform any task that requires a skill check with a DC higher than 10 or that requires a check using a skill that can't be used untrained. This servant cannot fly, climb, or even swim (though it can walk on water). Its base speed is 15 feet.</p><p>The servant cannot attack in any way; it is never allowed an attack roll. It cannot be killed, but it dissipates if it takes 6 points of damage from area attacks. (It gets no saves against attacks.) If you attempt to send it beyond the spell's range (measured from your current position), the servant ceases to exist.</p>",
    "spellDuration": "1 hour/level",
    "spellEffect": "one invisible, mindless, shapeless servant"
  },
  "effects": [],
  "folder": null,
  "sort": 0,
  "permission": {
    "default": 0
  },
  "flags": {}
}