{
  "_id": "wplgawb6aznjx7se",
  "name": "Wail of the Banshee",
  "type": "spell",
  "img": "systems/pf1/icons/misc/magic-swirl.png",
  "data": {
    "description": {
      "value": "<div class=\"spell-description\">\n  <p>\n    <strong>School</strong>&nbsp;necromancy&nbsp;[death, sonic];\n    <strong>Level</strong>&nbsp;psychic 9, shaman 9, sorcerer/wizard 9, witch 9;\n    <strong>Domain</strong>&nbsp;Death 9, Repose 9;\n    \n    \n    <strong>Bloodline</strong>&nbsp;Ghoul 9, Maestro 9;\n  </p>\n  <p>\n    <strong>Casting Time</strong>&nbsp;1 standard<br>\n    <strong>Components</strong>&nbsp;V<br>\n  </p>\n  <p>\n    <strong>Range</strong>&nbsp;close (25 ft. + 5 ft./2 levels)<br>\n    \n    <strong>Targets</strong>&nbsp;one living creature/level within a 40-ft.-radius spread<br>\n    \n    <strong>Duration</strong>&nbsp;instantaneous<br>\n      <strong>Saving Throw</strong>&nbsp;Fortitude negates;&nbsp;\n      <strong>Spell Resistance</strong>&nbsp;yes<br>\n  </p>\n  <h2>Description</h2>\n  <p>When you cast this spell, you emit a terrible, soul-chilling scream that possibly kills creatures that hear it (except for yourself ). The spell affects up to one creature per caster level, inflicting 10 points of damage per caster level. Creatures closest to the point of origin are affected first.</p>\n</div>\n"
    },
    "tags": [],
    "activation": {
      "type": "standard"
    },
    "unchainedAction": {
      "activation": {
        "cost": 2,
        "type": "action"
      }
    },
    "target": {
      "value": "one living creature/level within a 40-ft.-radius spread"
    },
    "range": {
      "units": "close"
    },
    "uses": {
      "per": ""
    },
    "measureTemplate": {
      "size": "0"
    },
    "actionType": "spellsave",
    "damage": {
      "parts": [],
      "critParts": [],
      "nonCritParts": []
    },
    "attackParts": [],
    "ability": {
      "attack": "",
      "damage": ""
    },
    "save": {
      "dc": "0",
      "type": "fort",
      "description": "Fortitude negates"
    },
    "effectNotes": [],
    "attackNotes": [],
    "links": {
      "children": []
    },
    "flags": {
      "boolean": [],
      "dictionary": []
    },
    "scriptCalls": [],
    "learnedAt": {
      "class": [
        [
          "sorcerer/wizard",
          9
        ],
        [
          "witch",
          9
        ],
        [
          "shaman",
          9
        ],
        [
          "psychic",
          9
        ]
      ],
      "domain": [
        [
          "Death",
          9
        ],
        [
          "Repose",
          9
        ]
      ],
      "subDomain": [],
      "elementalSchool": [],
      "bloodline": [
        [
          "Maestro",
          9
        ],
        [
          "Ghoul",
          9
        ]
      ]
    },
    "level": 9,
    "school": "nec",
    "types": "death, sonic",
    "conditionals": [],
    "components": {
      "verbal": true
    },
    "shortDescription": "<p>When you cast this spell, you emit a terrible, soul-chilling scream that possibly kills creatures that hear it (except for yourself ). The spell affects up to one creature per caster level, inflicting 10 points of damage per caster level. Creatures closest to the point of origin are affected first.</p>",
    "spellDuration": "instantaneous"
  },
  "effects": [],
  "folder": null,
  "sort": 0,
  "permission": {
    "default": 0
  },
  "flags": {}
}