{
  "_id": "l83djt5019ujasjh",
  "name": "Wall of Stone",
  "type": "spell",
  "img": "systems/pf1/icons/misc/magic-swirl.png",
  "data": {
    "description": {
      "value": "<div class=\"spell-description\">\n  <p>\n    <strong>School</strong>&nbsp;conjuration&nbsp;(creation)&nbsp;[earth];\n    <strong>Level</strong>&nbsp;adept 5, cleric/oracle 5, druid 6, hunter 6, magus 5, occultist 5, shaman 6, sorcerer/wizard 5, summoner 4, unchained Summoner 5;\n    <strong>Domain</strong>&nbsp;Earth 5;\n    <strong>Subdomain</strong>&nbsp;Fortifications 5;\n    \n    <strong>Bloodline</strong>&nbsp;Shaitan 5;\n  </p>\n  <p>\n    <strong>Casting Time</strong>&nbsp;1 standard<br>\n    <strong>Components</strong>&nbsp;V, S, M/DF (a small block of granite)<br>\n  </p>\n  <p>\n    <strong>Range</strong>&nbsp;medium (100 ft. + 10 ft./level)<br>\n    \n    \n    <strong>Effect</strong>&nbsp;stone wall whose area is up to one 5-ft. square/level (S)<br>\n    <strong>Duration</strong>&nbsp;instantaneous<br>\n      <strong>Saving Throw</strong>&nbsp;see text;&nbsp;\n      <strong>Spell Resistance</strong>&nbsp;no<br>\n  </p>\n  <h2>Description</h2>\n  <p>This spell creates a wall of rock that merges into adjoining rock surfaces. A <i>Wall of Stone</i> is 1 inch thick per four caster levels and composed of up to one 5-foot square per level. You can double the wall's area by halving its thickness. The wall cannot be conjured so that it occupies the same space as a creature or another object.</p><p>Unlike a <i>wall of iron</i>, you can create a <i>Wall of Stone</i> in almost any shape you desire. The wall created need not be vertical, nor rest upon any firm foundation; however, it must merge with and be solidly supported by existing stone. It can be used to bridge a chasm, for instance, or as a ramp. For this use, if the span is more than 20 feet, the wall must be arched and buttressed. This requirement reduces the spell's area by half. The wall can be crudely shaped to allow crenellations, battlements, and so forth by likewise reducing the area.</p><p>Like any other stone wall, this one can be destroyed by a <i>disintegrate</i> spell or by normal means such as breaking and chipping.</p><p>Each 5-foot square of the wall has hardness 8 and 15 hit points per inch of thickness. A section of wall whose hit points drop to 0 is breached. If a creature tries to break through the wall with a single attack, the DC for the Strength check is 20 + 2 per inch of thickness.</p><p>It is possible, but difficult, to trap mobile opponents within or under a <i>Wall of Stone</i>, provided the wall is shaped so it can hold the creatures. Creatures can avoid entrapment with successful Reflex saves.</p>\n</div>\n"
    },
    "tags": [],
    "activation": {
      "type": "standard"
    },
    "unchainedAction": {
      "activation": {
        "cost": 2,
        "type": "action"
      }
    },
    "range": {
      "units": "medium"
    },
    "uses": {
      "per": ""
    },
    "measureTemplate": {
      "size": "0"
    },
    "actionType": "spellsave",
    "damage": {
      "parts": [],
      "critParts": [],
      "nonCritParts": []
    },
    "attackParts": [],
    "ability": {
      "attack": "",
      "damage": ""
    },
    "save": {
      "dc": "0",
      "description": "see text"
    },
    "effectNotes": [],
    "attackNotes": [],
    "links": {
      "children": []
    },
    "flags": {
      "boolean": [],
      "dictionary": []
    },
    "scriptCalls": [],
    "learnedAt": {
      "class": [
        [
          "sorcerer/wizard",
          5
        ],
        [
          "cleric/oracle",
          5
        ],
        [
          "druid",
          6
        ],
        [
          "summoner",
          4
        ],
        [
          "magus",
          5
        ],
        [
          "adept",
          5
        ],
        [
          "shaman",
          6
        ],
        [
          "occultist",
          5
        ],
        [
          "hunter",
          6
        ],
        [
          "unchained Summoner",
          5
        ]
      ],
      "domain": [
        [
          "Earth",
          5
        ]
      ],
      "subDomain": [
        [
          "Fortifications",
          5
        ]
      ],
      "elementalSchool": [],
      "bloodline": [
        [
          "Shaitan",
          5
        ]
      ]
    },
    "level": 5,
    "school": "con",
    "subschool": "creation",
    "types": "earth",
    "conditionals": [],
    "components": {
      "verbal": true,
      "somatic": true,
      "material": true,
      "divineFocus": 2
    },
    "materials": {
      "value": "a small block of granite"
    },
    "sr": false,
    "shortDescription": "<p>This spell creates a wall of rock that merges into adjoining rock surfaces. A <i>Wall of Stone</i> is 1 inch thick per four caster levels and composed of up to one 5-foot square per level. You can double the wall's area by halving its thickness. The wall cannot be conjured so that it occupies the same space as a creature or another object.</p><p>Unlike a <i>wall of iron</i>, you can create a <i>Wall of Stone</i> in almost any shape you desire. The wall created need not be vertical, nor rest upon any firm foundation; however, it must merge with and be solidly supported by existing stone. It can be used to bridge a chasm, for instance, or as a ramp. For this use, if the span is more than 20 feet, the wall must be arched and buttressed. This requirement reduces the spell's area by half. The wall can be crudely shaped to allow crenellations, battlements, and so forth by likewise reducing the area.</p><p>Like any other stone wall, this one can be destroyed by a <i>disintegrate</i> spell or by normal means such as breaking and chipping.</p><p>Each 5-foot square of the wall has hardness 8 and 15 hit points per inch of thickness. A section of wall whose hit points drop to 0 is breached. If a creature tries to break through the wall with a single attack, the DC for the Strength check is 20 + 2 per inch of thickness.</p><p>It is possible, but difficult, to trap mobile opponents within or under a <i>Wall of Stone</i>, provided the wall is shaped so it can hold the creatures. Creatures can avoid entrapment with successful Reflex saves.</p>",
    "spellDuration": "instantaneous",
    "spellEffect": "stone wall whose area is up to one 5-ft. square/level (S)"
  },
  "effects": [],
  "folder": null,
  "sort": 0,
  "permission": {
    "default": 0
  },
  "flags": {}
}