{
  "_id": "phwxplqf9cop3izc",
  "name": "Warp Metal",
  "type": "spell",
  "img": "systems/pf1/icons/misc/magic-swirl.png",
  "data": {
    "description": {
      "value": "<div class=\"spell-description\">\n  <p>\n    <strong>School</strong>&nbsp;transmutation&nbsp;[earth];\n    <strong>Level</strong>&nbsp;bloodrager 4, cleric/oracle 4, druid 4, hunter 4, medium 4, occultist 4, psychic 4, sorcerer/wizard 4;\n    \n    \n    \n    \n  </p>\n  <p>\n    <strong>Casting Time</strong>&nbsp;1 standard<br>\n    <strong>Components</strong>&nbsp;V, S, M (a twisted wire)<br>\n  </p>\n  <p>\n    <strong>Range</strong>&nbsp;close (25 ft. + 5 ft./2 levels)<br>\n    \n    <strong>Targets</strong>&nbsp;1 Small wooden object/level, all within a 20-ft. radius; see text<br>\n    \n    <strong>Duration</strong>&nbsp;instantaneous<br>\n      <strong>Saving Throw</strong>&nbsp;Will negates (object);&nbsp;\n      <strong>Spell Resistance</strong>&nbsp;yes<br>\n  </p>\n  <h2>Description</h2>\n  <p>You cause metal to bend and warp, permanently destroying its straightness, form, and strength. A warped door springs open (or becomes stuck, requiring a successful Strength check to open, at your option). A vehicle grinds to a halt and ceases to operate. Warped ranged weapons are useless. A warped melee weapon imposes a -4 penalty on attack rolls.  You can warp one Small or smaller object or its equivalent per caster level. A Medium object counts as two Small objects, a Large object as four, a Huge object as eight, a Gargantuan object as 16, and a Colossal object as 32.  Alternatively, you can un<i>warp metal</i> (effectively warping it back to normal) with this spell. <i>Make whole</i>, on the other hand, does nothing to repair a warped item.  You can combine multiple consecutive castings of <i>warp metal</i> to warp (or unwarp) an object that is too large for you to warp with a single casting. Until the object is completely warped, it suffers no ill effects.</p>\n</div>\n"
    },
    "tags": [],
    "activation": {
      "type": "standard"
    },
    "unchainedAction": {
      "activation": {
        "cost": 2,
        "type": "action"
      }
    },
    "target": {
      "value": "1 Small wooden object/level, all within a 20-ft. radius; see text"
    },
    "range": {
      "units": "close"
    },
    "uses": {
      "per": ""
    },
    "measureTemplate": {
      "size": "0"
    },
    "actionType": "spellsave",
    "damage": {
      "parts": [],
      "critParts": [],
      "nonCritParts": []
    },
    "attackParts": [],
    "ability": {
      "attack": "",
      "damage": ""
    },
    "save": {
      "dc": "0",
      "type": "will",
      "description": "Will negates (object)"
    },
    "effectNotes": [],
    "attackNotes": [],
    "links": {
      "children": []
    },
    "flags": {
      "boolean": [],
      "dictionary": []
    },
    "scriptCalls": [],
    "learnedAt": {
      "class": [
        [
          "sorcerer/wizard",
          4
        ],
        [
          "cleric/oracle",
          4
        ],
        [
          "druid",
          4
        ],
        [
          "bloodrager",
          4
        ],
        [
          "psychic",
          4
        ],
        [
          "medium",
          4
        ],
        [
          "occultist",
          4
        ],
        [
          "hunter",
          4
        ]
      ],
      "domain": [],
      "subDomain": [],
      "elementalSchool": [],
      "bloodline": []
    },
    "level": 4,
    "school": "trs",
    "types": "earth",
    "conditionals": [],
    "components": {
      "verbal": true,
      "somatic": true,
      "material": true
    },
    "materials": {
      "value": "a twisted wire"
    },
    "shortDescription": "<p>You cause metal to bend and warp, permanently destroying its straightness, form, and strength. A warped door springs open (or becomes stuck, requiring a successful Strength check to open, at your option). A vehicle grinds to a halt and ceases to operate. Warped ranged weapons are useless. A warped melee weapon imposes a -4 penalty on attack rolls.  You can warp one Small or smaller object or its equivalent per caster level. A Medium object counts as two Small objects, a Large object as four, a Huge object as eight, a Gargantuan object as 16, and a Colossal object as 32.  Alternatively, you can un<i>warp metal</i> (effectively warping it back to normal) with this spell. <i>Make whole</i>, on the other hand, does nothing to repair a warped item.  You can combine multiple consecutive castings of <i>warp metal</i> to warp (or unwarp) an object that is too large for you to warp with a single casting. Until the object is completely warped, it suffers no ill effects.</p>",
    "spellDuration": "instantaneous"
  },
  "effects": [],
  "folder": null,
  "sort": 0,
  "permission": {
    "default": 0
  },
  "flags": {}
}