{
  "_id": "vsGeWjqASiBJKnJG",
  "name": "Labyrinth Minotaur",
  "type": "npc",
  "img": "systems/pf1/icons/races/creature-types/outsider.png",
  "data": {
    "abilities": {
      "str": {
        "value": 33
      },
      "dex": {
        "value": 19
      },
      "con": {
        "value": 30
      },
      "int": {
        "value": 17
      },
      "wis": {
        "value": 26
      },
      "cha": {
        "value": 14
      }
    },
    "attributes": {
      "naturalAC": "+16",
      "cmdNotes": "43 vs. bull rush",
      "hp": {
        "value": 242
      },
      "spells": {
        "usedSpellbooks": []
      }
    },
    "details": {
      "alignment": "ce",
      "cr": {
        "base": 16
      }
    },
    "skills": {
      "clm": {
        "rank": 13
      },
      "hea": {
        "rank": 10
      },
      "int": {
        "rank": 29
      },
      "ken": {
        "rank": 18
      },
      "kpl": {
        "rank": 15
      },
      "per": {
        "rank": 15
      },
      "sen": {
        "rank": 15
      },
      "sur": {
        "rank": 13
      }
    },
    "traits": {
      "size": "lg",
      "senses": "darkvision 60 ft.; Perception +26",
      "eres": "Fire 20;",
      "languages": {
        "value": [
          "abyssal",
          "common",
          "giant"
        ]
      },
      "di": {
        "value": []
      },
      "dv": {
        "value": []
      },
      "ci": {
        "value": []
      },
      "stature": ""
    }
  },
  "token": {
    "name": "Labyrinth Minotaur",
    "displayName": 20,
    "actorLink": false,
    "width": 2,
    "height": 2,
    "scale": 1,
    "mirrorX": false,
    "mirrorY": false,
    "lockRotation": false,
    "rotation": 0,
    "alpha": 1,
    "vision": false,
    "dimSight": 0,
    "brightSight": "60",
    "dimLight": 0,
    "brightLight": 0,
    "sightAngle": 0,
    "lightAngle": 0,
    "lightAlpha": 0.25,
    "lightAnimation": {
      "speed": 5,
      "intensity": 5
    },
    "disposition": -1,
    "displayBars": 20,
    "bar1": {
      "attribute": null
    },
    "bar2": {
      "attribute": null
    },
    "flags": {},
    "randomImg": false,
    "img": "systems/pf1/icons/races/creature-types/outsider.png"
  },
  "items": [
    {
      "_id": "cV7yHt8i5YCV0ZTd",
      "name": "Outsider (Chaotic, Evil, Extraplanar)",
      "type": "class",
      "img": "systems/pf1/icons/skills/yellow_40.jpg",
      "data": {
        "description": {
          "value": "<p>An outsider is at least partially composed of the essence (but not necessarily the material) of some plane other than the Material Plane. Some creatures start out as some other type and become outsiders when they attain a higher (or lower) state of spiritual existence.</p>\n<h2><span id=\"Features\">Features</span></h2>\n<p>An outsider has the following features.</p>\n<ul>\n<li>d10 Hit Dice.</li>\n<li>Base attack bonus equal to total Hit Dice (fast progression).</li>\n<li>Two good saving throws, usually&nbsp;<a href=\"https://www.d20pfsrd.com/gamemastering/combat#TOC-Reflex\" rel=\"nofollow\">Reflex</a>&nbsp;and Will.</li>\n<li>Skill points equal to 6 + Int modifier (minimum 1) per Hit Die. The following are class skills for outsiders: <a href=\"https://www.d20pfsrd.com/skills/bluff\" rel=\"nofollow\">Bluff</a>, <a href=\"https://www.d20pfsrd.com/skills/craft\" rel=\"nofollow\">Craft</a>, <a href=\"https://www.d20pfsrd.com/skills/knowledge\" rel=\"nofollow\">Knowledge</a>&nbsp;(planes), <a href=\"https://www.d20pfsrd.com/skills/perception\" rel=\"nofollow\">Perception</a>, <a href=\"https://www.d20pfsrd.com/skills/sense-motive\" rel=\"nofollow\">Sense Motive</a>, and <a href=\"https://www.d20pfsrd.com/skills/stealth\" rel=\"nofollow\">Stealth</a>. Due to their varied nature, outsiders also receive 4 additional class skills determined by the creature’s theme.</li>\n</ul>\n<h2><span id=\"Traits\">Traits</span></h2>\n<p>An outsider possesses the following traits (unless otherwise noted in a creature’s entry).</p>\n<ul>\n<li>Darkvision 60 feet.</li>\n<li>Unlike most living creatures, an outsider does not have a dual nature—its soul and body form one unit. When an outsider is slain, no soul is set loose. Spells that restore souls to their bodies, such as&nbsp;<a href=\"https://www.d20pfsrd.com/magic/all-spells/r/raise-dead\" rel=\"nofollow\">raise dead</a>,&nbsp;<a href=\"https://www.d20pfsrd.com/magic/all-spells/r/reincarnate\" rel=\"nofollow\">reincarnate</a>,&nbsp;and&nbsp;<a href=\"https://www.d20pfsrd.com/magic/all-spells/r/resurrection\" rel=\"nofollow\">resurrection</a>,&nbsp;don’t work on an outsider. It takes a different magical effect, such as&nbsp;<a href=\"https://www.d20pfsrd.com/magic/all-spells/l/limited-wish\" rel=\"nofollow\">limited wish</a>,&nbsp;<a href=\"https://www.d20pfsrd.com/magic/all-spells/w/wish\" rel=\"nofollow\">wish</a>,&nbsp;<a href=\"https://www.d20pfsrd.com/magic/all-spells/m/miracle\" rel=\"nofollow\">miracle</a>,&nbsp;or&nbsp;<a href=\"https://www.d20pfsrd.com/magic/all-spells/t/true-resurrection\" rel=\"nofollow\">true resurrection</a>&nbsp;to restore it to life. An outsider with the native subtype can be raised, reincarnated, or resurrected just as other living creatures can be.</li>\n<li>Proficient with all simple and martial weapons and any weapons mentioned in its entry.</li>\n<li>Proficient with whatever type of armor (light, medium, or heavy) it is described as wearing, as well as all lighter types. Outsiders not indicated as wearing armor are not proficient with armor. Outsiders are proficient with shields if they are proficient with any form of armor.</li>\n<li>Outsiders breathe, but do not need to eat or sleep (although they can do so if they wish). Native outsiders breathe, eat, and sleep.</li>\n</ul>"
        },
        "tags": [],
        "changes": [],
        "links": "",
        "tag": "outsider",
        "useCustomTag": true,
        "armorProf": {
          "value": []
        },
        "weaponProf": {
          "value": []
        },
        "flags": {
          "boolean": [],
          "dictionary": []
        },
        "scriptCalls": [],
        "classType": "racial",
        "level": 15,
        "hd": 10,
        "hp": 92,
        "bab": "high",
        "skillsPerLevel": 6,
        "savingThrows": {
          "ref": {
            "value": "high"
          },
          "will": {
            "value": "high"
          }
        },
        "classSkills": {
          "acr": false,
          "apr": false,
          "art": false,
          "blf": true,
          "clm": false,
          "crf": true,
          "dip": false,
          "dev": false,
          "dis": false,
          "esc": false,
          "fly": false,
          "han": false,
          "hea": false,
          "int": false,
          "kar": false,
          "kdu": false,
          "ken": false,
          "kge": false,
          "khi": false,
          "klo": false,
          "kna": false,
          "kno": false,
          "kpl": true,
          "kre": false,
          "lin": false,
          "lor": false,
          "per": true,
          "prf": false,
          "pro": false,
          "rid": false,
          "sen": true,
          "slt": false,
          "spl": false,
          "ste": true,
          "sur": false,
          "swm": false,
          "umd": false
        }
      },
      "effects": [],
      "folder": null,
      "sort": 0,
      "permission": {
        "default": 0
      },
      "flags": {}
    },
    {
      "_id": "zq73izu2br1xadju",
      "name": "Race: Outsider",
      "type": "race",
      "img": "systems/pf1/icons/skills/yellow_40.jpg",
      "data": {
        "description": {
          "value": "sbc | As no playable race was found a placeholder was generated."
        },
        "tags": [],
        "changes": [],
        "contextNotes": [],
        "links": {
          "children": []
        },
        "armorProf": {
          "value": []
        },
        "weaponProf": {
          "value": []
        },
        "flags": {
          "boolean": [],
          "dictionary": []
        },
        "scriptCalls": [],
        "creatureType": "outsider",
        "subTypes": [
          [
            "chaotic"
          ],
          [
            "evil"
          ],
          [
            "extraplanar"
          ]
        ]
      },
      "effects": [],
      "folder": null,
      "sort": 0,
      "permission": {
        "default": 0
      },
      "flags": {}
    },
    {
      "_id": "ytvm160kcx54g8zp",
      "name": "Sense: Darkvision 60ft.",
      "type": "feat",
      "img": "systems/pf1/icons/skills/shadow_12.jpg",
      "data": {
        "description": {
          "value": "Darkvision is the extraordinary ability to see with no light source at all, out to a range specified for the creature. Darkvision is black-and-white only (colors cannot be discerned). It does not allow characters to see anything that they could not see otherwise—invisible objects are still invisible, and illusions are still visible as what they seem to be. Likewise, darkvision subjects a creature to gaze attacks normally. The presence of light does not spoil darkvision."
        },
        "tags": [],
        "damage": {
          "parts": [],
          "critParts": [],
          "nonCritParts": []
        },
        "attackParts": [],
        "effectNotes": [],
        "attackNotes": [],
        "changes": [],
        "contextNotes": [],
        "links": {
          "children": [],
          "charges": []
        },
        "tag": "senseDarkvision60ft",
        "armorProf": {
          "value": []
        },
        "weaponProf": {
          "value": []
        },
        "flags": {
          "boolean": [],
          "dictionary": []
        },
        "scriptCalls": [],
        "featType": "racial",
        "associations": {
          "classes": []
        },
        "abilityType": "ex"
      },
      "effects": [],
      "folder": null,
      "sort": 0,
      "permission": {
        "default": 0
      },
      "flags": {}
    },
    {
      "_id": "kb2bo57s79n89nt6",
      "name": "Awesome Blow",
      "type": "feat",
      "img": "systems/pf1/icons/skills/yellow_36.jpg",
      "data": {
        "description": {
          "value": "sbc | As Awesome Blow could not be found in any compendium, a placeholder was generated."
        },
        "tags": [],
        "damage": {
          "parts": [],
          "critParts": [],
          "nonCritParts": []
        },
        "attackParts": [],
        "effectNotes": [],
        "attackNotes": [],
        "changes": [],
        "contextNotes": [],
        "links": {
          "children": [],
          "charges": []
        },
        "armorProf": {
          "value": []
        },
        "weaponProf": {
          "value": []
        },
        "flags": {
          "boolean": [],
          "dictionary": []
        },
        "scriptCalls": [],
        "associations": {
          "classes": []
        }
      },
      "effects": [],
      "folder": null,
      "sort": 0,
      "permission": {
        "default": 0
      },
      "flags": {}
    },
    {
      "_id": "Zeq6RWYv5otvg8q7",
      "name": "Cleave",
      "type": "feat",
      "img": "systems/pf1/icons/feats/cleave.jpg",
      "data": {
        "description": {
          "value": "\n                <i>You can strike two adjacent foes with a single swing.</i>\n                <br />\n                <br />\n                \n                <p><b>Prerequisites</b></p>\n                <p> Str 13, Power Attack, base attack bonus +1.</p>\n                \n            <br />\n                <p><b>Benefits</b></p>\n                <p><p class=\"stat-block-1\"> As a standard action, you can make a single attack at your full base attack bonus against a foe within reach. If you hit, you deal damage normally and can make an additional attack (using your full base attack bonus) against a foe that is adjacent to the first and also within reach. You can only make one additional attack per round with this feat. When you use this feat, you take a &ndash;2 penalty to your Armor Class until your next turn.</p></p>\n                \n            \n            "
        },
        "tags": [
          [
            "Combat"
          ],
          [
            "Offensive"
          ]
        ],
        "measureTemplate": {
          "size": "0"
        },
        "actionType": "",
        "damage": {
          "parts": [],
          "critParts": [],
          "nonCritParts": []
        },
        "attackParts": [],
        "effectNotes": [],
        "attackNotes": [],
        "changes": [],
        "contextNotes": [],
        "links": {
          "children": [],
          "charges": []
        },
        "tag": "cleave",
        "armorProf": {
          "value": []
        },
        "weaponProf": {
          "value": []
        },
        "flags": {
          "boolean": [],
          "dictionary": []
        },
        "scriptCalls": [],
        "associations": {
          "classes": []
        }
      },
      "effects": [],
      "folder": null,
      "sort": 0,
      "permission": {
        "default": 0
      },
      "flags": {}
    },
    {
      "_id": "XGvS0hHv58XAeQij",
      "name": "Greater Bull Rush",
      "type": "feat",
      "img": "systems/pf1/icons/feats/greater-bull-rush.jpg",
      "data": {
        "description": {
          "value": "\n                <i>Your bull rush attacks throw enemies off balance.</i>\n                <br />\n                <br />\n                \n                <p><b>Prerequisites</b></p>\n                <p> Improved Bull Rush, Power Attack, base attack bonus +6, Str 13.</p>\n                \n            <br />\n                <p><b>Benefits</b></p>\n                <p><p class=\"stat-block-1\"> You receive a +2 bonus on checks made to bull rush a foe. This bonus stacks with the bonus granted by Improved Bull Rush. Whenever you bull rush an opponent, his movement provokes attacks of opportunity from all of your allies (but not you).</p></p>\n                \n            <br />\n                <p><b>Normal</b></p>\n                <p><p class=\"stat-block-1\"> Creatures moved by bull rush do not provoke attacks of opportunity.</p></p>\n                \n            \n            "
        },
        "tags": [
          [
            "Combat"
          ],
          [
            "Combat Maneuver"
          ],
          [
            "Offensive"
          ]
        ],
        "measureTemplate": {
          "size": "0"
        },
        "actionType": "",
        "damage": {
          "parts": [],
          "critParts": [],
          "nonCritParts": []
        },
        "attackParts": [],
        "effectNotes": [],
        "attackNotes": [],
        "changes": [],
        "contextNotes": [],
        "links": {
          "children": [],
          "charges": []
        },
        "tag": "greaterBullRush",
        "armorProf": {
          "value": []
        },
        "weaponProf": {
          "value": []
        },
        "flags": {
          "boolean": [],
          "dictionary": []
        },
        "scriptCalls": [],
        "associations": {
          "classes": []
        }
      },
      "effects": [],
      "folder": null,
      "sort": 0,
      "permission": {
        "default": 0
      },
      "flags": {}
    },
    {
      "_id": "dn2KgHFQRbuoNRx0",
      "name": "Improved Bull Rush",
      "type": "feat",
      "img": "systems/pf1/icons/feats/improved-bull-rush.jpg",
      "data": {
        "description": {
          "value": "\n                <i>You are skilled at pushing your foes around.</i>\n                <br />\n                <br />\n                \n                <p><b>Prerequisites</b></p>\n                <p> Str 13, Power Attack, base attack bonus +1.</p>\n                \n            <br />\n                <p><b>Benefits</b></p>\n                <p><p class=\"stat-block-1\"> You do not provoke an attack of opportunity when performing a bull rush combat maneuver. In addition, you receive a +2 bonus on checks made to bull rush a foe. You also receive a +2 bonus to your Combat Maneuver Defense whenever an opponent tries to bull rush you.</p></p>\n                \n            <br />\n                <p><b>Normal</b></p>\n                <p><p class=\"stat-block-1\"> You provoke an attack of opportunity when performing a bull rush combat maneuver.</p></p>\n                \n            \n            "
        },
        "tags": [
          [
            "Combat"
          ],
          [
            "Combat Maneuver"
          ],
          [
            "Offensive"
          ]
        ],
        "measureTemplate": {
          "size": "0"
        },
        "actionType": "",
        "damage": {
          "parts": [],
          "critParts": [],
          "nonCritParts": []
        },
        "attackParts": [],
        "effectNotes": [],
        "attackNotes": [],
        "changes": [],
        "contextNotes": [],
        "links": {
          "children": [],
          "charges": []
        },
        "tag": "improvedBullRush",
        "armorProf": {
          "value": []
        },
        "weaponProf": {
          "value": []
        },
        "flags": {
          "boolean": [],
          "dictionary": []
        },
        "scriptCalls": [],
        "associations": {
          "classes": []
        }
      },
      "effects": [],
      "folder": null,
      "sort": 0,
      "permission": {
        "default": 0
      },
      "flags": {}
    },
    {
      "_id": "TbOPtIL8Fv8obXtP",
      "name": "Improved Critical",
      "type": "feat",
      "img": "systems/pf1/icons/feats/improved-critical.jpg",
      "data": {
        "description": {
          "value": "\n                <i>Attacks made with your chosen weapon are quite deadly.</i>\n                <br />\n                <br />\n                \n                <p><b>Prerequisites</b></p>\n                <p> Proficient with weapon, base attack bonus +8.</p>\n                \n            <br />\n                <p><b>Benefits</b></p>\n                <p><p class=\"stat-block-1\"> When using the weapon you selected, your threat range is doubled.</p></p>\n                \n            <br />\n                <p><b>Special</b></p>\n                <p><p class=\"stat-block-1\"> You can gain Improved Critical multiple times. The effects do not stack. Each time you take the feat, it applies to a new type of weapon.</p><p class=\"stat-block-2\">This effect doesn't stack with any other effect that expands the threat range of a weapon.</p></p>\n                \n            \n            "
        },
        "tags": [
          [
            "Combat"
          ],
          [
            "Critical"
          ],
          [
            "Offensive"
          ]
        ],
        "measureTemplate": {
          "size": "0"
        },
        "actionType": "",
        "damage": {
          "parts": [],
          "critParts": [],
          "nonCritParts": []
        },
        "attackParts": [],
        "effectNotes": [],
        "attackNotes": [],
        "changes": [],
        "contextNotes": [],
        "links": {
          "children": [],
          "charges": []
        },
        "tag": "improvedCritical",
        "armorProf": {
          "value": []
        },
        "weaponProf": {
          "value": []
        },
        "flags": {
          "boolean": [],
          "dictionary": []
        },
        "scriptCalls": [],
        "associations": {
          "classes": []
        }
      },
      "effects": [],
      "folder": null,
      "sort": 0,
      "permission": {
        "default": 0
      },
      "flags": {}
    },
    {
      "_id": "O0jbkTJcIji9BNiF",
      "name": "Intimidating Prowess",
      "type": "feat",
      "img": "systems/pf1/icons/feats/intimidating-prowess.jpg",
      "data": {
        "description": {
          "value": "\n                <i>Your physical might is intimidating to others.</i>\n                <br />\n                <br />\n                \n                <p><b>Benefits</b></p>\n                <p><p class=\"stat-block-1\"> Add your Strength modifier to Intimidate skill checks in addition to your Charisma modifier.</p></p>\n                \n            \n            "
        },
        "tags": [
          [
            "General"
          ],
          [
            "Skill"
          ]
        ],
        "measureTemplate": {
          "size": "0"
        },
        "actionType": "",
        "damage": {
          "parts": [],
          "critParts": [],
          "nonCritParts": []
        },
        "attackParts": [],
        "effectNotes": [],
        "attackNotes": [],
        "changes": [
          {
            "_id": "zy5pz0i8",
            "formula": "max(0, @abilities.str.mod)",
            "operator": "add",
            "subTarget": "skill.int",
            "modifier": "untyped",
            "priority": 0,
            "value": 0,
            "target": "skill"
          }
        ],
        "contextNotes": [],
        "links": {
          "children": [],
          "charges": []
        },
        "tag": "intimidatingProwess",
        "armorProf": {
          "value": []
        },
        "weaponProf": {
          "value": []
        },
        "flags": {
          "boolean": [],
          "dictionary": []
        },
        "scriptCalls": [],
        "associations": {
          "classes": []
        }
      },
      "effects": [],
      "folder": null,
      "sort": 0,
      "permission": {
        "default": 0
      },
      "flags": {}
    },
    {
      "_id": "FUW5mIXHNBBIQ1Sq",
      "name": "Power Attack",
      "type": "feat",
      "img": "systems/pf1/icons/feats/power-attack.jpg",
      "data": {
        "description": {
          "value": "\n                <i>You can make exceptionally deadly melee attacks by sacrificing accuracy for strength.</i>\n                <br />\n                <br />\n                \n                <p><b>Prerequisites</b></p>\n                <p> Str 13, base attack bonus +1.</p>\n                \n            <br />\n                <p><b>Benefits</b></p>\n                <p><p class=\"stat-block-1\"> You can choose to take a &ndash;1 penalty on all melee attack rolls and combat maneuver checks to gain a +2 bonus on all melee damage rolls. This bonus to damage is increased by half (+50%) if you are making an attack with a two-handed weapon, a one handed weapon using two hands, or a primary natural weapon that adds 1-1/2 times your Strength modifier on damage rolls. This bonus to damage is halved (&ndash;50%) if you are making an attack with an off-hand weapon or secondary natural weapon. When your base attack bonus reaches +4, and every 4 points thereafter, the penalty increases by &ndash;1 and the bonus to damage increases by +2. You must choose to use this feat before making an attack roll, and its effects last until your next turn. The bonus damage does not apply to touch attacks or effects that do not deal hit point damage.</p></p>\n                \n            \n            "
        },
        "tags": [
          [
            "Combat"
          ],
          [
            "Offensive"
          ]
        ],
        "measureTemplate": {
          "size": "0"
        },
        "actionType": "",
        "damage": {
          "parts": [],
          "critParts": [],
          "nonCritParts": []
        },
        "attackParts": [],
        "effectNotes": [],
        "attackNotes": [],
        "changes": [],
        "contextNotes": [],
        "links": {
          "children": [],
          "charges": []
        },
        "tag": "powerAttack",
        "armorProf": {
          "value": []
        },
        "weaponProf": {
          "value": []
        },
        "flags": {
          "boolean": [],
          "dictionary": []
        },
        "scriptCalls": [],
        "associations": {
          "classes": []
        }
      },
      "effects": [],
      "folder": null,
      "sort": 0,
      "permission": {
        "default": 0
      },
      "flags": {}
    },
    {
      "_id": "g6fb198rc6ftrvef",
      "name": "Quick Bull Rushuc",
      "type": "feat",
      "img": "systems/pf1/icons/skills/yellow_36.jpg",
      "data": {
        "description": {
          "value": "sbc | As Quick Bull RushUC could not be found in any compendium, a placeholder was generated."
        },
        "tags": [],
        "damage": {
          "parts": [],
          "critParts": [],
          "nonCritParts": []
        },
        "attackParts": [],
        "effectNotes": [],
        "attackNotes": [],
        "changes": [],
        "contextNotes": [],
        "links": {
          "children": [],
          "charges": []
        },
        "armorProf": {
          "value": []
        },
        "weaponProf": {
          "value": []
        },
        "flags": {
          "boolean": [],
          "dictionary": []
        },
        "scriptCalls": [],
        "associations": {
          "classes": []
        }
      },
      "effects": [],
      "folder": null,
      "sort": 0,
      "permission": {
        "default": 0
      },
      "flags": {}
    },
    {
      "_id": "hpf2mqropomdbtx8",
      "name": "Special Quality: Compression",
      "type": "feat",
      "img": "systems/pf1/icons/skills/yellow_36.jpg",
      "data": {
        "description": {
          "value": "sbc | Placeholder for Special Qualities, which in most statblocks are listed under SQ in the statistics block, but described in the Special Abilities. Remove duplicates as needed!"
        },
        "tags": [],
        "damage": {
          "parts": [],
          "critParts": [],
          "nonCritParts": []
        },
        "attackParts": [],
        "effectNotes": [],
        "attackNotes": [],
        "changes": [],
        "contextNotes": [],
        "links": {
          "children": [],
          "charges": []
        },
        "armorProf": {
          "value": []
        },
        "weaponProf": {
          "value": []
        },
        "flags": {
          "boolean": [],
          "dictionary": []
        },
        "scriptCalls": [],
        "featType": "misc",
        "associations": {
          "classes": []
        }
      },
      "effects": [],
      "folder": null,
      "sort": 0,
      "permission": {
        "default": 0
      },
      "flags": {}
    },
    {
      "_id": "65pgvsgsf1git5un",
      "name": "Natural Cunning",
      "type": "feat",
      "img": "systems/pf1/icons/skills/yellow_36.jpg",
      "data": {
        "description": {
          "value": "sbc | Placeholder"
        },
        "tags": [],
        "damage": {
          "parts": [],
          "critParts": [],
          "nonCritParts": []
        },
        "attackParts": [],
        "effectNotes": [],
        "attackNotes": [],
        "changes": [],
        "contextNotes": [],
        "links": {
          "children": [],
          "charges": []
        },
        "armorProf": {
          "value": []
        },
        "weaponProf": {
          "value": []
        },
        "flags": {
          "boolean": [],
          "dictionary": []
        },
        "scriptCalls": [],
        "featType": "classFeat",
        "associations": {
          "classes": []
        },
        "abilityType": ""
      },
      "effects": [],
      "folder": null,
      "sort": 0,
      "permission": {
        "default": 0
      },
      "flags": {}
    },
    {
      "_id": "2ght0mlpe9yx1xmx",
      "name": "+1 Greataxe",
      "type": "attack",
      "img": null,
      "data": {
        "tags": [],
        "activation": {
          "type": "attack"
        },
        "unchainedAction": {
          "activation": {
            "type": "attack"
          }
        },
        "duration": {
          "units": "inst"
        },
        "range": {
          "value": "",
          "units": "melee"
        },
        "attackName": "Greataxe",
        "actionType": "mwak",
        "attackBonus": "-25",
        "damage": {
          "parts": [
            [
              "3d6+5",
              "S"
            ]
          ],
          "critParts": [],
          "nonCritParts": []
        },
        "attackParts": [
          [
            -5,
            "Iterative Attack with -5"
          ],
          [
            -10,
            "Iterative Attack with -10"
          ]
        ],
        "ability": {
          "attack": "str",
          "damage": "str",
          "critRange": "19",
          "critMult": "3"
        },
        "effectNotes": [],
        "attackNotes": [
          "+1 greataxe +1/+10/+5 (3d6+17/19-20/x3 )"
        ],
        "links": {
          "children": [],
          "charges": [],
          "ammunition": []
        },
        "flags": {
          "boolean": [],
          "dictionary": []
        },
        "scriptCalls": [],
        "masterwork": true,
        "enh": "1",
        "primaryAttack": false,
        "conditionals": []
      },
      "effects": [],
      "folder": null,
      "sort": 0,
      "permission": {
        "default": 0
      },
      "flags": {}
    },
    {
      "_id": "nwbcaptq02xdulwy",
      "name": "Gore",
      "type": "attack",
      "img": "systems/pf1/icons/items/inventory/monster-tusk-bloody.jpg",
      "data": {
        "tags": [],
        "activation": {
          "type": "attack"
        },
        "unchainedAction": {
          "activation": {
            "type": "attack"
          }
        },
        "duration": {
          "units": "inst"
        },
        "range": {
          "value": "",
          "units": "melee"
        },
        "attackName": "Gore",
        "actionType": "mwak",
        "attackBonus": "-5",
        "damage": {
          "parts": [
            [
              "1d8+-6",
              "P"
            ]
          ],
          "critParts": [],
          "nonCritParts": []
        },
        "attackParts": [],
        "ability": {
          "attack": "str",
          "damage": "str"
        },
        "effectNotes": [],
        "attackNotes": [
          "gore +20 (1d8+5 )"
        ],
        "links": {
          "children": [],
          "charges": [],
          "ammunition": []
        },
        "flags": {
          "boolean": [],
          "dictionary": []
        },
        "scriptCalls": [],
        "attackType": "natural",
        "conditionals": []
      },
      "effects": [],
      "folder": null,
      "sort": 0,
      "permission": {
        "default": 0
      },
      "flags": {}
    },
    {
      "_id": "hm0eli4o238b97fg",
      "name": "Gore",
      "type": "attack",
      "img": "systems/pf1/icons/items/inventory/monster-tusk-bloody.jpg",
      "data": {
        "tags": [],
        "activation": {
          "type": "attack"
        },
        "unchainedAction": {
          "activation": {
            "type": "attack"
          }
        },
        "duration": {
          "units": "inst"
        },
        "range": {
          "value": "",
          "units": "melee"
        },
        "attackName": "Gore",
        "actionType": "mwak",
        "attackBonus": "0",
        "damage": {
          "parts": [
            [
              "1d8+5",
              "P"
            ]
          ],
          "critParts": [],
          "nonCritParts": []
        },
        "attackParts": [],
        "ability": {
          "attack": "str",
          "damage": "str"
        },
        "effectNotes": [],
        "attackNotes": [
          "gore +25 (1d8+16 )"
        ],
        "links": {
          "children": [],
          "charges": [],
          "ammunition": []
        },
        "flags": {
          "boolean": [],
          "dictionary": []
        },
        "scriptCalls": [],
        "attackType": "natural",
        "conditionals": []
      },
      "effects": [],
      "folder": null,
      "sort": 0,
      "permission": {
        "default": 0
      },
      "flags": {}
    },
    {
      "_id": "uoxl3sbz7hl8usu0",
      "name": "Special Attack: Bronze Mask",
      "type": "attack",
      "img": "systems/pf1/icons/skills/yellow_36.jpg",
      "data": {
        "description": {
          "value": "sbc | Placeholder for Special Attacks, which in most statblocks are listed under 'Special Attacks' in the statistics block, but are described in the 'Special Abilities' block. Remove duplicates as needed!"
        },
        "tags": [],
        "damage": {
          "parts": [],
          "critParts": [],
          "nonCritParts": []
        },
        "attackParts": [],
        "effectNotes": [],
        "attackNotes": [],
        "links": {
          "children": [],
          "charges": [],
          "ammunition": []
        },
        "flags": {
          "boolean": [],
          "dictionary": []
        },
        "scriptCalls": [],
        "attackType": "misc",
        "conditionals": []
      },
      "effects": [],
      "folder": null,
      "sort": 0,
      "permission": {
        "default": 0
      },
      "flags": {}
    },
    {
      "_id": "1aru81g4l0w6ptr8",
      "name": "Special Attack:  Steel-shod Hooves",
      "type": "attack",
      "img": "systems/pf1/icons/skills/yellow_36.jpg",
      "data": {
        "description": {
          "value": "sbc | Placeholder for Special Attacks, which in most statblocks are listed under 'Special Attacks' in the statistics block, but are described in the 'Special Abilities' block. Remove duplicates as needed!"
        },
        "tags": [],
        "damage": {
          "parts": [],
          "critParts": [],
          "nonCritParts": []
        },
        "attackParts": [],
        "effectNotes": [],
        "attackNotes": [],
        "links": {
          "children": [],
          "charges": [],
          "ammunition": []
        },
        "flags": {
          "boolean": [],
          "dictionary": []
        },
        "scriptCalls": [],
        "attackType": "misc",
        "conditionals": []
      },
      "effects": [],
      "folder": null,
      "sort": 0,
      "permission": {
        "default": 0
      },
      "flags": {}
    },
    {
      "_id": "yaa5ya019unbrser",
      "name": "Special Attack: Powerful Charge (gore, 2d8+16)",
      "type": "attack",
      "img": "systems/pf1/icons/skills/yellow_36.jpg",
      "data": {
        "description": {
          "value": "sbc | Placeholder for Special Attacks, which in most statblocks are listed under 'Special Attacks' in the statistics block, but are described in the 'Special Abilities' block. Remove duplicates as needed!"
        },
        "tags": [],
        "damage": {
          "parts": [],
          "critParts": [],
          "nonCritParts": []
        },
        "attackParts": [],
        "effectNotes": [],
        "attackNotes": [],
        "links": {
          "children": [],
          "charges": [],
          "ammunition": []
        },
        "flags": {
          "boolean": [],
          "dictionary": []
        },
        "scriptCalls": [],
        "attackType": "misc",
        "conditionals": []
      },
      "effects": [],
      "folder": null,
      "sort": 0,
      "permission": {
        "default": 0
      },
      "flags": {}
    },
    {
      "_id": "88c4vvhe39m6rnvf",
      "name": "Special Attack: Trample (2d6+16, Dc 28)",
      "type": "attack",
      "img": "systems/pf1/icons/skills/yellow_36.jpg",
      "data": {
        "description": {
          "value": "sbc | Placeholder for Special Attacks, which in most statblocks are listed under 'Special Attacks' in the statistics block, but are described in the 'Special Abilities' block. Remove duplicates as needed!"
        },
        "tags": [],
        "damage": {
          "parts": [],
          "critParts": [],
          "nonCritParts": []
        },
        "attackParts": [],
        "effectNotes": [],
        "attackNotes": [],
        "links": {
          "children": [],
          "charges": [],
          "ammunition": []
        },
        "flags": {
          "boolean": [],
          "dictionary": []
        },
        "scriptCalls": [],
        "attackType": "misc",
        "conditionals": []
      },
      "effects": [],
      "folder": null,
      "sort": 0,
      "permission": {
        "default": 0
      },
      "flags": {}
    },
    {
      "_id": "t3lcg6sj2rjav0e4",
      "name": "Ecology",
      "type": "feat",
      "img": "icons/environment/wilderness/tree-oak.webp",
      "data": {
        "description": {
          "value": "<div><strong>Environment</strong>:  any (Ivory Labyrinth)</div><div><strong>Organization</strong>:  solitary, pair, or gang (3-6)</div><div><strong>Treasure</strong>:  standard (+1 greataxe, other treasure)</div>"
        },
        "tags": [],
        "damage": {
          "parts": [],
          "critParts": [],
          "nonCritParts": []
        },
        "attackParts": [],
        "effectNotes": [],
        "attackNotes": [],
        "changes": [],
        "contextNotes": [],
        "links": {
          "children": [],
          "charges": []
        },
        "armorProf": {
          "value": []
        },
        "weaponProf": {
          "value": []
        },
        "flags": {
          "boolean": [],
          "dictionary": []
        },
        "scriptCalls": [],
        "featType": "misc",
        "associations": {
          "classes": []
        }
      },
      "effects": [],
      "folder": null,
      "sort": 0,
      "permission": {
        "default": 0
      },
      "flags": {}
    },
    {
      "_id": "9ezmijb68sbhv22p",
      "name": "Bronze Mask",
      "type": "feat",
      "img": "systems/pf1/icons/skills/yellow_36.jpg",
      "data": {
        "description": {
          "value": "A labyrinth minotaur draws agility and ferocity from its bronze mask. When it makes a full-attack action, a labyrinth minotaur wearing its bronze mask can give up its regular attacks and instead make one gore attack or bull rush against each opponent within reach. It must make a separate attack roll against each opponent, and it can’t choose to move with targets that are pushed back. A labyrinth minotaur’s bronze mask has 40 hit points, hardness 20, and a break DC of 40. If a labyrinth minotaur’s bronze mask is stolen or destroyed, it can create a replacement with 1 week of work."
        },
        "tags": [],
        "damage": {
          "parts": [],
          "critParts": [],
          "nonCritParts": []
        },
        "attackParts": [],
        "effectNotes": [],
        "attackNotes": [],
        "changes": [],
        "contextNotes": [],
        "links": {
          "children": [],
          "charges": []
        },
        "armorProf": {
          "value": []
        },
        "weaponProf": {
          "value": []
        },
        "flags": {
          "boolean": [],
          "dictionary": []
        },
        "scriptCalls": [],
        "featType": "classFeat",
        "associations": {
          "classes": []
        },
        "abilityType": "su"
      },
      "effects": [],
      "folder": null,
      "sort": 0,
      "permission": {
        "default": 0
      },
      "flags": {}
    },
    {
      "_id": "mrign7sp3fnixfuj",
      "name": "Natural Cunning",
      "type": "feat",
      "img": "systems/pf1/icons/skills/yellow_36.jpg",
      "data": {
        "description": {
          "value": "Like a normal minotaur, a labyrinth minotaur possesses innate cunning and logical ability, granting it immunity to maze spells and preventing it from ever becoming lost. Further, a labyrinth minotaur is never caught flat-footed."
        },
        "tags": [],
        "damage": {
          "parts": [],
          "critParts": [],
          "nonCritParts": []
        },
        "attackParts": [],
        "effectNotes": [],
        "attackNotes": [],
        "changes": [],
        "contextNotes": [],
        "links": {
          "children": [],
          "charges": []
        },
        "armorProf": {
          "value": []
        },
        "weaponProf": {
          "value": []
        },
        "flags": {
          "boolean": [],
          "dictionary": []
        },
        "scriptCalls": [],
        "featType": "classFeat",
        "associations": {
          "classes": []
        },
        "abilityType": "ex"
      },
      "effects": [],
      "folder": null,
      "sort": 0,
      "permission": {
        "default": 0
      },
      "flags": {}
    },
    {
      "_id": "jvhfcp5xsp2jyanj",
      "name": "Steel-shod Hooves",
      "type": "feat",
      "img": "systems/pf1/icons/skills/yellow_36.jpg",
      "data": {
        "description": {
          "value": "A labyrinth minotaur’s steel-shod hooves are particularly devastating when used to trample an opponent. A creature that takes full damage from a labyrinth minotaur’s trample ability (because the creature either failed its Reflex save or chose to take an attack of opportunity instead of attempting a Reflex save) is knocked prone and is staggered for 1d4 rounds. A successful Fortitude save (DC equal to that of the labyrinth minotaur’s trample ability) reduces the duration of the staggered condition to 1 round."
        },
        "tags": [],
        "damage": {
          "parts": [],
          "critParts": [],
          "nonCritParts": []
        },
        "attackParts": [],
        "effectNotes": [],
        "attackNotes": [],
        "changes": [],
        "contextNotes": [],
        "links": {
          "children": [],
          "charges": []
        },
        "armorProf": {
          "value": []
        },
        "weaponProf": {
          "value": []
        },
        "flags": {
          "boolean": [],
          "dictionary": []
        },
        "scriptCalls": [],
        "featType": "classFeat",
        "associations": {
          "classes": []
        },
        "abilityType": "ex"
      },
      "effects": [],
      "folder": null,
      "sort": 0,
      "permission": {
        "default": 0
      },
      "flags": {}
    },
    {
      "_id": "vcDtRu8IPg0LRFfS",
      "name": "sbc | Conversion Buff",
      "type": "buff",
      "img": "systems/pf1/icons/skills/yellow_36.jpg",
      "data": {
        "description": {
          "value": "<h2>sbc | Conversion Buff</h2>\n                        This Buff was created by <strong>sbc</strong> to compensate for differences between the input and the values FoundryVTT calculates automatically.\n                        <br><br>\n                        Especially when the pathfinder system gets upgraded, entries in compendiums get updated or foundry changes in some way, this buff may become outdated.\n                        <br><br>\n                        For most mooks the conversion should more or less work, but for important NPCs or creatures it is adviced to double check the conversion manually."
        },
        "tags": [],
        "changes": [
          {
            "formula": "-10",
            "modifier": "untypedPerm",
            "operator": "add",
            "priority": 0,
            "subTarget": "mhp",
            "target": "misc",
            "value": -10,
            "id": "kkif4ht4"
          },
          {
            "formula": "4",
            "modifier": "untypedPerm",
            "operator": "add",
            "priority": 0,
            "subTarget": "fort",
            "target": "savingThrows",
            "value": 4,
            "id": "zvse76v8"
          },
          {
            "formula": "-4",
            "modifier": "untypedPerm",
            "operator": "add",
            "priority": 0,
            "subTarget": "ref",
            "target": "savingThrows",
            "value": -4,
            "id": "6oj01e1v"
          },
          {
            "formula": "-11",
            "modifier": "untypedPerm",
            "operator": "add",
            "priority": 0,
            "subTarget": "skill.int",
            "target": "skill",
            "value": -11,
            "id": "xze8hwy6"
          }
        ],
        "contextNotes": [
          {
            "subTarget": "cmb",
            "target": "misc",
            "text": "+31 bull rush"
          }
        ],
        "links": {
          "children": []
        },
        "tag": "sbcConversionBuff",
        "useCustomTag": true,
        "flags": {
          "boolean": [],
          "dictionary": []
        },
        "scriptCalls": [],
        "buffType": "perm",
        "active": true,
        "hideFromToken": true
      },
      "effects": [],
      "folder": null,
      "sort": 0,
      "permission": {
        "default": 0,
        "iM1ACTqH0Ml6HJtd": 3
      },
      "flags": {}
    }
  ],
  "effects": [],
  "folder": null,
  "sort": 0,
  "permission": {
    "default": 0
  },
  "flags": {}
}